
  <svg width='853.5px'
       height='448.5px'
       viewBox='0 0 853.5 448.5'
       xmlns='http://www.w3.org/2000/svg'
       xmlns:xlink="http://www.w3.org/1999/xlink">

    <style type='text/css'>
    .keycap .border { stroke: black; stroke-width: 2; }
    .keycap .inner.border { stroke: rgba(0,0,0,.1); }
    </style>
    <defs>
      <linearGradient id="DCS">
        <stop offset="0%" stop-color="black" stop-opacity="0"/>
        <stop offset="40%" stop-color="black" stop-opacity="0.1"/>
        <stop offset="60%" stop-color="black" stop-opacity="0.1"/>
        <stop offset="100%" stop-color="black" stop-opacity="0"/>
      </linearGradient>
      <linearGradient id="SPACE" x1="0%" x2="0%" y1="0%" y2="100%">
        <stop offset="0%" stop-color="black" stop-opacity="0.1"/>
        <stop offset="20%" stop-color="black" stop-opacity="0.0"/>
        <stop offset="40%" stop-color="black" stop-opacity="0.0"/>
        <stop offset="100%" stop-color="black" stop-opacity="0.1"/>
      </linearGradient>
      <radialGradient id="DSA">
        <stop offset="0%" stop-color="black" stop-opacity="0.1"/>
        <stop offset="10%" stop-color="black" stop-opacity="0.1"/>
        <stop offset="100%" stop-color="black" stop-opacity="0"/>
      </radialGradient>
      <radialGradient id="SA" xlink:href="#DSA" />
    </defs>

    <g transform='translate(10,10)'>
      <rect width="833.5" height="428.5"
            stroke="#ddd" stroke-width="1" fill="#222222" rx="6"/>
      <g transform='translate(5,5)'>
        
  <g class='  keycap'
  >

  
    <!-- Outer Border -->
    <rect x="1" y="14.5"
          width="52" height="79"
          rx="5" fill="#111111" class="outer border"/>
    
    <!-- Outer Fill -->
    <rect x="1" y="14.5"
          width="52" height="79"
          rx="5" fill="#111111"/>
    

    
      <!-- Inner Border -->
      <rect x="7" y="17.5"
            width="40" height="67"
            rx="5" fill="#131313" class="inner border"/>
      
      <!-- Inner Fill -->
      <rect x="7" y="17.5"
            width="40" height="67"
            rx="5" fill="#131313"/>
      
      

     
   
  </g>

  <g class='  keycap'
  >

  
    <!-- Outer Border -->
    <rect x="82" y="14.5"
          width="25" height="25"
          rx="5" fill="#111111" class="outer border"/>
    
    <!-- Outer Fill -->
    <rect x="82" y="14.5"
          width="25" height="25"
          rx="5" fill="#111111"/>
    

    
      <!-- Inner Border -->
      <rect x="88" y="17.5"
            width="13" height="13"
            rx="5" fill="#131313" class="inner border"/>
      
      <!-- Inner Fill -->
      <rect x="88" y="17.5"
            width="13" height="13"
            rx="5" fill="#131313"/>
      
      

     
   
  </g>

  <g class='  keycap'
  >

  
    <!-- Outer Border -->
    <rect x="122.5" y="14.5"
          width="25" height="25"
          rx="5" fill="#111111" class="outer border"/>
    
    <!-- Outer Fill -->
    <rect x="122.5" y="14.5"
          width="25" height="25"
          rx="5" fill="#111111"/>
    

    
      <!-- Inner Border -->
      <rect x="128.5" y="17.5"
            width="13" height="13"
            rx="5" fill="#131313" class="inner border"/>
      
      <!-- Inner Fill -->
      <rect x="128.5" y="17.5"
            width="13" height="13"
            rx="5" fill="#131313"/>
      
      

     
   
  </g>

  <g class='  keycap'
  >

  
    <!-- Outer Border -->
    <rect x="149.5" y="14.5"
          width="25" height="25"
          rx="5" fill="#111111" class="outer border"/>
    
    <!-- Outer Fill -->
    <rect x="149.5" y="14.5"
          width="25" height="25"
          rx="5" fill="#111111"/>
    

    
      <!-- Inner Border -->
      <rect x="155.5" y="17.5"
            width="13" height="13"
            rx="5" fill="#131313" class="inner border"/>
      
      <!-- Inner Fill -->
      <rect x="155.5" y="17.5"
            width="13" height="13"
            rx="5" fill="#131313"/>
      
      

     
   
  </g>

  <g class='  keycap'
  >

  
    <!-- Outer Border -->
    <rect x="190" y="14.5"
          width="25" height="25"
          rx="5" fill="#111111" class="outer border"/>
    
    <!-- Outer Fill -->
    <rect x="190" y="14.5"
          width="25" height="25"
          rx="5" fill="#111111"/>
    

    
      <!-- Inner Border -->
      <rect x="196" y="17.5"
            width="13" height="13"
            rx="5" fill="#131313" class="inner border"/>
      
      <!-- Inner Fill -->
      <rect x="196" y="17.5"
            width="13" height="13"
            rx="5" fill="#131313"/>
      
      

     
   
  </g>

  <g class='  keycap'
  >

  
    <!-- Outer Border -->
    <rect x="244" y="14.5"
          width="52" height="25"
          rx="5" fill="#003cad" class="outer border"/>
    
    <!-- Outer Fill -->
    <rect x="244" y="14.5"
          width="52" height="25"
          rx="5" fill="#003cad"/>
    

    
      <!-- Inner Border -->
      <rect x="250" y="17.5"
            width="40" height="13"
            rx="5" fill="#2b4abe" class="inner border"/>
      
      <!-- Inner Fill -->
      <rect x="250" y="17.5"
            width="40" height="13"
            rx="5" fill="#2b4abe"/>
      
      

     
   
  </g>

  <g class='  keycap'
  >

  
    <!-- Outer Border -->
    <rect x="365.5" y="14.5"
          width="38.5" height="38.5"
          rx="5" fill="#111111" class="outer border"/>
    
    <!-- Outer Fill -->
    <rect x="365.5" y="14.5"
          width="38.5" height="38.5"
          rx="5" fill="#111111"/>
    

    
      <!-- Inner Border -->
      <rect x="371.5" y="17.5"
            width="26.5" height="26.5"
            rx="5" fill="#131313" class="inner border"/>
      
      <!-- Inner Fill -->
      <rect x="371.5" y="17.5"
            width="26.5" height="26.5"
            rx="5" fill="#131313"/>
      
      

     
   
  </g>

  <g class='  keycap'
  >

  
    <!-- Outer Border -->
    <rect x="433" y="14.5"
          width="52" height="38.5"
          rx="5" fill="#111111" class="outer border"/>
    
    <!-- Outer Fill -->
    <rect x="433" y="14.5"
          width="52" height="38.5"
          rx="5" fill="#111111"/>
    

    
      <!-- Inner Border -->
      <rect x="439" y="17.5"
            width="40" height="26.5"
            rx="5" fill="#131313" class="inner border"/>
      
      <!-- Inner Fill -->
      <rect x="439" y="17.5"
            width="40" height="26.5"
            rx="5" fill="#131313"/>
      
      

     
   
  </g>

  <g class='  keycap'
  >

  
    <!-- Outer Border -->
    <rect x="487" y="14.5"
          width="52" height="38.5"
          rx="5" fill="#111111" class="outer border"/>
    
    <!-- Outer Fill -->
    <rect x="487" y="14.5"
          width="52" height="38.5"
          rx="5" fill="#111111"/>
    

    
      <!-- Inner Border -->
      <rect x="493" y="17.5"
            width="40" height="26.5"
            rx="5" fill="#131313" class="inner border"/>
      
      <!-- Inner Fill -->
      <rect x="493" y="17.5"
            width="40" height="26.5"
            rx="5" fill="#131313"/>
      
      

     
   
  </g>

  <g class='  keycap'
  >

  
    <!-- Outer Border -->
    <rect x="541" y="14.5"
          width="52" height="38.5"
          rx="5" fill="#111111" class="outer border"/>
    
    <!-- Outer Fill -->
    <rect x="541" y="14.5"
          width="52" height="38.5"
          rx="5" fill="#111111"/>
    

    
      <!-- Inner Border -->
      <rect x="547" y="17.5"
            width="40" height="26.5"
            rx="5" fill="#131313" class="inner border"/>
      
      <!-- Inner Fill -->
      <rect x="547" y="17.5"
            width="40" height="26.5"
            rx="5" fill="#131313"/>
      
      

     
   
  </g>

  <g class='  keycap'
  >

  
    <!-- Outer Border -->
    <rect x="595" y="14.5"
          width="52" height="38.5"
          rx="5" fill="#111111" class="outer border"/>
    
    <!-- Outer Fill -->
    <rect x="595" y="14.5"
          width="52" height="38.5"
          rx="5" fill="#111111"/>
    

    
      <!-- Inner Border -->
      <rect x="601" y="17.5"
            width="40" height="26.5"
            rx="5" fill="#131313" class="inner border"/>
      
      <!-- Inner Fill -->
      <rect x="601" y="17.5"
            width="40" height="26.5"
            rx="5" fill="#131313"/>
      
      

     
   
  </g>

  <g class='  keycap'
  >

  
    <!-- Outer Border -->
    <rect x="662.5" y="14.5"
          width="52" height="79"
          rx="5" fill="#111111" class="outer border"/>
    
    <!-- Outer Fill -->
    <rect x="662.5" y="14.5"
          width="52" height="79"
          rx="5" fill="#111111"/>
    

    
      <!-- Inner Border -->
      <rect x="668.5" y="17.5"
            width="40" height="67"
            rx="5" fill="#131313" class="inner border"/>
      
      <!-- Inner Fill -->
      <rect x="668.5" y="17.5"
            width="40" height="67"
            rx="5" fill="#131313"/>
      
      

     
   
  </g>

  <g class='  keycap'
  >

  
    <!-- Outer Border -->
    <rect x="716.5" y="14.5"
          width="52" height="38.5"
          rx="5" fill="#111111" class="outer border"/>
    
    <!-- Outer Fill -->
    <rect x="716.5" y="14.5"
          width="52" height="38.5"
          rx="5" fill="#111111"/>
    

    
      <!-- Inner Border -->
      <rect x="722.5" y="17.5"
            width="40" height="26.5"
            rx="5" fill="#131313" class="inner border"/>
      
      <!-- Inner Fill -->
      <rect x="722.5" y="17.5"
            width="40" height="26.5"
            rx="5" fill="#131313"/>
      
      

     
   
  </g>

  <g class='  keycap'
  >

  
    <!-- Outer Border -->
    <rect x="770.5" y="14.5"
          width="52" height="38.5"
          rx="5" fill="#111111" class="outer border"/>
    
    <!-- Outer Fill -->
    <rect x="770.5" y="14.5"
          width="52" height="38.5"
          rx="5" fill="#111111"/>
    

    
      <!-- Inner Border -->
      <rect x="776.5" y="17.5"
            width="40" height="26.5"
            rx="5" fill="#131313" class="inner border"/>
      
      <!-- Inner Fill -->
      <rect x="776.5" y="17.5"
            width="40" height="26.5"
            rx="5" fill="#131313"/>
      
      

     
   
  </g>

  <g class='  keycap'
  >

  
    <!-- Outer Border -->
    <rect x="55" y="55"
          width="52" height="38.5"
          rx="5" fill="#111111" class="outer border"/>
    
    <!-- Outer Fill -->
    <rect x="55" y="55"
          width="52" height="38.5"
          rx="5" fill="#111111"/>
    

    
      <!-- Inner Border -->
      <rect x="61" y="58"
            width="40" height="26.5"
            rx="5" fill="#131313" class="inner border"/>
      
      <!-- Inner Fill -->
      <rect x="61" y="58"
            width="40" height="26.5"
            rx="5" fill="#131313"/>
      
      

     
   
  </g>

  <g class='  keycap'
  >

  
    <!-- Outer Border -->
    <rect x="109" y="55"
          width="52" height="38.5"
          rx="5" fill="#111111" class="outer border"/>
    
    <!-- Outer Fill -->
    <rect x="109" y="55"
          width="52" height="38.5"
          rx="5" fill="#111111"/>
    

    
      <!-- Inner Border -->
      <rect x="115" y="58"
            width="40" height="26.5"
            rx="5" fill="#131313" class="inner border"/>
      
      <!-- Inner Fill -->
      <rect x="115" y="58"
            width="40" height="26.5"
            rx="5" fill="#131313"/>
      
      

     
   
  </g>

  <g class='  keycap'
  >

  
    <!-- Outer Border -->
    <rect x="163" y="55"
          width="52" height="38.5"
          rx="5" fill="#111111" class="outer border"/>
    
    <!-- Outer Fill -->
    <rect x="163" y="55"
          width="52" height="38.5"
          rx="5" fill="#111111"/>
    

    
      <!-- Inner Border -->
      <rect x="169" y="58"
            width="40" height="26.5"
            rx="5" fill="#131313" class="inner border"/>
      
      <!-- Inner Fill -->
      <rect x="169" y="58"
            width="40" height="26.5"
            rx="5" fill="#131313"/>
      
      

     
   
  </g>

  <g class='  keycap'
  >

  
    <!-- Outer Border -->
    <rect x="217" y="55"
          width="52" height="38.5"
          rx="5" fill="#111111" class="outer border"/>
    
    <!-- Outer Fill -->
    <rect x="217" y="55"
          width="52" height="38.5"
          rx="5" fill="#111111"/>
    

    
      <!-- Inner Border -->
      <rect x="223" y="58"
            width="40" height="26.5"
            rx="5" fill="#131313" class="inner border"/>
      
      <!-- Inner Fill -->
      <rect x="223" y="58"
            width="40" height="26.5"
            rx="5" fill="#131313"/>
      
      

     
   
  </g>

  <g class='  keycap'
  >

  
    <!-- Outer Border -->
    <rect x="271" y="55"
          width="38.5" height="38.5"
          rx="5" fill="#111111" class="outer border"/>
    
    <!-- Outer Fill -->
    <rect x="271" y="55"
          width="38.5" height="38.5"
          rx="5" fill="#111111"/>
    

    
      <!-- Inner Border -->
      <rect x="277" y="58"
            width="26.5" height="26.5"
            rx="5" fill="#131313" class="inner border"/>
      
      <!-- Inner Fill -->
      <rect x="277" y="58"
            width="26.5" height="26.5"
            rx="5" fill="#131313"/>
      
      

     
   
  </g>

  <g class='  keycap'
  >

  
    <!-- Outer Border -->
    <rect x="311.5" y="55"
          width="38.5" height="38.5"
          rx="5" fill="#111111" class="outer border"/>
    
    <!-- Outer Fill -->
    <rect x="311.5" y="55"
          width="38.5" height="38.5"
          rx="5" fill="#111111"/>
    

    
      <!-- Inner Border -->
      <rect x="317.5" y="58"
            width="26.5" height="26.5"
            rx="5" fill="#131313" class="inner border"/>
      
      <!-- Inner Fill -->
      <rect x="317.5" y="58"
            width="26.5" height="26.5"
            rx="5" fill="#131313"/>
      
      

     
   
  </g>

  <g class='  keycap'
  >

  
    <!-- Outer Border -->
    <rect x="352" y="55"
          width="38.5" height="38.5"
          rx="5" fill="#111111" class="outer border"/>
    
    <!-- Outer Fill -->
    <rect x="352" y="55"
          width="38.5" height="38.5"
          rx="5" fill="#111111"/>
    

    
      <!-- Inner Border -->
      <rect x="358" y="58"
            width="26.5" height="26.5"
            rx="5" fill="#131313" class="inner border"/>
      
      <!-- Inner Fill -->
      <rect x="358" y="58"
            width="26.5" height="26.5"
            rx="5" fill="#131313"/>
      
      

     
   
  </g>

  <g class='  keycap'
  >

  
    <!-- Outer Border -->
    <rect x="392.5" y="55"
          width="38.5" height="38.5"
          rx="5" fill="#111111" class="outer border"/>
    
    <!-- Outer Fill -->
    <rect x="392.5" y="55"
          width="38.5" height="38.5"
          rx="5" fill="#111111"/>
    

    
      <!-- Inner Border -->
      <rect x="398.5" y="58"
            width="26.5" height="26.5"
            rx="5" fill="#131313" class="inner border"/>
      
      <!-- Inner Fill -->
      <rect x="398.5" y="58"
            width="26.5" height="26.5"
            rx="5" fill="#131313"/>
      
      

     
   
  </g>

  <g class='  keycap'
  >

  
    <!-- Outer Border -->
    <rect x="433" y="55"
          width="52" height="38.5"
          rx="5" fill="#111111" class="outer border"/>
    
    <!-- Outer Fill -->
    <rect x="433" y="55"
          width="52" height="38.5"
          rx="5" fill="#111111"/>
    

    
      <!-- Inner Border -->
      <rect x="439" y="58"
            width="40" height="26.5"
            rx="5" fill="#131313" class="inner border"/>
      
      <!-- Inner Fill -->
      <rect x="439" y="58"
            width="40" height="26.5"
            rx="5" fill="#131313"/>
      
      

     
   
  </g>

  <g class='  keycap'
  >

  
    <!-- Outer Border -->
    <rect x="487" y="55"
          width="52" height="38.5"
          rx="5" fill="#111111" class="outer border"/>
    
    <!-- Outer Fill -->
    <rect x="487" y="55"
          width="52" height="38.5"
          rx="5" fill="#111111"/>
    

    
      <!-- Inner Border -->
      <rect x="493" y="58"
            width="40" height="26.5"
            rx="5" fill="#131313" class="inner border"/>
      
      <!-- Inner Fill -->
      <rect x="493" y="58"
            width="40" height="26.5"
            rx="5" fill="#131313"/>
      
      

     
   
  </g>

  <g class='  keycap'
  >

  
    <!-- Outer Border -->
    <rect x="541" y="55"
          width="52" height="38.5"
          rx="5" fill="#111111" class="outer border"/>
    
    <!-- Outer Fill -->
    <rect x="541" y="55"
          width="52" height="38.5"
          rx="5" fill="#111111"/>
    

    
      <!-- Inner Border -->
      <rect x="547" y="58"
            width="40" height="26.5"
            rx="5" fill="#131313" class="inner border"/>
      
      <!-- Inner Fill -->
      <rect x="547" y="58"
            width="40" height="26.5"
            rx="5" fill="#131313"/>
      
      

     
   
  </g>

  <g class='  keycap'
  >

  
    <!-- Outer Border -->
    <rect x="595" y="55"
          width="52" height="38.5"
          rx="5" fill="#111111" class="outer border"/>
    
    <!-- Outer Fill -->
    <rect x="595" y="55"
          width="52" height="38.5"
          rx="5" fill="#111111"/>
    

    
      <!-- Inner Border -->
      <rect x="601" y="58"
            width="40" height="26.5"
            rx="5" fill="#131313" class="inner border"/>
      
      <!-- Inner Fill -->
      <rect x="601" y="58"
            width="40" height="26.5"
            rx="5" fill="#131313"/>
      
      

     
   
  </g>

  <g class='  keycap'
  >

  
    <!-- Outer Border -->
    <rect x="716.5" y="55"
          width="52" height="38.5"
          rx="5" fill="#111111" class="outer border"/>
    
    <!-- Outer Fill -->
    <rect x="716.5" y="55"
          width="52" height="38.5"
          rx="5" fill="#111111"/>
    

    
      <!-- Inner Border -->
      <rect x="722.5" y="58"
            width="40" height="26.5"
            rx="5" fill="#131313" class="inner border"/>
      
      <!-- Inner Fill -->
      <rect x="722.5" y="58"
            width="40" height="26.5"
            rx="5" fill="#131313"/>
      
      

     
   
  </g>

  <g class='  keycap'
  >

  
    <!-- Outer Border -->
    <rect x="770.5" y="55"
          width="52" height="38.5"
          rx="5" fill="#111111" class="outer border"/>
    
    <!-- Outer Fill -->
    <rect x="770.5" y="55"
          width="52" height="38.5"
          rx="5" fill="#111111"/>
    

    
      <!-- Inner Border -->
      <rect x="776.5" y="58"
            width="40" height="26.5"
            rx="5" fill="#131313" class="inner border"/>
      
      <!-- Inner Fill -->
      <rect x="776.5" y="58"
            width="40" height="26.5"
            rx="5" fill="#131313"/>
      
      

     
   
  </g>

  <g class='  keycap'
  >

  
    <!-- Outer Border -->
    <rect x="1" y="95.5"
          width="52" height="52"
          rx="5" fill="#111111" class="outer border"/>
    
    <!-- Outer Fill -->
    <rect x="1" y="95.5"
          width="52" height="52"
          rx="5" fill="#111111"/>
    

    
      <!-- Inner Border -->
      <rect x="7" y="98.5"
            width="40" height="40"
            rx="5" fill="#131313" class="inner border"/>
      
      <!-- Inner Fill -->
      <rect x="7" y="98.5"
            width="40" height="40"
            rx="5" fill="#131313"/>
      
      

     
   
  </g>

  <g class='  keycap'
  >

  
    <!-- Outer Border -->
    <rect x="55" y="95.5"
          width="52" height="52"
          rx="5" fill="#111111" class="outer border"/>
    
    <!-- Outer Fill -->
    <rect x="55" y="95.5"
          width="52" height="52"
          rx="5" fill="#111111"/>
    

    
      <!-- Inner Border -->
      <rect x="61" y="98.5"
            width="40" height="40"
            rx="5" fill="#131313" class="inner border"/>
      
      <!-- Inner Fill -->
      <rect x="61" y="98.5"
            width="40" height="40"
            rx="5" fill="#131313"/>
      
      

     
   
  </g>

  <g class='  keycap'
  >

  
    <!-- Outer Border -->
    <rect x="109" y="95.5"
          width="52" height="52"
          rx="5" fill="#111111" class="outer border"/>
    
    <!-- Outer Fill -->
    <rect x="109" y="95.5"
          width="52" height="52"
          rx="5" fill="#111111"/>
    

    
      <!-- Inner Border -->
      <rect x="115" y="98.5"
            width="40" height="40"
            rx="5" fill="#131313" class="inner border"/>
      
      <!-- Inner Fill -->
      <rect x="115" y="98.5"
            width="40" height="40"
            rx="5" fill="#131313"/>
      
      

     
   
  </g>

  <g class='  keycap'
  >

  
    <!-- Outer Border -->
    <rect x="163" y="95.5"
          width="52" height="52"
          rx="5" fill="#111111" class="outer border"/>
    
    <!-- Outer Fill -->
    <rect x="163" y="95.5"
          width="52" height="52"
          rx="5" fill="#111111"/>
    

    
      <!-- Inner Border -->
      <rect x="169" y="98.5"
            width="40" height="40"
            rx="5" fill="#131313" class="inner border"/>
      
      <!-- Inner Fill -->
      <rect x="169" y="98.5"
            width="40" height="40"
            rx="5" fill="#131313"/>
      
      

     
   
  </g>

  <g class='  keycap'
  >

  
    <!-- Outer Border -->
    <rect x="217" y="95.5"
          width="52" height="52"
          rx="5" fill="#111111" class="outer border"/>
    
    <!-- Outer Fill -->
    <rect x="217" y="95.5"
          width="52" height="52"
          rx="5" fill="#111111"/>
    

    
      <!-- Inner Border -->
      <rect x="223" y="98.5"
            width="40" height="40"
            rx="5" fill="#131313" class="inner border"/>
      
      <!-- Inner Fill -->
      <rect x="223" y="98.5"
            width="40" height="40"
            rx="5" fill="#131313"/>
      
      

     
   
  </g>

  <g class='  keycap'
  >

  
    <!-- Outer Border -->
    <rect x="271" y="95.5"
          width="52" height="52"
          rx="5" fill="#111111" class="outer border"/>
    
    <!-- Outer Fill -->
    <rect x="271" y="95.5"
          width="52" height="52"
          rx="5" fill="#111111"/>
    

    
      <!-- Inner Border -->
      <rect x="277" y="98.5"
            width="40" height="40"
            rx="5" fill="#131313" class="inner border"/>
      
      <!-- Inner Fill -->
      <rect x="277" y="98.5"
            width="40" height="40"
            rx="5" fill="#131313"/>
      
      

     
   
  </g>

  <g class='  keycap'
  >

  
    <!-- Outer Border -->
    <rect x="325" y="95.5"
          width="52" height="52"
          rx="5" fill="#111111" class="outer border"/>
    
    <!-- Outer Fill -->
    <rect x="325" y="95.5"
          width="52" height="52"
          rx="5" fill="#111111"/>
    

    
      <!-- Inner Border -->
      <rect x="331" y="98.5"
            width="40" height="40"
            rx="5" fill="#131313" class="inner border"/>
      
      <!-- Inner Fill -->
      <rect x="331" y="98.5"
            width="40" height="40"
            rx="5" fill="#131313"/>
      
      

     
   
  </g>

  <g class='  keycap'
  >

  
    <!-- Outer Border -->
    <rect x="379" y="95.5"
          width="52" height="52"
          rx="5" fill="#111111" class="outer border"/>
    
    <!-- Outer Fill -->
    <rect x="379" y="95.5"
          width="52" height="52"
          rx="5" fill="#111111"/>
    

    
      <!-- Inner Border -->
      <rect x="385" y="98.5"
            width="40" height="40"
            rx="5" fill="#131313" class="inner border"/>
      
      <!-- Inner Fill -->
      <rect x="385" y="98.5"
            width="40" height="40"
            rx="5" fill="#131313"/>
      
      

     
   
  </g>

  <g class='  keycap'
  >

  
    <!-- Outer Border -->
    <rect x="433" y="95.5"
          width="52" height="52"
          rx="5" fill="#111111" class="outer border"/>
    
    <!-- Outer Fill -->
    <rect x="433" y="95.5"
          width="52" height="52"
          rx="5" fill="#111111"/>
    

    
      <!-- Inner Border -->
      <rect x="439" y="98.5"
            width="40" height="40"
            rx="5" fill="#131313" class="inner border"/>
      
      <!-- Inner Fill -->
      <rect x="439" y="98.5"
            width="40" height="40"
            rx="5" fill="#131313"/>
      
      

     
   
  </g>

  <g class='  keycap'
  >

  
    <!-- Outer Border -->
    <rect x="487" y="95.5"
          width="52" height="52"
          rx="5" fill="#111111" class="outer border"/>
    
    <!-- Outer Fill -->
    <rect x="487" y="95.5"
          width="52" height="52"
          rx="5" fill="#111111"/>
    

    
      <!-- Inner Border -->
      <rect x="493" y="98.5"
            width="40" height="40"
            rx="5" fill="#131313" class="inner border"/>
      
      <!-- Inner Fill -->
      <rect x="493" y="98.5"
            width="40" height="40"
            rx="5" fill="#131313"/>
      
      

     
   
  </g>

  <g class='  keycap'
  >

  
    <!-- Outer Border -->
    <rect x="541" y="95.5"
          width="52" height="52"
          rx="5" fill="#111111" class="outer border"/>
    
    <!-- Outer Fill -->
    <rect x="541" y="95.5"
          width="52" height="52"
          rx="5" fill="#111111"/>
    

    
      <!-- Inner Border -->
      <rect x="547" y="98.5"
            width="40" height="40"
            rx="5" fill="#131313" class="inner border"/>
      
      <!-- Inner Fill -->
      <rect x="547" y="98.5"
            width="40" height="40"
            rx="5" fill="#131313"/>
      
      

     
   
  </g>

  <g class='  keycap'
  >

  
    <!-- Outer Border -->
    <rect x="595" y="95.5"
          width="52" height="52"
          rx="5" fill="#111111" class="outer border"/>
    
    <!-- Outer Fill -->
    <rect x="595" y="95.5"
          width="52" height="52"
          rx="5" fill="#111111"/>
    

    
      <!-- Inner Border -->
      <rect x="601" y="98.5"
            width="40" height="40"
            rx="5" fill="#131313" class="inner border"/>
      
      <!-- Inner Fill -->
      <rect x="601" y="98.5"
            width="40" height="40"
            rx="5" fill="#131313"/>
      
      

     
   
  </g>

  <g class='  keycap'
  >

  
    <!-- Outer Border -->
    <rect x="649" y="95.5"
          width="52" height="52"
          rx="5" fill="#111111" class="outer border"/>
    
    <!-- Outer Fill -->
    <rect x="649" y="95.5"
          width="52" height="52"
          rx="5" fill="#111111"/>
    

    
      <!-- Inner Border -->
      <rect x="655" y="98.5"
            width="40" height="40"
            rx="5" fill="#131313" class="inner border"/>
      
      <!-- Inner Fill -->
      <rect x="655" y="98.5"
            width="40" height="40"
            rx="5" fill="#131313"/>
      
      

     
   
  </g>

  <g class='  keycap'
  >

  
    <!-- Outer Border -->
    <rect x="703" y="95.5"
          width="119.5" height="52"
          rx="5" fill="#111111" class="outer border"/>
    
    <!-- Outer Fill -->
    <rect x="703" y="95.5"
          width="119.5" height="52"
          rx="5" fill="#111111"/>
    

    
      <!-- Inner Border -->
      <rect x="709" y="98.5"
            width="107.5" height="40"
            rx="5" fill="#131313" class="inner border"/>
      
      <!-- Inner Fill -->
      <rect x="709" y="98.5"
            width="107.5" height="40"
            rx="5" fill="#131313"/>
      
      

     
   
  </g>

  <g class='  keycap'
  >

  
    <!-- Outer Border -->
    <rect x="1" y="149.5"
          width="79" height="52"
          rx="5" fill="#111111" class="outer border"/>
    
    <!-- Outer Fill -->
    <rect x="1" y="149.5"
          width="79" height="52"
          rx="5" fill="#111111"/>
    

    
      <!-- Inner Border -->
      <rect x="7" y="152.5"
            width="67" height="40"
            rx="5" fill="#131313" class="inner border"/>
      
      <!-- Inner Fill -->
      <rect x="7" y="152.5"
            width="67" height="40"
            rx="5" fill="#131313"/>
      
      

     
   
  </g>

  <g class='  keycap'
  >

  
    <!-- Outer Border -->
    <rect x="82" y="149.5"
          width="52" height="52"
          rx="5" fill="#111111" class="outer border"/>
    
    <!-- Outer Fill -->
    <rect x="82" y="149.5"
          width="52" height="52"
          rx="5" fill="#111111"/>
    

    
      <!-- Inner Border -->
      <rect x="88" y="152.5"
            width="40" height="40"
            rx="5" fill="#131313" class="inner border"/>
      
      <!-- Inner Fill -->
      <rect x="88" y="152.5"
            width="40" height="40"
            rx="5" fill="#131313"/>
      
      

     
   
  </g>

  <g class='  keycap'
  >

  
    <!-- Outer Border -->
    <rect x="136" y="149.5"
          width="52" height="52"
          rx="5" fill="#111111" class="outer border"/>
    
    <!-- Outer Fill -->
    <rect x="136" y="149.5"
          width="52" height="52"
          rx="5" fill="#111111"/>
    

    
      <!-- Inner Border -->
      <rect x="142" y="152.5"
            width="40" height="40"
            rx="5" fill="#131313" class="inner border"/>
      
      <!-- Inner Fill -->
      <rect x="142" y="152.5"
            width="40" height="40"
            rx="5" fill="#131313"/>
      
      

     
   
  </g>

  <g class='  keycap'
  >

  
    <!-- Outer Border -->
    <rect x="190" y="149.5"
          width="52" height="52"
          rx="5" fill="#111111" class="outer border"/>
    
    <!-- Outer Fill -->
    <rect x="190" y="149.5"
          width="52" height="52"
          rx="5" fill="#111111"/>
    

    
      <!-- Inner Border -->
      <rect x="196" y="152.5"
            width="40" height="40"
            rx="5" fill="#131313" class="inner border"/>
      
      <!-- Inner Fill -->
      <rect x="196" y="152.5"
            width="40" height="40"
            rx="5" fill="#131313"/>
      
      

     
   
  </g>

  <g class='  keycap'
  >

  
    <!-- Outer Border -->
    <rect x="244" y="149.5"
          width="52" height="52"
          rx="5" fill="#111111" class="outer border"/>
    
    <!-- Outer Fill -->
    <rect x="244" y="149.5"
          width="52" height="52"
          rx="5" fill="#111111"/>
    

    
      <!-- Inner Border -->
      <rect x="250" y="152.5"
            width="40" height="40"
            rx="5" fill="#131313" class="inner border"/>
      
      <!-- Inner Fill -->
      <rect x="250" y="152.5"
            width="40" height="40"
            rx="5" fill="#131313"/>
      
      

     
   
  </g>

  <g class='  keycap'
  >

  
    <!-- Outer Border -->
    <rect x="298" y="149.5"
          width="52" height="52"
          rx="5" fill="#111111" class="outer border"/>
    
    <!-- Outer Fill -->
    <rect x="298" y="149.5"
          width="52" height="52"
          rx="5" fill="#111111"/>
    

    
      <!-- Inner Border -->
      <rect x="304" y="152.5"
            width="40" height="40"
            rx="5" fill="#131313" class="inner border"/>
      
      <!-- Inner Fill -->
      <rect x="304" y="152.5"
            width="40" height="40"
            rx="5" fill="#131313"/>
      
      

     
   
  </g>

  <g class='  keycap'
  >

  
    <!-- Outer Border -->
    <rect x="352" y="149.5"
          width="52" height="52"
          rx="5" fill="#111111" class="outer border"/>
    
    <!-- Outer Fill -->
    <rect x="352" y="149.5"
          width="52" height="52"
          rx="5" fill="#111111"/>
    

    
      <!-- Inner Border -->
      <rect x="358" y="152.5"
            width="40" height="40"
            rx="5" fill="#131313" class="inner border"/>
      
      <!-- Inner Fill -->
      <rect x="358" y="152.5"
            width="40" height="40"
            rx="5" fill="#131313"/>
      
      

     
   
  </g>

  <g class='  keycap'
  >

  
    <!-- Outer Border -->
    <rect x="406" y="149.5"
          width="52" height="52"
          rx="5" fill="#111111" class="outer border"/>
    
    <!-- Outer Fill -->
    <rect x="406" y="149.5"
          width="52" height="52"
          rx="5" fill="#111111"/>
    

    
      <!-- Inner Border -->
      <rect x="412" y="152.5"
            width="40" height="40"
            rx="5" fill="#131313" class="inner border"/>
      
      <!-- Inner Fill -->
      <rect x="412" y="152.5"
            width="40" height="40"
            rx="5" fill="#131313"/>
      
      

     
   
  </g>

  <g class='  keycap'
  >

  
    <!-- Outer Border -->
    <rect x="460" y="149.5"
          width="52" height="52"
          rx="5" fill="#111111" class="outer border"/>
    
    <!-- Outer Fill -->
    <rect x="460" y="149.5"
          width="52" height="52"
          rx="5" fill="#111111"/>
    

    
      <!-- Inner Border -->
      <rect x="466" y="152.5"
            width="40" height="40"
            rx="5" fill="#131313" class="inner border"/>
      
      <!-- Inner Fill -->
      <rect x="466" y="152.5"
            width="40" height="40"
            rx="5" fill="#131313"/>
      
      

     
   
  </g>

  <g class='  keycap'
  >

  
    <!-- Outer Border -->
    <rect x="514" y="149.5"
          width="52" height="52"
          rx="5" fill="#111111" class="outer border"/>
    
    <!-- Outer Fill -->
    <rect x="514" y="149.5"
          width="52" height="52"
          rx="5" fill="#111111"/>
    

    
      <!-- Inner Border -->
      <rect x="520" y="152.5"
            width="40" height="40"
            rx="5" fill="#131313" class="inner border"/>
      
      <!-- Inner Fill -->
      <rect x="520" y="152.5"
            width="40" height="40"
            rx="5" fill="#131313"/>
      
      

     
   
  </g>

  <g class='  keycap'
  >

  
    <!-- Outer Border -->
    <rect x="568" y="149.5"
          width="52" height="52"
          rx="5" fill="#111111" class="outer border"/>
    
    <!-- Outer Fill -->
    <rect x="568" y="149.5"
          width="52" height="52"
          rx="5" fill="#111111"/>
    

    
      <!-- Inner Border -->
      <rect x="574" y="152.5"
            width="40" height="40"
            rx="5" fill="#131313" class="inner border"/>
      
      <!-- Inner Fill -->
      <rect x="574" y="152.5"
            width="40" height="40"
            rx="5" fill="#131313"/>
      
      

     
   
  </g>

  <g class='  keycap'
  >

  
    <!-- Outer Border -->
    <rect x="622" y="149.5"
          width="52" height="52"
          rx="5" fill="#111111" class="outer border"/>
    
    <!-- Outer Fill -->
    <rect x="622" y="149.5"
          width="52" height="52"
          rx="5" fill="#111111"/>
    

    
      <!-- Inner Border -->
      <rect x="628" y="152.5"
            width="40" height="40"
            rx="5" fill="#131313" class="inner border"/>
      
      <!-- Inner Fill -->
      <rect x="628" y="152.5"
            width="40" height="40"
            rx="5" fill="#131313"/>
      
      

     
   
  </g>

  <g class='  keycap'
  >

  
    <!-- Outer Border -->
    <rect x="676" y="149.5"
          width="52" height="52"
          rx="5" fill="#111111" class="outer border"/>
    
    <!-- Outer Fill -->
    <rect x="676" y="149.5"
          width="52" height="52"
          rx="5" fill="#111111"/>
    

    
      <!-- Inner Border -->
      <rect x="682" y="152.5"
            width="40" height="40"
            rx="5" fill="#131313" class="inner border"/>
      
      <!-- Inner Fill -->
      <rect x="682" y="152.5"
            width="40" height="40"
            rx="5" fill="#131313"/>
      
      

     
   
  </g>

  <g class='  keycap'
  >

  
    <!-- Outer Border -->
    <rect x="730" y="149.5"
          width="92.5" height="52"
          rx="5" fill="#111111" class="outer border"/>
    
    <!-- Outer Fill -->
    <rect x="730" y="149.5"
          width="92.5" height="52"
          rx="5" fill="#111111"/>
    

    
      <!-- Inner Border -->
      <rect x="736" y="152.5"
            width="80.5" height="40"
            rx="5" fill="#131313" class="inner border"/>
      
      <!-- Inner Fill -->
      <rect x="736" y="152.5"
            width="80.5" height="40"
            rx="5" fill="#131313"/>
      
      

     
   
  </g>

  <g class='  keycap'
  >

  
    <!-- Outer Border -->
    <rect x="1" y="203.5"
          width="65.5" height="52"
          rx="5" fill="#111111" class="outer border"/>
    
      <rect x="1" y="203.5"
            width="92.5" height="52"
            rx="5" fill="#111111" class="outer border"/>
    
    <!-- Outer Fill -->
    <rect x="1" y="203.5"
          width="65.5" height="52"
          rx="5" fill="#111111"/>
    
      <rect x="1" y="203.5"
            width="92.5" height="52"
            rx="5" fill="#111111"/>
    

    
      <!-- Inner Border -->
      <rect x="7" y="206.5"
            width="53.5" height="40"
            rx="5" fill="#131313" class="inner border"/>
      
      <!-- Inner Fill -->
      <rect x="7" y="206.5"
            width="53.5" height="40"
            rx="5" fill="#131313"/>
      
      

     
   
  </g>

  <g class='  keycap'
  >

  
    <!-- Outer Border -->
    <rect x="95.5" y="203.5"
          width="52" height="52"
          rx="5" fill="#111111" class="outer border"/>
    
    <!-- Outer Fill -->
    <rect x="95.5" y="203.5"
          width="52" height="52"
          rx="5" fill="#111111"/>
    

    
      <!-- Inner Border -->
      <rect x="101.5" y="206.5"
            width="40" height="40"
            rx="5" fill="#131313" class="inner border"/>
      
      <!-- Inner Fill -->
      <rect x="101.5" y="206.5"
            width="40" height="40"
            rx="5" fill="#131313"/>
      
      

     
   
  </g>

  <g class='  keycap'
  >

  
    <!-- Outer Border -->
    <rect x="149.5" y="203.5"
          width="52" height="52"
          rx="5" fill="#111111" class="outer border"/>
    
    <!-- Outer Fill -->
    <rect x="149.5" y="203.5"
          width="52" height="52"
          rx="5" fill="#111111"/>
    

    
      <!-- Inner Border -->
      <rect x="155.5" y="206.5"
            width="40" height="40"
            rx="5" fill="#131313" class="inner border"/>
      
      <!-- Inner Fill -->
      <rect x="155.5" y="206.5"
            width="40" height="40"
            rx="5" fill="#131313"/>
      
      

     
   
  </g>

  <g class='  keycap'
  >

  
    <!-- Outer Border -->
    <rect x="203.5" y="203.5"
          width="52" height="52"
          rx="5" fill="#111111" class="outer border"/>
    
    <!-- Outer Fill -->
    <rect x="203.5" y="203.5"
          width="52" height="52"
          rx="5" fill="#111111"/>
    

    
      <!-- Inner Border -->
      <rect x="209.5" y="206.5"
            width="40" height="40"
            rx="5" fill="#131313" class="inner border"/>
      
      <!-- Inner Fill -->
      <rect x="209.5" y="206.5"
            width="40" height="40"
            rx="5" fill="#131313"/>
      
      

     
   
  </g>

  <g class='  keycap'
  >

  
    <!-- Outer Border -->
    <rect x="257.5" y="203.5"
          width="52" height="52"
          rx="5" fill="#111111" class="outer border"/>
    
    <!-- Outer Fill -->
    <rect x="257.5" y="203.5"
          width="52" height="52"
          rx="5" fill="#111111"/>
    

    
      <!-- Inner Border -->
      <rect x="263.5" y="206.5"
            width="40" height="40"
            rx="5" fill="#131313" class="inner border"/>
      
      <!-- Inner Fill -->
      <rect x="263.5" y="206.5"
            width="40" height="40"
            rx="5" fill="#131313"/>
      
      

     
   
  </g>

  <g class='  keycap'
  >

  
    <!-- Outer Border -->
    <rect x="311.5" y="203.5"
          width="52" height="52"
          rx="5" fill="#111111" class="outer border"/>
    
    <!-- Outer Fill -->
    <rect x="311.5" y="203.5"
          width="52" height="52"
          rx="5" fill="#111111"/>
    

    
      <!-- Inner Border -->
      <rect x="317.5" y="206.5"
            width="40" height="40"
            rx="5" fill="#131313" class="inner border"/>
      
      <!-- Inner Fill -->
      <rect x="317.5" y="206.5"
            width="40" height="40"
            rx="5" fill="#131313"/>
      
      

     
   
  </g>

  <g class='  keycap'
  >

  
    <!-- Outer Border -->
    <rect x="365.5" y="203.5"
          width="52" height="52"
          rx="5" fill="#111111" class="outer border"/>
    
    <!-- Outer Fill -->
    <rect x="365.5" y="203.5"
          width="52" height="52"
          rx="5" fill="#111111"/>
    

    
      <!-- Inner Border -->
      <rect x="371.5" y="206.5"
            width="40" height="40"
            rx="5" fill="#131313" class="inner border"/>
      
      <!-- Inner Fill -->
      <rect x="371.5" y="206.5"
            width="40" height="40"
            rx="5" fill="#131313"/>
      
      

     
   
  </g>

  <g class='  keycap'
  >

  
    <!-- Outer Border -->
    <rect x="419.5" y="203.5"
          width="52" height="52"
          rx="5" fill="#111111" class="outer border"/>
    
    <!-- Outer Fill -->
    <rect x="419.5" y="203.5"
          width="52" height="52"
          rx="5" fill="#111111"/>
    

    
      <!-- Inner Border -->
      <rect x="425.5" y="206.5"
            width="40" height="40"
            rx="5" fill="#131313" class="inner border"/>
      
      <!-- Inner Fill -->
      <rect x="425.5" y="206.5"
            width="40" height="40"
            rx="5" fill="#131313"/>
      
      

     
   
  </g>

  <g class='  keycap'
  >

  
    <!-- Outer Border -->
    <rect x="473.5" y="203.5"
          width="52" height="52"
          rx="5" fill="#111111" class="outer border"/>
    
    <!-- Outer Fill -->
    <rect x="473.5" y="203.5"
          width="52" height="52"
          rx="5" fill="#111111"/>
    

    
      <!-- Inner Border -->
      <rect x="479.5" y="206.5"
            width="40" height="40"
            rx="5" fill="#131313" class="inner border"/>
      
      <!-- Inner Fill -->
      <rect x="479.5" y="206.5"
            width="40" height="40"
            rx="5" fill="#131313"/>
      
      

     
   
  </g>

  <g class='  keycap'
  >

  
    <!-- Outer Border -->
    <rect x="527.5" y="203.5"
          width="52" height="52"
          rx="5" fill="#111111" class="outer border"/>
    
    <!-- Outer Fill -->
    <rect x="527.5" y="203.5"
          width="52" height="52"
          rx="5" fill="#111111"/>
    

    
      <!-- Inner Border -->
      <rect x="533.5" y="206.5"
            width="40" height="40"
            rx="5" fill="#131313" class="inner border"/>
      
      <!-- Inner Fill -->
      <rect x="533.5" y="206.5"
            width="40" height="40"
            rx="5" fill="#131313"/>
      
      

     
   
  </g>

  <g class='  keycap'
  >

  
    <!-- Outer Border -->
    <rect x="581.5" y="203.5"
          width="52" height="52"
          rx="5" fill="#111111" class="outer border"/>
    
    <!-- Outer Fill -->
    <rect x="581.5" y="203.5"
          width="52" height="52"
          rx="5" fill="#111111"/>
    

    
      <!-- Inner Border -->
      <rect x="587.5" y="206.5"
            width="40" height="40"
            rx="5" fill="#131313" class="inner border"/>
      
      <!-- Inner Fill -->
      <rect x="587.5" y="206.5"
            width="40" height="40"
            rx="5" fill="#131313"/>
      
      

     
   
  </g>

  <g class='  keycap'
  >

  
    <!-- Outer Border -->
    <rect x="635.5" y="203.5"
          width="52" height="52"
          rx="5" fill="#111111" class="outer border"/>
    
    <!-- Outer Fill -->
    <rect x="635.5" y="203.5"
          width="52" height="52"
          rx="5" fill="#111111"/>
    

    
      <!-- Inner Border -->
      <rect x="641.5" y="206.5"
            width="40" height="40"
            rx="5" fill="#131313" class="inner border"/>
      
      <!-- Inner Fill -->
      <rect x="641.5" y="206.5"
            width="40" height="40"
            rx="5" fill="#131313"/>
      
      

     
   
  </g>

  <g class='  keycap'
  >

  
    <!-- Outer Border -->
    <rect x="689.5" y="203.5"
          width="133" height="52"
          rx="5" fill="#003cad" class="outer border"/>
    
    <!-- Outer Fill -->
    <rect x="689.5" y="203.5"
          width="133" height="52"
          rx="5" fill="#003cad"/>
    

    
      <!-- Inner Border -->
      <rect x="695.5" y="206.5"
            width="121" height="40"
            rx="5" fill="#2b4abe" class="inner border"/>
      
      <!-- Inner Fill -->
      <rect x="695.5" y="206.5"
            width="121" height="40"
            rx="5" fill="#2b4abe"/>
      
      

     
   
  </g>

  <g class='  keycap'
  >

  
    <!-- Outer Border -->
    <rect x="352" y="230.5"
          width="25" height="25"
          rx="5" fill="#ff0000" class="outer border"/>
    
    <!-- Outer Fill -->
    <rect x="352" y="230.5"
          width="25" height="25"
          rx="5" fill="#ff0000"/>
    

    
      <!-- Inner Border -->
      <rect x="358" y="233.5"
            width="13" height="13"
            rx="5" fill="#ff4223" class="inner border"/>
      
      <!-- Inner Fill -->
      <rect x="358" y="233.5"
            width="13" height="13"
            rx="5" fill="#ff4223"/>
      
      

     
   
  </g>

  <g class='  keycap'
  >

  
    <!-- Outer Border -->
    <rect x="1" y="257.5"
          width="119.5" height="52"
          rx="5" fill="#111111" class="outer border"/>
    
    <!-- Outer Fill -->
    <rect x="1" y="257.5"
          width="119.5" height="52"
          rx="5" fill="#111111"/>
    

    
      <!-- Inner Border -->
      <rect x="7" y="260.5"
            width="107.5" height="40"
            rx="5" fill="#131313" class="inner border"/>
      
      <!-- Inner Fill -->
      <rect x="7" y="260.5"
            width="107.5" height="40"
            rx="5" fill="#131313"/>
      
      

     
   
  </g>

  <g class='  keycap'
  >

  
    <!-- Outer Border -->
    <rect x="122.5" y="257.5"
          width="52" height="52"
          rx="5" fill="#111111" class="outer border"/>
    
    <!-- Outer Fill -->
    <rect x="122.5" y="257.5"
          width="52" height="52"
          rx="5" fill="#111111"/>
    

    
      <!-- Inner Border -->
      <rect x="128.5" y="260.5"
            width="40" height="40"
            rx="5" fill="#131313" class="inner border"/>
      
      <!-- Inner Fill -->
      <rect x="128.5" y="260.5"
            width="40" height="40"
            rx="5" fill="#131313"/>
      
      

     
   
  </g>

  <g class='  keycap'
  >

  
    <!-- Outer Border -->
    <rect x="176.5" y="257.5"
          width="52" height="52"
          rx="5" fill="#111111" class="outer border"/>
    
    <!-- Outer Fill -->
    <rect x="176.5" y="257.5"
          width="52" height="52"
          rx="5" fill="#111111"/>
    

    
      <!-- Inner Border -->
      <rect x="182.5" y="260.5"
            width="40" height="40"
            rx="5" fill="#131313" class="inner border"/>
      
      <!-- Inner Fill -->
      <rect x="182.5" y="260.5"
            width="40" height="40"
            rx="5" fill="#131313"/>
      
      

     
   
  </g>

  <g class='  keycap'
  >

  
    <!-- Outer Border -->
    <rect x="230.5" y="257.5"
          width="52" height="52"
          rx="5" fill="#111111" class="outer border"/>
    
    <!-- Outer Fill -->
    <rect x="230.5" y="257.5"
          width="52" height="52"
          rx="5" fill="#111111"/>
    

    
      <!-- Inner Border -->
      <rect x="236.5" y="260.5"
            width="40" height="40"
            rx="5" fill="#131313" class="inner border"/>
      
      <!-- Inner Fill -->
      <rect x="236.5" y="260.5"
            width="40" height="40"
            rx="5" fill="#131313"/>
      
      

     
   
  </g>

  <g class='  keycap'
  >

  
    <!-- Outer Border -->
    <rect x="284.5" y="257.5"
          width="52" height="52"
          rx="5" fill="#111111" class="outer border"/>
    
    <!-- Outer Fill -->
    <rect x="284.5" y="257.5"
          width="52" height="52"
          rx="5" fill="#111111"/>
    

    
      <!-- Inner Border -->
      <rect x="290.5" y="260.5"
            width="40" height="40"
            rx="5" fill="#131313" class="inner border"/>
      
      <!-- Inner Fill -->
      <rect x="290.5" y="260.5"
            width="40" height="40"
            rx="5" fill="#131313"/>
      
      

     
   
  </g>

  <g class='  keycap'
  >

  
    <!-- Outer Border -->
    <rect x="338.5" y="257.5"
          width="52" height="52"
          rx="5" fill="#111111" class="outer border"/>
    
    <!-- Outer Fill -->
    <rect x="338.5" y="257.5"
          width="52" height="52"
          rx="5" fill="#111111"/>
    

    
      <!-- Inner Border -->
      <rect x="344.5" y="260.5"
            width="40" height="40"
            rx="5" fill="#131313" class="inner border"/>
      
      <!-- Inner Fill -->
      <rect x="344.5" y="260.5"
            width="40" height="40"
            rx="5" fill="#131313"/>
      
      

     
   
  </g>

  <g class='  keycap'
  >

  
    <!-- Outer Border -->
    <rect x="392.5" y="257.5"
          width="52" height="52"
          rx="5" fill="#111111" class="outer border"/>
    
    <!-- Outer Fill -->
    <rect x="392.5" y="257.5"
          width="52" height="52"
          rx="5" fill="#111111"/>
    

    
      <!-- Inner Border -->
      <rect x="398.5" y="260.5"
            width="40" height="40"
            rx="5" fill="#131313" class="inner border"/>
      
      <!-- Inner Fill -->
      <rect x="398.5" y="260.5"
            width="40" height="40"
            rx="5" fill="#131313"/>
      
      

     
   
  </g>

  <g class='  keycap'
  >

  
    <!-- Outer Border -->
    <rect x="446.5" y="257.5"
          width="52" height="52"
          rx="5" fill="#111111" class="outer border"/>
    
    <!-- Outer Fill -->
    <rect x="446.5" y="257.5"
          width="52" height="52"
          rx="5" fill="#111111"/>
    

    
      <!-- Inner Border -->
      <rect x="452.5" y="260.5"
            width="40" height="40"
            rx="5" fill="#131313" class="inner border"/>
      
      <!-- Inner Fill -->
      <rect x="452.5" y="260.5"
            width="40" height="40"
            rx="5" fill="#131313"/>
      
      

     
   
  </g>

  <g class='  keycap'
  >

  
    <!-- Outer Border -->
    <rect x="500.5" y="257.5"
          width="52" height="52"
          rx="5" fill="#111111" class="outer border"/>
    
    <!-- Outer Fill -->
    <rect x="500.5" y="257.5"
          width="52" height="52"
          rx="5" fill="#111111"/>
    

    
      <!-- Inner Border -->
      <rect x="506.5" y="260.5"
            width="40" height="40"
            rx="5" fill="#131313" class="inner border"/>
      
      <!-- Inner Fill -->
      <rect x="506.5" y="260.5"
            width="40" height="40"
            rx="5" fill="#131313"/>
      
      

     
   
  </g>

  <g class='  keycap'
  >

  
    <!-- Outer Border -->
    <rect x="554.5" y="257.5"
          width="52" height="52"
          rx="5" fill="#111111" class="outer border"/>
    
    <!-- Outer Fill -->
    <rect x="554.5" y="257.5"
          width="52" height="52"
          rx="5" fill="#111111"/>
    

    
      <!-- Inner Border -->
      <rect x="560.5" y="260.5"
            width="40" height="40"
            rx="5" fill="#131313" class="inner border"/>
      
      <!-- Inner Fill -->
      <rect x="560.5" y="260.5"
            width="40" height="40"
            rx="5" fill="#131313"/>
      
      

     
   
  </g>

  <g class='  keycap'
  >

  
    <!-- Outer Border -->
    <rect x="608.5" y="257.5"
          width="52" height="52"
          rx="5" fill="#111111" class="outer border"/>
    
    <!-- Outer Fill -->
    <rect x="608.5" y="257.5"
          width="52" height="52"
          rx="5" fill="#111111"/>
    

    
      <!-- Inner Border -->
      <rect x="614.5" y="260.5"
            width="40" height="40"
            rx="5" fill="#131313" class="inner border"/>
      
      <!-- Inner Fill -->
      <rect x="614.5" y="260.5"
            width="40" height="40"
            rx="5" fill="#131313"/>
      
      

     
   
  </g>

  <g class='  keycap'
  >

  
    <!-- Outer Border -->
    <rect x="662.5" y="257.5"
          width="160" height="52"
          rx="5" fill="#111111" class="outer border"/>
    
    <!-- Outer Fill -->
    <rect x="662.5" y="257.5"
          width="160" height="52"
          rx="5" fill="#111111"/>
    

    
      <!-- Inner Border -->
      <rect x="668.5" y="260.5"
            width="148" height="40"
            rx="5" fill="#131313" class="inner border"/>
      
      <!-- Inner Fill -->
      <rect x="668.5" y="260.5"
            width="148" height="40"
            rx="5" fill="#131313"/>
      
      

     
   
  </g>

  <g class='  keycap'
  >

  
    <!-- Outer Border -->
    <rect x="1" y="311.5"
          width="52" height="52"
          rx="5" fill="#111111" class="outer border"/>
    
    <!-- Outer Fill -->
    <rect x="1" y="311.5"
          width="52" height="52"
          rx="5" fill="#111111"/>
    

    
      <!-- Inner Border -->
      <rect x="7" y="314.5"
            width="40" height="40"
            rx="5" fill="#131313" class="inner border"/>
      
      <!-- Inner Fill -->
      <rect x="7" y="314.5"
            width="40" height="40"
            rx="5" fill="#131313"/>
      
      

     
   
  </g>

  <g class='  keycap'
  >

  
    <!-- Outer Border -->
    <rect x="55" y="311.5"
          width="65.5" height="52"
          rx="5" fill="#111111" class="outer border"/>
    
    <!-- Outer Fill -->
    <rect x="55" y="311.5"
          width="65.5" height="52"
          rx="5" fill="#111111"/>
    

    
      <!-- Inner Border -->
      <rect x="61" y="314.5"
            width="53.5" height="40"
            rx="5" fill="#131313" class="inner border"/>
      
      <!-- Inner Fill -->
      <rect x="61" y="314.5"
            width="53.5" height="40"
            rx="5" fill="#131313"/>
      
      

     
   
  </g>

  <g class='  keycap'
  >

  
    <!-- Outer Border -->
    <rect x="122.5" y="311.5"
          width="38.5" height="52"
          rx="5" fill="#111111" class="outer border"/>
    
    <!-- Outer Fill -->
    <rect x="122.5" y="311.5"
          width="38.5" height="52"
          rx="5" fill="#111111"/>
    

    
      <!-- Inner Border -->
      <rect x="128.5" y="314.5"
            width="26.5" height="40"
            rx="5" fill="#131313" class="inner border"/>
      
      <!-- Inner Fill -->
      <rect x="128.5" y="314.5"
            width="26.5" height="40"
            rx="5" fill="#131313"/>
      
      

     
   
  </g>

  <g class='  keycap'
  >

  
    <!-- Outer Border -->
    <rect x="163" y="311.5"
          width="52" height="52"
          rx="5" fill="#111111" class="outer border"/>
    
    <!-- Outer Fill -->
    <rect x="163" y="311.5"
          width="52" height="52"
          rx="5" fill="#111111"/>
    

    
      <!-- Inner Border -->
      <rect x="169" y="314.5"
            width="40" height="40"
            rx="5" fill="#131313" class="inner border"/>
      
      <!-- Inner Fill -->
      <rect x="169" y="314.5"
            width="40" height="40"
            rx="5" fill="#131313"/>
      
      

     
   
  </g>

  <g class='  keycap'
  >

  
    <!-- Outer Border -->
    <rect x="217" y="311.5"
          width="281.5" height="52"
          rx="5" fill="#111111" class="outer border"/>
    
    <!-- Outer Fill -->
    <rect x="217" y="311.5"
          width="281.5" height="52"
          rx="5" fill="#111111"/>
    

    
      <!-- Inner Border -->
      <rect x="223" y="314.5"
            width="269.5" height="40"
            rx="5" fill="#131313" class="inner border"/>
      
      <!-- Inner Fill -->
      <rect x="223" y="314.5"
            width="269.5" height="40"
            rx="5" fill="#131313"/>
      
      

     
   
  </g>

  <g class='  keycap'
  >

  
    <!-- Outer Border -->
    <rect x="500.5" y="311.5"
          width="52" height="52"
          rx="5" fill="#111111" class="outer border"/>
    
    <!-- Outer Fill -->
    <rect x="500.5" y="311.5"
          width="52" height="52"
          rx="5" fill="#111111"/>
    

    
      <!-- Inner Border -->
      <rect x="506.5" y="314.5"
            width="40" height="40"
            rx="5" fill="#131313" class="inner border"/>
      
      <!-- Inner Fill -->
      <rect x="506.5" y="314.5"
            width="40" height="40"
            rx="5" fill="#131313"/>
      
      

     
   
  </g>

  <g class='  keycap'
  >

  
    <!-- Outer Border -->
    <rect x="554.5" y="311.5"
          width="52" height="52"
          rx="5" fill="#111111" class="outer border"/>
    
    <!-- Outer Fill -->
    <rect x="554.5" y="311.5"
          width="52" height="52"
          rx="5" fill="#111111"/>
    

    
      <!-- Inner Border -->
      <rect x="560.5" y="314.5"
            width="40" height="40"
            rx="5" fill="#131313" class="inner border"/>
      
      <!-- Inner Fill -->
      <rect x="560.5" y="314.5"
            width="40" height="40"
            rx="5" fill="#131313"/>
      
      

     
   
  </g>

  <g class='  keycap'
  >

  
    <!-- Outer Border -->
    <rect x="608.5" y="311.5"
          width="52" height="52"
          rx="5" fill="#111111" class="outer border"/>
    
    <!-- Outer Fill -->
    <rect x="608.5" y="311.5"
          width="52" height="52"
          rx="5" fill="#111111"/>
    

    
      <!-- Inner Border -->
      <rect x="614.5" y="314.5"
            width="40" height="40"
            rx="5" fill="#131313" class="inner border"/>
      
      <!-- Inner Fill -->
      <rect x="614.5" y="314.5"
            width="40" height="40"
            rx="5" fill="#131313"/>
      
      

     
   
  </g>

  <g class='  keycap'
  >

  
    <!-- Outer Border -->
    <rect x="662.5" y="311.5"
          width="52" height="38.5"
          rx="5" fill="#111111" class="outer border"/>
    
    <!-- Outer Fill -->
    <rect x="662.5" y="311.5"
          width="52" height="38.5"
          rx="5" fill="#111111"/>
    

    
      <!-- Inner Border -->
      <rect x="668.5" y="314.5"
            width="40" height="26.5"
            rx="5" fill="#131313" class="inner border"/>
      
      <!-- Inner Fill -->
      <rect x="668.5" y="314.5"
            width="40" height="26.5"
            rx="5" fill="#131313"/>
      
      

     
   
  </g>

  <g class='  keycap'
  >

  
    <!-- Outer Border -->
    <rect x="716.5" y="311.5"
          width="52" height="38.5"
          rx="5" fill="#111111" class="outer border"/>
    
    <!-- Outer Fill -->
    <rect x="716.5" y="311.5"
          width="52" height="38.5"
          rx="5" fill="#111111"/>
    

    
      <!-- Inner Border -->
      <rect x="722.5" y="314.5"
            width="40" height="26.5"
            rx="5" fill="#131313" class="inner border"/>
      
      <!-- Inner Fill -->
      <rect x="722.5" y="314.5"
            width="40" height="26.5"
            rx="5" fill="#131313"/>
      
      

     
   
  </g>

  <g class='  keycap'
  >

  
    <!-- Outer Border -->
    <rect x="770.5" y="311.5"
          width="52" height="38.5"
          rx="5" fill="#111111" class="outer border"/>
    
    <!-- Outer Fill -->
    <rect x="770.5" y="311.5"
          width="52" height="38.5"
          rx="5" fill="#111111"/>
    

    
      <!-- Inner Border -->
      <rect x="776.5" y="314.5"
            width="40" height="26.5"
            rx="5" fill="#131313" class="inner border"/>
      
      <!-- Inner Fill -->
      <rect x="776.5" y="314.5"
            width="40" height="26.5"
            rx="5" fill="#131313"/>
      
      

     
   
  </g>

  <g class='  keycap'
  >

  
    <!-- Outer Border -->
    <rect x="662.5" y="352"
          width="52" height="38.5"
          rx="5" fill="#111111" class="outer border"/>
    
    <!-- Outer Fill -->
    <rect x="662.5" y="352"
          width="52" height="38.5"
          rx="5" fill="#111111"/>
    

    
      <!-- Inner Border -->
      <rect x="668.5" y="355"
            width="40" height="26.5"
            rx="5" fill="#131313" class="inner border"/>
      
      <!-- Inner Fill -->
      <rect x="668.5" y="355"
            width="40" height="26.5"
            rx="5" fill="#131313"/>
      
      

     
   
  </g>

  <g class='  keycap'
  >

  
    <!-- Outer Border -->
    <rect x="716.5" y="352"
          width="52" height="38.5"
          rx="5" fill="#111111" class="outer border"/>
    
    <!-- Outer Fill -->
    <rect x="716.5" y="352"
          width="52" height="38.5"
          rx="5" fill="#111111"/>
    

    
      <!-- Inner Border -->
      <rect x="722.5" y="355"
            width="40" height="26.5"
            rx="5" fill="#131313" class="inner border"/>
      
      <!-- Inner Fill -->
      <rect x="722.5" y="355"
            width="40" height="26.5"
            rx="5" fill="#131313"/>
      
      

     
   
  </g>

  <g class='  keycap'
  >

  
    <!-- Outer Border -->
    <rect x="770.5" y="352"
          width="52" height="38.5"
          rx="5" fill="#111111" class="outer border"/>
    
    <!-- Outer Fill -->
    <rect x="770.5" y="352"
          width="52" height="38.5"
          rx="5" fill="#111111"/>
    

    
      <!-- Inner Border -->
      <rect x="776.5" y="355"
            width="40" height="26.5"
            rx="5" fill="#131313" class="inner border"/>
      
      <!-- Inner Fill -->
      <rect x="776.5" y="355"
            width="40" height="26.5"
            rx="5" fill="#131313"/>
      
      

     
   
  </g>

  <g class='  keycap'
  >

  
    <!-- Outer Border -->
    <rect x="257.5" y="365.5"
          width="52" height="52"
          rx="5" fill="#111111" class="outer border"/>
    
      <rect x="257.5" y="365.5"
            width="79" height="52"
            rx="5" fill="#111111" class="outer border"/>
    
    <!-- Outer Fill -->
    <rect x="257.5" y="365.5"
          width="52" height="52"
          rx="5" fill="#111111"/>
    
      <rect x="257.5" y="365.5"
            width="79" height="52"
            rx="5" fill="#111111"/>
    

    
      <!-- Inner Border -->
      <rect x="263.5" y="368.5"
            width="40" height="40"
            rx="5" fill="#131313" class="inner border"/>
      
        <rect x="263.5" y="368.5"
              width="67" height="40"
              rx="5" fill="#131313" class="inner border"/>
      
      <!-- Inner Fill -->
      <rect x="263.5" y="368.5"
            width="40" height="40"
            rx="5" fill="#131313"/>
      
        <rect x="263.5" y="368.5"
              width="67" height="40"
              rx="5" fill="#131313"/>
      
      

     
   
  </g>

  <g class='  keycap'
  >

  
    <!-- Outer Border -->
    <rect x="338.5" y="365.5"
          width="52" height="52"
          rx="5" fill="#111111" class="outer border"/>
    
    <!-- Outer Fill -->
    <rect x="338.5" y="365.5"
          width="52" height="52"
          rx="5" fill="#111111"/>
    

    
      <!-- Inner Border -->
      <rect x="344.5" y="368.5"
            width="40" height="40"
            rx="5" fill="#131313" class="inner border"/>
      
      <!-- Inner Fill -->
      <rect x="344.5" y="368.5"
            width="40" height="40"
            rx="5" fill="#131313"/>
      
      

     
   
  </g>

  <g class='  keycap'
  >

  
    <!-- Outer Border -->
    <rect x="392.5" y="365.5"
          width="52" height="52"
          rx="5" fill="#111111" class="outer border"/>
    
      <rect x="392.5" y="365.5"
            width="79" height="52"
            rx="5" fill="#111111" class="outer border"/>
    
    <!-- Outer Fill -->
    <rect x="392.5" y="365.5"
          width="52" height="52"
          rx="5" fill="#111111"/>
    
      <rect x="392.5" y="365.5"
            width="79" height="52"
            rx="5" fill="#111111"/>
    

    
      <!-- Inner Border -->
      <rect x="398.5" y="368.5"
            width="40" height="40"
            rx="5" fill="#131313" class="inner border"/>
      
        <rect x="398.5" y="368.5"
              width="67" height="40"
              rx="5" fill="#131313" class="inner border"/>
      
      <!-- Inner Fill -->
      <rect x="398.5" y="368.5"
            width="40" height="40"
            rx="5" fill="#131313"/>
      
        <rect x="398.5" y="368.5"
              width="67" height="40"
              rx="5" fill="#131313"/>
      
      

     
   
  </g>

      </g>
    </g>
  </svg>
