%TF.GenerationSoftware,KiCad,Pcbnew,5.1.8*%
%TF.CreationDate,2020-11-27T17:06:48+01:00*%
%TF.ProjectId,AA01B-S040VA1-breakout,41413031-422d-4533-9034-305641312d62,rev?*%
%TF.SameCoordinates,Original*%
%TF.FileFunction,Paste,Top*%
%TF.FilePolarity,Positive*%
%FSLAX46Y46*%
G04 Gerber Fmt 4.6, Leading zero omitted, Abs format (unit mm)*
G04 Created by KiCad (PCBNEW 5.1.8) date 2020-11-27 17:06:48*
%MOMM*%
%LPD*%
G01*
G04 APERTURE LIST*
%ADD10R,1.150620X1.549400*%
%ADD11R,1.000760X0.203200*%
G04 APERTURE END LIST*
D10*
%TO.C,U1*%
X95524320Y-89148920D03*
X99674680Y-89148920D03*
D11*
X95450660Y-99423220D03*
X95450660Y-99923600D03*
X95450660Y-98922840D03*
X95450660Y-98422460D03*
X95450660Y-96423480D03*
X95450660Y-96923860D03*
X95450660Y-97924620D03*
X95450660Y-97424240D03*
X95450660Y-95923100D03*
X95450660Y-95422720D03*
X95450660Y-90424000D03*
X95450660Y-90924380D03*
X95450660Y-92422980D03*
X95450660Y-92923360D03*
X95450660Y-91922600D03*
X95450660Y-91424760D03*
X95450660Y-93423740D03*
X95450660Y-93924120D03*
X95450660Y-94922340D03*
X95450660Y-94424500D03*
D10*
X95524320Y-101198680D03*
D11*
X99750880Y-94424500D03*
X99750880Y-94922340D03*
X99750880Y-93924120D03*
X99750880Y-93423740D03*
X99750880Y-91424760D03*
X99750880Y-91922600D03*
X99750880Y-92923360D03*
X99750880Y-92422980D03*
X99750880Y-90924380D03*
X99750880Y-90424000D03*
X99750880Y-95422720D03*
X99750880Y-95923100D03*
X99750880Y-97424240D03*
X99750880Y-97924620D03*
X99750880Y-96923860D03*
X99750880Y-96423480D03*
X99750880Y-98422460D03*
X99750880Y-98922840D03*
X99750880Y-99923600D03*
X99750880Y-99423220D03*
D10*
X99674680Y-101198680D03*
%TD*%
M02*
