%TF.GenerationSoftware,KiCad,Pcbnew,5.1.8*%
%TF.CreationDate,2020-11-27T17:06:48+01:00*%
%TF.ProjectId,AA01B-S040VA1-breakout,41413031-422d-4533-9034-305641312d62,rev?*%
%TF.SameCoordinates,Original*%
%TF.FileFunction,Legend,Top*%
%TF.FilePolarity,Positive*%
%FSLAX46Y46*%
G04 Gerber Fmt 4.6, Leading zero omitted, Abs format (unit mm)*
G04 Created by KiCad (PCBNEW 5.1.8) date 2020-11-27 17:06:48*
%MOMM*%
%LPD*%
G01*
G04 APERTURE LIST*
%ADD10C,0.300000*%
%ADD11C,0.120000*%
%ADD12C,0.099060*%
%ADD13C,0.149860*%
G04 APERTURE END LIST*
D10*
X113070000Y-121074571D02*
X113070000Y-119574571D01*
X113427142Y-119574571D01*
X113641428Y-119646000D01*
X113784285Y-119788857D01*
X113855714Y-119931714D01*
X113927142Y-120217428D01*
X113927142Y-120431714D01*
X113855714Y-120717428D01*
X113784285Y-120860285D01*
X113641428Y-121003142D01*
X113427142Y-121074571D01*
X113070000Y-121074571D01*
X115427142Y-121074571D02*
X114927142Y-120360285D01*
X114570000Y-121074571D02*
X114570000Y-119574571D01*
X115141428Y-119574571D01*
X115284285Y-119646000D01*
X115355714Y-119717428D01*
X115427142Y-119860285D01*
X115427142Y-120074571D01*
X115355714Y-120217428D01*
X115284285Y-120288857D01*
X115141428Y-120360285D01*
X114570000Y-120360285D01*
X115855714Y-119574571D02*
X116355714Y-121074571D01*
X116855714Y-119574571D01*
X117998571Y-120074571D02*
X117998571Y-121074571D01*
X117641428Y-119503142D02*
X117284285Y-120574571D01*
X118212857Y-120574571D01*
X113070000Y-118534571D02*
X113070000Y-117034571D01*
X113427142Y-117034571D01*
X113641428Y-117106000D01*
X113784285Y-117248857D01*
X113855714Y-117391714D01*
X113927142Y-117677428D01*
X113927142Y-117891714D01*
X113855714Y-118177428D01*
X113784285Y-118320285D01*
X113641428Y-118463142D01*
X113427142Y-118534571D01*
X113070000Y-118534571D01*
X115427142Y-118534571D02*
X114927142Y-117820285D01*
X114570000Y-118534571D02*
X114570000Y-117034571D01*
X115141428Y-117034571D01*
X115284285Y-117106000D01*
X115355714Y-117177428D01*
X115427142Y-117320285D01*
X115427142Y-117534571D01*
X115355714Y-117677428D01*
X115284285Y-117748857D01*
X115141428Y-117820285D01*
X114570000Y-117820285D01*
X115855714Y-117034571D02*
X116355714Y-118534571D01*
X116855714Y-117034571D01*
X118070000Y-117034571D02*
X117355714Y-117034571D01*
X117284285Y-117748857D01*
X117355714Y-117677428D01*
X117498571Y-117606000D01*
X117855714Y-117606000D01*
X117998571Y-117677428D01*
X118070000Y-117748857D01*
X118141428Y-117891714D01*
X118141428Y-118248857D01*
X118070000Y-118391714D01*
X117998571Y-118463142D01*
X117855714Y-118534571D01*
X117498571Y-118534571D01*
X117355714Y-118463142D01*
X117284285Y-118391714D01*
X113070000Y-115994571D02*
X113070000Y-114494571D01*
X113427142Y-114494571D01*
X113641428Y-114566000D01*
X113784285Y-114708857D01*
X113855714Y-114851714D01*
X113927142Y-115137428D01*
X113927142Y-115351714D01*
X113855714Y-115637428D01*
X113784285Y-115780285D01*
X113641428Y-115923142D01*
X113427142Y-115994571D01*
X113070000Y-115994571D01*
X115427142Y-115994571D02*
X114927142Y-115280285D01*
X114570000Y-115994571D02*
X114570000Y-114494571D01*
X115141428Y-114494571D01*
X115284285Y-114566000D01*
X115355714Y-114637428D01*
X115427142Y-114780285D01*
X115427142Y-114994571D01*
X115355714Y-115137428D01*
X115284285Y-115208857D01*
X115141428Y-115280285D01*
X114570000Y-115280285D01*
X115855714Y-114494571D02*
X116355714Y-115994571D01*
X116855714Y-114494571D01*
X117570000Y-115137428D02*
X117427142Y-115066000D01*
X117355714Y-114994571D01*
X117284285Y-114851714D01*
X117284285Y-114780285D01*
X117355714Y-114637428D01*
X117427142Y-114566000D01*
X117570000Y-114494571D01*
X117855714Y-114494571D01*
X117998571Y-114566000D01*
X118070000Y-114637428D01*
X118141428Y-114780285D01*
X118141428Y-114851714D01*
X118070000Y-114994571D01*
X117998571Y-115066000D01*
X117855714Y-115137428D01*
X117570000Y-115137428D01*
X117427142Y-115208857D01*
X117355714Y-115280285D01*
X117284285Y-115423142D01*
X117284285Y-115708857D01*
X117355714Y-115851714D01*
X117427142Y-115923142D01*
X117570000Y-115994571D01*
X117855714Y-115994571D01*
X117998571Y-115923142D01*
X118070000Y-115851714D01*
X118141428Y-115708857D01*
X118141428Y-115423142D01*
X118070000Y-115280285D01*
X117998571Y-115208857D01*
X117855714Y-115137428D01*
X113070000Y-113454571D02*
X113070000Y-111954571D01*
X113427142Y-111954571D01*
X113641428Y-112026000D01*
X113784285Y-112168857D01*
X113855714Y-112311714D01*
X113927142Y-112597428D01*
X113927142Y-112811714D01*
X113855714Y-113097428D01*
X113784285Y-113240285D01*
X113641428Y-113383142D01*
X113427142Y-113454571D01*
X113070000Y-113454571D01*
X115427142Y-113454571D02*
X114927142Y-112740285D01*
X114570000Y-113454571D02*
X114570000Y-111954571D01*
X115141428Y-111954571D01*
X115284285Y-112026000D01*
X115355714Y-112097428D01*
X115427142Y-112240285D01*
X115427142Y-112454571D01*
X115355714Y-112597428D01*
X115284285Y-112668857D01*
X115141428Y-112740285D01*
X114570000Y-112740285D01*
X115855714Y-111954571D02*
X116355714Y-113454571D01*
X116855714Y-111954571D01*
X117998571Y-111954571D02*
X117712857Y-111954571D01*
X117570000Y-112026000D01*
X117498571Y-112097428D01*
X117355714Y-112311714D01*
X117284285Y-112597428D01*
X117284285Y-113168857D01*
X117355714Y-113311714D01*
X117427142Y-113383142D01*
X117570000Y-113454571D01*
X117855714Y-113454571D01*
X117998571Y-113383142D01*
X118070000Y-113311714D01*
X118141428Y-113168857D01*
X118141428Y-112811714D01*
X118070000Y-112668857D01*
X117998571Y-112597428D01*
X117855714Y-112526000D01*
X117570000Y-112526000D01*
X117427142Y-112597428D01*
X117355714Y-112668857D01*
X117284285Y-112811714D01*
X113070000Y-110914571D02*
X113070000Y-109414571D01*
X113427142Y-109414571D01*
X113641428Y-109486000D01*
X113784285Y-109628857D01*
X113855714Y-109771714D01*
X113927142Y-110057428D01*
X113927142Y-110271714D01*
X113855714Y-110557428D01*
X113784285Y-110700285D01*
X113641428Y-110843142D01*
X113427142Y-110914571D01*
X113070000Y-110914571D01*
X115427142Y-110914571D02*
X114927142Y-110200285D01*
X114570000Y-110914571D02*
X114570000Y-109414571D01*
X115141428Y-109414571D01*
X115284285Y-109486000D01*
X115355714Y-109557428D01*
X115427142Y-109700285D01*
X115427142Y-109914571D01*
X115355714Y-110057428D01*
X115284285Y-110128857D01*
X115141428Y-110200285D01*
X114570000Y-110200285D01*
X115855714Y-109414571D02*
X116355714Y-110914571D01*
X116855714Y-109414571D01*
X117212857Y-109414571D02*
X118141428Y-109414571D01*
X117641428Y-109986000D01*
X117855714Y-109986000D01*
X117998571Y-110057428D01*
X118070000Y-110128857D01*
X118141428Y-110271714D01*
X118141428Y-110628857D01*
X118070000Y-110771714D01*
X117998571Y-110843142D01*
X117855714Y-110914571D01*
X117427142Y-110914571D01*
X117284285Y-110843142D01*
X117212857Y-110771714D01*
X113070000Y-108374571D02*
X113070000Y-106874571D01*
X113427142Y-106874571D01*
X113641428Y-106946000D01*
X113784285Y-107088857D01*
X113855714Y-107231714D01*
X113927142Y-107517428D01*
X113927142Y-107731714D01*
X113855714Y-108017428D01*
X113784285Y-108160285D01*
X113641428Y-108303142D01*
X113427142Y-108374571D01*
X113070000Y-108374571D01*
X115427142Y-108374571D02*
X114927142Y-107660285D01*
X114570000Y-108374571D02*
X114570000Y-106874571D01*
X115141428Y-106874571D01*
X115284285Y-106946000D01*
X115355714Y-107017428D01*
X115427142Y-107160285D01*
X115427142Y-107374571D01*
X115355714Y-107517428D01*
X115284285Y-107588857D01*
X115141428Y-107660285D01*
X114570000Y-107660285D01*
X115855714Y-106874571D02*
X116355714Y-108374571D01*
X116855714Y-106874571D01*
X117212857Y-106874571D02*
X118212857Y-106874571D01*
X117570000Y-108374571D01*
X113070000Y-105834571D02*
X113070000Y-104334571D01*
X113427142Y-104334571D01*
X113641428Y-104406000D01*
X113784285Y-104548857D01*
X113855714Y-104691714D01*
X113927142Y-104977428D01*
X113927142Y-105191714D01*
X113855714Y-105477428D01*
X113784285Y-105620285D01*
X113641428Y-105763142D01*
X113427142Y-105834571D01*
X113070000Y-105834571D01*
X115427142Y-105834571D02*
X114927142Y-105120285D01*
X114570000Y-105834571D02*
X114570000Y-104334571D01*
X115141428Y-104334571D01*
X115284285Y-104406000D01*
X115355714Y-104477428D01*
X115427142Y-104620285D01*
X115427142Y-104834571D01*
X115355714Y-104977428D01*
X115284285Y-105048857D01*
X115141428Y-105120285D01*
X114570000Y-105120285D01*
X115855714Y-104334571D02*
X116355714Y-105834571D01*
X116855714Y-104334571D01*
X117284285Y-104477428D02*
X117355714Y-104406000D01*
X117498571Y-104334571D01*
X117855714Y-104334571D01*
X117998571Y-104406000D01*
X118070000Y-104477428D01*
X118141428Y-104620285D01*
X118141428Y-104763142D01*
X118070000Y-104977428D01*
X117212857Y-105834571D01*
X118141428Y-105834571D01*
X111593714Y-103294571D02*
X111593714Y-101794571D01*
X111950857Y-101794571D01*
X112165142Y-101866000D01*
X112308000Y-102008857D01*
X112379428Y-102151714D01*
X112450857Y-102437428D01*
X112450857Y-102651714D01*
X112379428Y-102937428D01*
X112308000Y-103080285D01*
X112165142Y-103223142D01*
X111950857Y-103294571D01*
X111593714Y-103294571D01*
X113950857Y-103294571D02*
X113450857Y-102580285D01*
X113093714Y-103294571D02*
X113093714Y-101794571D01*
X113665142Y-101794571D01*
X113808000Y-101866000D01*
X113879428Y-101937428D01*
X113950857Y-102080285D01*
X113950857Y-102294571D01*
X113879428Y-102437428D01*
X113808000Y-102508857D01*
X113665142Y-102580285D01*
X113093714Y-102580285D01*
X114379428Y-101794571D02*
X114879428Y-103294571D01*
X115379428Y-101794571D01*
X116665142Y-103294571D02*
X115808000Y-103294571D01*
X116236571Y-103294571D02*
X116236571Y-101794571D01*
X116093714Y-102008857D01*
X115950857Y-102151714D01*
X115808000Y-102223142D01*
X117593714Y-101794571D02*
X117736571Y-101794571D01*
X117879428Y-101866000D01*
X117950857Y-101937428D01*
X118022285Y-102080285D01*
X118093714Y-102366000D01*
X118093714Y-102723142D01*
X118022285Y-103008857D01*
X117950857Y-103151714D01*
X117879428Y-103223142D01*
X117736571Y-103294571D01*
X117593714Y-103294571D01*
X117450857Y-103223142D01*
X117379428Y-103151714D01*
X117308000Y-103008857D01*
X117236571Y-102723142D01*
X117236571Y-102366000D01*
X117308000Y-102080285D01*
X117379428Y-101937428D01*
X117450857Y-101866000D01*
X117593714Y-101794571D01*
X113070000Y-100754571D02*
X113070000Y-99254571D01*
X113427142Y-99254571D01*
X113641428Y-99326000D01*
X113784285Y-99468857D01*
X113855714Y-99611714D01*
X113927142Y-99897428D01*
X113927142Y-100111714D01*
X113855714Y-100397428D01*
X113784285Y-100540285D01*
X113641428Y-100683142D01*
X113427142Y-100754571D01*
X113070000Y-100754571D01*
X115427142Y-100754571D02*
X114927142Y-100040285D01*
X114570000Y-100754571D02*
X114570000Y-99254571D01*
X115141428Y-99254571D01*
X115284285Y-99326000D01*
X115355714Y-99397428D01*
X115427142Y-99540285D01*
X115427142Y-99754571D01*
X115355714Y-99897428D01*
X115284285Y-99968857D01*
X115141428Y-100040285D01*
X114570000Y-100040285D01*
X115855714Y-99254571D02*
X116355714Y-100754571D01*
X116855714Y-99254571D01*
X118141428Y-100754571D02*
X117284285Y-100754571D01*
X117712857Y-100754571D02*
X117712857Y-99254571D01*
X117570000Y-99468857D01*
X117427142Y-99611714D01*
X117284285Y-99683142D01*
X113070000Y-98214571D02*
X113070000Y-96714571D01*
X113427142Y-96714571D01*
X113641428Y-96786000D01*
X113784285Y-96928857D01*
X113855714Y-97071714D01*
X113927142Y-97357428D01*
X113927142Y-97571714D01*
X113855714Y-97857428D01*
X113784285Y-98000285D01*
X113641428Y-98143142D01*
X113427142Y-98214571D01*
X113070000Y-98214571D01*
X115427142Y-98214571D02*
X114927142Y-97500285D01*
X114570000Y-98214571D02*
X114570000Y-96714571D01*
X115141428Y-96714571D01*
X115284285Y-96786000D01*
X115355714Y-96857428D01*
X115427142Y-97000285D01*
X115427142Y-97214571D01*
X115355714Y-97357428D01*
X115284285Y-97428857D01*
X115141428Y-97500285D01*
X114570000Y-97500285D01*
X115855714Y-96714571D02*
X116355714Y-98214571D01*
X116855714Y-96714571D01*
X117427142Y-98214571D02*
X117712857Y-98214571D01*
X117855714Y-98143142D01*
X117927142Y-98071714D01*
X118070000Y-97857428D01*
X118141428Y-97571714D01*
X118141428Y-97000285D01*
X118070000Y-96857428D01*
X117998571Y-96786000D01*
X117855714Y-96714571D01*
X117570000Y-96714571D01*
X117427142Y-96786000D01*
X117355714Y-96857428D01*
X117284285Y-97000285D01*
X117284285Y-97357428D01*
X117355714Y-97500285D01*
X117427142Y-97571714D01*
X117570000Y-97643142D01*
X117855714Y-97643142D01*
X117998571Y-97571714D01*
X118070000Y-97500285D01*
X118141428Y-97357428D01*
X113070000Y-95674571D02*
X113070000Y-94174571D01*
X113427142Y-94174571D01*
X113641428Y-94246000D01*
X113784285Y-94388857D01*
X113855714Y-94531714D01*
X113927142Y-94817428D01*
X113927142Y-95031714D01*
X113855714Y-95317428D01*
X113784285Y-95460285D01*
X113641428Y-95603142D01*
X113427142Y-95674571D01*
X113070000Y-95674571D01*
X115427142Y-95674571D02*
X114927142Y-94960285D01*
X114570000Y-95674571D02*
X114570000Y-94174571D01*
X115141428Y-94174571D01*
X115284285Y-94246000D01*
X115355714Y-94317428D01*
X115427142Y-94460285D01*
X115427142Y-94674571D01*
X115355714Y-94817428D01*
X115284285Y-94888857D01*
X115141428Y-94960285D01*
X114570000Y-94960285D01*
X115855714Y-94174571D02*
X116355714Y-95674571D01*
X116855714Y-94174571D01*
X117641428Y-94174571D02*
X117784285Y-94174571D01*
X117927142Y-94246000D01*
X117998571Y-94317428D01*
X118070000Y-94460285D01*
X118141428Y-94746000D01*
X118141428Y-95103142D01*
X118070000Y-95388857D01*
X117998571Y-95531714D01*
X117927142Y-95603142D01*
X117784285Y-95674571D01*
X117641428Y-95674571D01*
X117498571Y-95603142D01*
X117427142Y-95531714D01*
X117355714Y-95388857D01*
X117284285Y-95103142D01*
X117284285Y-94746000D01*
X117355714Y-94460285D01*
X117427142Y-94317428D01*
X117498571Y-94246000D01*
X117641428Y-94174571D01*
X111593714Y-93134571D02*
X111593714Y-91634571D01*
X111950857Y-91634571D01*
X112165142Y-91706000D01*
X112308000Y-91848857D01*
X112379428Y-91991714D01*
X112450857Y-92277428D01*
X112450857Y-92491714D01*
X112379428Y-92777428D01*
X112308000Y-92920285D01*
X112165142Y-93063142D01*
X111950857Y-93134571D01*
X111593714Y-93134571D01*
X113950857Y-93134571D02*
X113450857Y-92420285D01*
X113093714Y-93134571D02*
X113093714Y-91634571D01*
X113665142Y-91634571D01*
X113808000Y-91706000D01*
X113879428Y-91777428D01*
X113950857Y-91920285D01*
X113950857Y-92134571D01*
X113879428Y-92277428D01*
X113808000Y-92348857D01*
X113665142Y-92420285D01*
X113093714Y-92420285D01*
X114379428Y-91634571D02*
X114879428Y-93134571D01*
X115379428Y-91634571D01*
X116665142Y-93134571D02*
X115808000Y-93134571D01*
X116236571Y-93134571D02*
X116236571Y-91634571D01*
X116093714Y-91848857D01*
X115950857Y-91991714D01*
X115808000Y-92063142D01*
X118093714Y-93134571D02*
X117236571Y-93134571D01*
X117665142Y-93134571D02*
X117665142Y-91634571D01*
X117522285Y-91848857D01*
X117379428Y-91991714D01*
X117236571Y-92063142D01*
X111593714Y-90594571D02*
X111593714Y-89094571D01*
X111950857Y-89094571D01*
X112165142Y-89166000D01*
X112308000Y-89308857D01*
X112379428Y-89451714D01*
X112450857Y-89737428D01*
X112450857Y-89951714D01*
X112379428Y-90237428D01*
X112308000Y-90380285D01*
X112165142Y-90523142D01*
X111950857Y-90594571D01*
X111593714Y-90594571D01*
X113950857Y-90594571D02*
X113450857Y-89880285D01*
X113093714Y-90594571D02*
X113093714Y-89094571D01*
X113665142Y-89094571D01*
X113808000Y-89166000D01*
X113879428Y-89237428D01*
X113950857Y-89380285D01*
X113950857Y-89594571D01*
X113879428Y-89737428D01*
X113808000Y-89808857D01*
X113665142Y-89880285D01*
X113093714Y-89880285D01*
X114379428Y-89094571D02*
X114879428Y-90594571D01*
X115379428Y-89094571D01*
X116665142Y-90594571D02*
X115808000Y-90594571D01*
X116236571Y-90594571D02*
X116236571Y-89094571D01*
X116093714Y-89308857D01*
X115950857Y-89451714D01*
X115808000Y-89523142D01*
X117950857Y-89594571D02*
X117950857Y-90594571D01*
X117593714Y-89023142D02*
X117236571Y-90094571D01*
X118165142Y-90094571D01*
X111593714Y-88054571D02*
X111593714Y-86554571D01*
X111950857Y-86554571D01*
X112165142Y-86626000D01*
X112308000Y-86768857D01*
X112379428Y-86911714D01*
X112450857Y-87197428D01*
X112450857Y-87411714D01*
X112379428Y-87697428D01*
X112308000Y-87840285D01*
X112165142Y-87983142D01*
X111950857Y-88054571D01*
X111593714Y-88054571D01*
X113950857Y-88054571D02*
X113450857Y-87340285D01*
X113093714Y-88054571D02*
X113093714Y-86554571D01*
X113665142Y-86554571D01*
X113808000Y-86626000D01*
X113879428Y-86697428D01*
X113950857Y-86840285D01*
X113950857Y-87054571D01*
X113879428Y-87197428D01*
X113808000Y-87268857D01*
X113665142Y-87340285D01*
X113093714Y-87340285D01*
X114379428Y-86554571D02*
X114879428Y-88054571D01*
X115379428Y-86554571D01*
X116665142Y-88054571D02*
X115808000Y-88054571D01*
X116236571Y-88054571D02*
X116236571Y-86554571D01*
X116093714Y-86768857D01*
X115950857Y-86911714D01*
X115808000Y-86983142D01*
X117236571Y-86697428D02*
X117308000Y-86626000D01*
X117450857Y-86554571D01*
X117808000Y-86554571D01*
X117950857Y-86626000D01*
X118022285Y-86697428D01*
X118093714Y-86840285D01*
X118093714Y-86983142D01*
X118022285Y-87197428D01*
X117165142Y-88054571D01*
X118093714Y-88054571D01*
X111593714Y-85514571D02*
X111593714Y-84014571D01*
X111950857Y-84014571D01*
X112165142Y-84086000D01*
X112308000Y-84228857D01*
X112379428Y-84371714D01*
X112450857Y-84657428D01*
X112450857Y-84871714D01*
X112379428Y-85157428D01*
X112308000Y-85300285D01*
X112165142Y-85443142D01*
X111950857Y-85514571D01*
X111593714Y-85514571D01*
X113950857Y-85514571D02*
X113450857Y-84800285D01*
X113093714Y-85514571D02*
X113093714Y-84014571D01*
X113665142Y-84014571D01*
X113808000Y-84086000D01*
X113879428Y-84157428D01*
X113950857Y-84300285D01*
X113950857Y-84514571D01*
X113879428Y-84657428D01*
X113808000Y-84728857D01*
X113665142Y-84800285D01*
X113093714Y-84800285D01*
X114379428Y-84014571D02*
X114879428Y-85514571D01*
X115379428Y-84014571D01*
X116665142Y-85514571D02*
X115808000Y-85514571D01*
X116236571Y-85514571D02*
X116236571Y-84014571D01*
X116093714Y-84228857D01*
X115950857Y-84371714D01*
X115808000Y-84443142D01*
X118022285Y-84014571D02*
X117308000Y-84014571D01*
X117236571Y-84728857D01*
X117308000Y-84657428D01*
X117450857Y-84586000D01*
X117808000Y-84586000D01*
X117950857Y-84657428D01*
X118022285Y-84728857D01*
X118093714Y-84871714D01*
X118093714Y-85228857D01*
X118022285Y-85371714D01*
X117950857Y-85443142D01*
X117808000Y-85514571D01*
X117450857Y-85514571D01*
X117308000Y-85443142D01*
X117236571Y-85371714D01*
X114935142Y-79006000D02*
X114792285Y-78934571D01*
X114578000Y-78934571D01*
X114363714Y-79006000D01*
X114220857Y-79148857D01*
X114149428Y-79291714D01*
X114078000Y-79577428D01*
X114078000Y-79791714D01*
X114149428Y-80077428D01*
X114220857Y-80220285D01*
X114363714Y-80363142D01*
X114578000Y-80434571D01*
X114720857Y-80434571D01*
X114935142Y-80363142D01*
X115006571Y-80291714D01*
X115006571Y-79791714D01*
X114720857Y-79791714D01*
X115649428Y-80434571D02*
X115649428Y-78934571D01*
X116506571Y-80434571D01*
X116506571Y-78934571D01*
X117220857Y-80434571D02*
X117220857Y-78934571D01*
X117578000Y-78934571D01*
X117792285Y-79006000D01*
X117935142Y-79148857D01*
X118006571Y-79291714D01*
X118078000Y-79577428D01*
X118078000Y-79791714D01*
X118006571Y-80077428D01*
X117935142Y-80220285D01*
X117792285Y-80363142D01*
X117578000Y-80434571D01*
X117220857Y-80434571D01*
X111593714Y-82974571D02*
X111593714Y-81474571D01*
X111950857Y-81474571D01*
X112165142Y-81546000D01*
X112308000Y-81688857D01*
X112379428Y-81831714D01*
X112450857Y-82117428D01*
X112450857Y-82331714D01*
X112379428Y-82617428D01*
X112308000Y-82760285D01*
X112165142Y-82903142D01*
X111950857Y-82974571D01*
X111593714Y-82974571D01*
X113950857Y-82974571D02*
X113450857Y-82260285D01*
X113093714Y-82974571D02*
X113093714Y-81474571D01*
X113665142Y-81474571D01*
X113808000Y-81546000D01*
X113879428Y-81617428D01*
X113950857Y-81760285D01*
X113950857Y-81974571D01*
X113879428Y-82117428D01*
X113808000Y-82188857D01*
X113665142Y-82260285D01*
X113093714Y-82260285D01*
X114379428Y-81474571D02*
X114879428Y-82974571D01*
X115379428Y-81474571D01*
X116665142Y-82974571D02*
X115808000Y-82974571D01*
X116236571Y-82974571D02*
X116236571Y-81474571D01*
X116093714Y-81688857D01*
X115950857Y-81831714D01*
X115808000Y-81903142D01*
X117165142Y-81474571D02*
X118093714Y-81474571D01*
X117593714Y-82046000D01*
X117808000Y-82046000D01*
X117950857Y-82117428D01*
X118022285Y-82188857D01*
X118093714Y-82331714D01*
X118093714Y-82688857D01*
X118022285Y-82831714D01*
X117950857Y-82903142D01*
X117808000Y-82974571D01*
X117379428Y-82974571D01*
X117236571Y-82903142D01*
X117165142Y-82831714D01*
X103093142Y-77894571D02*
X102378857Y-77894571D01*
X102378857Y-76394571D01*
X103593142Y-77108857D02*
X104093142Y-77108857D01*
X104307428Y-77894571D02*
X103593142Y-77894571D01*
X103593142Y-76394571D01*
X104307428Y-76394571D01*
X104950285Y-77894571D02*
X104950285Y-76394571D01*
X105307428Y-76394571D01*
X105521714Y-76466000D01*
X105664571Y-76608857D01*
X105736000Y-76751714D01*
X105807428Y-77037428D01*
X105807428Y-77251714D01*
X105736000Y-77537428D01*
X105664571Y-77680285D01*
X105521714Y-77823142D01*
X105307428Y-77894571D01*
X104950285Y-77894571D01*
X106450285Y-77894571D02*
X106450285Y-76394571D01*
X106950285Y-77466000D01*
X107450285Y-76394571D01*
X107450285Y-77894571D01*
X108164571Y-77894571D02*
X108164571Y-76394571D01*
X109736000Y-77751714D02*
X109664571Y-77823142D01*
X109450285Y-77894571D01*
X109307428Y-77894571D01*
X109093142Y-77823142D01*
X108950285Y-77680285D01*
X108878857Y-77537428D01*
X108807428Y-77251714D01*
X108807428Y-77037428D01*
X108878857Y-76751714D01*
X108950285Y-76608857D01*
X109093142Y-76466000D01*
X109307428Y-76394571D01*
X109450285Y-76394571D01*
X109664571Y-76466000D01*
X109736000Y-76537428D01*
X110378857Y-77894571D02*
X110378857Y-76394571D01*
X110878857Y-77466000D01*
X111378857Y-76394571D01*
X111378857Y-77894571D01*
X112093142Y-76394571D02*
X112093142Y-77608857D01*
X112164571Y-77751714D01*
X112236000Y-77823142D01*
X112378857Y-77894571D01*
X112664571Y-77894571D01*
X112807428Y-77823142D01*
X112878857Y-77751714D01*
X112950285Y-77608857D01*
X112950285Y-76394571D01*
X113450285Y-76394571D02*
X114307428Y-76394571D01*
X113878857Y-77894571D02*
X113878857Y-76394571D01*
X114807428Y-77108857D02*
X115307428Y-77108857D01*
X115521714Y-77894571D02*
X114807428Y-77894571D01*
X114807428Y-76394571D01*
X115521714Y-76394571D01*
X115807428Y-78037428D02*
X116950285Y-78037428D01*
X118164571Y-77894571D02*
X117664571Y-77180285D01*
X117307428Y-77894571D02*
X117307428Y-76394571D01*
X117878857Y-76394571D01*
X118021714Y-76466000D01*
X118093142Y-76537428D01*
X118164571Y-76680285D01*
X118164571Y-76894571D01*
X118093142Y-77037428D01*
X118021714Y-77108857D01*
X117878857Y-77180285D01*
X117307428Y-77180285D01*
X107672857Y-73854571D02*
X108172857Y-75354571D01*
X108672857Y-73854571D01*
X110030000Y-75211714D02*
X109958571Y-75283142D01*
X109744285Y-75354571D01*
X109601428Y-75354571D01*
X109387142Y-75283142D01*
X109244285Y-75140285D01*
X109172857Y-74997428D01*
X109101428Y-74711714D01*
X109101428Y-74497428D01*
X109172857Y-74211714D01*
X109244285Y-74068857D01*
X109387142Y-73926000D01*
X109601428Y-73854571D01*
X109744285Y-73854571D01*
X109958571Y-73926000D01*
X110030000Y-73997428D01*
X111530000Y-75211714D02*
X111458571Y-75283142D01*
X111244285Y-75354571D01*
X111101428Y-75354571D01*
X110887142Y-75283142D01*
X110744285Y-75140285D01*
X110672857Y-74997428D01*
X110601428Y-74711714D01*
X110601428Y-74497428D01*
X110672857Y-74211714D01*
X110744285Y-74068857D01*
X110887142Y-73926000D01*
X111101428Y-73854571D01*
X111244285Y-73854571D01*
X111458571Y-73926000D01*
X111530000Y-73997428D01*
X112887142Y-73854571D02*
X112172857Y-73854571D01*
X112101428Y-74568857D01*
X112172857Y-74497428D01*
X112315714Y-74426000D01*
X112672857Y-74426000D01*
X112815714Y-74497428D01*
X112887142Y-74568857D01*
X112958571Y-74711714D01*
X112958571Y-75068857D01*
X112887142Y-75211714D01*
X112815714Y-75283142D01*
X112672857Y-75354571D01*
X112315714Y-75354571D01*
X112172857Y-75283142D01*
X112101428Y-75211714D01*
X114101428Y-74568857D02*
X114315714Y-74640285D01*
X114387142Y-74711714D01*
X114458571Y-74854571D01*
X114458571Y-75068857D01*
X114387142Y-75211714D01*
X114315714Y-75283142D01*
X114172857Y-75354571D01*
X113601428Y-75354571D01*
X113601428Y-73854571D01*
X114101428Y-73854571D01*
X114244285Y-73926000D01*
X114315714Y-73997428D01*
X114387142Y-74140285D01*
X114387142Y-74283142D01*
X114315714Y-74426000D01*
X114244285Y-74497428D01*
X114101428Y-74568857D01*
X113601428Y-74568857D01*
X114744285Y-75497428D02*
X115887142Y-75497428D01*
X116030000Y-73854571D02*
X116887142Y-73854571D01*
X116458571Y-75354571D02*
X116458571Y-73854571D01*
X117387142Y-75354571D02*
X117387142Y-73854571D01*
X117958571Y-73854571D01*
X118101428Y-73926000D01*
X118172857Y-73997428D01*
X118244285Y-74140285D01*
X118244285Y-74354571D01*
X118172857Y-74497428D01*
X118101428Y-74568857D01*
X117958571Y-74640285D01*
X117387142Y-74640285D01*
X106410857Y-71314571D02*
X107268000Y-71314571D01*
X106839428Y-72814571D02*
X106839428Y-71314571D01*
X107768000Y-72814571D02*
X107768000Y-71314571D01*
X108339428Y-71314571D01*
X108482285Y-71386000D01*
X108553714Y-71457428D01*
X108625142Y-71600285D01*
X108625142Y-71814571D01*
X108553714Y-71957428D01*
X108482285Y-72028857D01*
X108339428Y-72100285D01*
X107768000Y-72100285D01*
X109910857Y-71814571D02*
X109910857Y-72814571D01*
X109553714Y-71243142D02*
X109196571Y-72314571D01*
X110125142Y-72314571D01*
X110339428Y-72957428D02*
X111482285Y-72957428D01*
X112696571Y-72814571D02*
X112196571Y-72100285D01*
X111839428Y-72814571D02*
X111839428Y-71314571D01*
X112410857Y-71314571D01*
X112553714Y-71386000D01*
X112625142Y-71457428D01*
X112696571Y-71600285D01*
X112696571Y-71814571D01*
X112625142Y-71957428D01*
X112553714Y-72028857D01*
X112410857Y-72100285D01*
X111839428Y-72100285D01*
X113339428Y-72028857D02*
X113839428Y-72028857D01*
X114053714Y-72814571D02*
X113339428Y-72814571D01*
X113339428Y-71314571D01*
X114053714Y-71314571D01*
X114625142Y-72743142D02*
X114839428Y-72814571D01*
X115196571Y-72814571D01*
X115339428Y-72743142D01*
X115410857Y-72671714D01*
X115482285Y-72528857D01*
X115482285Y-72386000D01*
X115410857Y-72243142D01*
X115339428Y-72171714D01*
X115196571Y-72100285D01*
X114910857Y-72028857D01*
X114768000Y-71957428D01*
X114696571Y-71886000D01*
X114625142Y-71743142D01*
X114625142Y-71600285D01*
X114696571Y-71457428D01*
X114768000Y-71386000D01*
X114910857Y-71314571D01*
X115268000Y-71314571D01*
X115482285Y-71386000D01*
X116125142Y-72028857D02*
X116625142Y-72028857D01*
X116839428Y-72814571D02*
X116125142Y-72814571D01*
X116125142Y-71314571D01*
X116839428Y-71314571D01*
X117268000Y-71314571D02*
X118125142Y-71314571D01*
X117696571Y-72814571D02*
X117696571Y-71314571D01*
X76914857Y-121074571D02*
X76914857Y-119574571D01*
X76914857Y-120288857D02*
X77772000Y-120288857D01*
X77772000Y-121074571D02*
X77772000Y-119574571D01*
X78772000Y-119574571D02*
X79057714Y-119574571D01*
X79200571Y-119646000D01*
X79343428Y-119788857D01*
X79414857Y-120074571D01*
X79414857Y-120574571D01*
X79343428Y-120860285D01*
X79200571Y-121003142D01*
X79057714Y-121074571D01*
X78772000Y-121074571D01*
X78629142Y-121003142D01*
X78486285Y-120860285D01*
X78414857Y-120574571D01*
X78414857Y-120074571D01*
X78486285Y-119788857D01*
X78629142Y-119646000D01*
X78772000Y-119574571D01*
X79843428Y-119574571D02*
X80700571Y-119574571D01*
X80272000Y-121074571D02*
X80272000Y-119574571D01*
X81200571Y-121074571D02*
X81200571Y-119574571D01*
X82057714Y-121074571D02*
X81414857Y-120217428D01*
X82057714Y-119574571D02*
X81200571Y-120431714D01*
X82700571Y-120288857D02*
X83200571Y-120288857D01*
X83414857Y-121074571D02*
X82700571Y-121074571D01*
X82700571Y-119574571D01*
X83414857Y-119574571D01*
X84343428Y-120360285D02*
X84343428Y-121074571D01*
X83843428Y-119574571D02*
X84343428Y-120360285D01*
X84843428Y-119574571D01*
X76772000Y-118463142D02*
X76986285Y-118534571D01*
X77343428Y-118534571D01*
X77486285Y-118463142D01*
X77557714Y-118391714D01*
X77629142Y-118248857D01*
X77629142Y-118106000D01*
X77557714Y-117963142D01*
X77486285Y-117891714D01*
X77343428Y-117820285D01*
X77057714Y-117748857D01*
X76914857Y-117677428D01*
X76843428Y-117606000D01*
X76772000Y-117463142D01*
X76772000Y-117320285D01*
X76843428Y-117177428D01*
X76914857Y-117106000D01*
X77057714Y-117034571D01*
X77414857Y-117034571D01*
X77629142Y-117106000D01*
X78272000Y-117748857D02*
X78772000Y-117748857D01*
X78986285Y-118534571D02*
X78272000Y-118534571D01*
X78272000Y-117034571D01*
X78986285Y-117034571D01*
X79629142Y-118534571D02*
X79629142Y-117034571D01*
X80486285Y-118534571D01*
X80486285Y-117034571D01*
X81129142Y-118463142D02*
X81343428Y-118534571D01*
X81700571Y-118534571D01*
X81843428Y-118463142D01*
X81914857Y-118391714D01*
X81986285Y-118248857D01*
X81986285Y-118106000D01*
X81914857Y-117963142D01*
X81843428Y-117891714D01*
X81700571Y-117820285D01*
X81414857Y-117748857D01*
X81272000Y-117677428D01*
X81200571Y-117606000D01*
X81129142Y-117463142D01*
X81129142Y-117320285D01*
X81200571Y-117177428D01*
X81272000Y-117106000D01*
X81414857Y-117034571D01*
X81772000Y-117034571D01*
X81986285Y-117106000D01*
X82629142Y-117748857D02*
X83129142Y-117748857D01*
X83343428Y-118534571D02*
X82629142Y-118534571D01*
X82629142Y-117034571D01*
X83343428Y-117034571D01*
X84700571Y-117034571D02*
X83986285Y-117034571D01*
X83914857Y-117748857D01*
X83986285Y-117677428D01*
X84129142Y-117606000D01*
X84486285Y-117606000D01*
X84629142Y-117677428D01*
X84700571Y-117748857D01*
X84772000Y-117891714D01*
X84772000Y-118248857D01*
X84700571Y-118391714D01*
X84629142Y-118463142D01*
X84486285Y-118534571D01*
X84129142Y-118534571D01*
X83986285Y-118463142D01*
X83914857Y-118391714D01*
X76772000Y-115923142D02*
X76986285Y-115994571D01*
X77343428Y-115994571D01*
X77486285Y-115923142D01*
X77557714Y-115851714D01*
X77629142Y-115708857D01*
X77629142Y-115566000D01*
X77557714Y-115423142D01*
X77486285Y-115351714D01*
X77343428Y-115280285D01*
X77057714Y-115208857D01*
X76914857Y-115137428D01*
X76843428Y-115066000D01*
X76772000Y-114923142D01*
X76772000Y-114780285D01*
X76843428Y-114637428D01*
X76914857Y-114566000D01*
X77057714Y-114494571D01*
X77414857Y-114494571D01*
X77629142Y-114566000D01*
X78272000Y-115208857D02*
X78772000Y-115208857D01*
X78986285Y-115994571D02*
X78272000Y-115994571D01*
X78272000Y-114494571D01*
X78986285Y-114494571D01*
X79629142Y-115994571D02*
X79629142Y-114494571D01*
X80486285Y-115994571D01*
X80486285Y-114494571D01*
X81129142Y-115923142D02*
X81343428Y-115994571D01*
X81700571Y-115994571D01*
X81843428Y-115923142D01*
X81914857Y-115851714D01*
X81986285Y-115708857D01*
X81986285Y-115566000D01*
X81914857Y-115423142D01*
X81843428Y-115351714D01*
X81700571Y-115280285D01*
X81414857Y-115208857D01*
X81272000Y-115137428D01*
X81200571Y-115066000D01*
X81129142Y-114923142D01*
X81129142Y-114780285D01*
X81200571Y-114637428D01*
X81272000Y-114566000D01*
X81414857Y-114494571D01*
X81772000Y-114494571D01*
X81986285Y-114566000D01*
X82629142Y-115208857D02*
X83129142Y-115208857D01*
X83343428Y-115994571D02*
X82629142Y-115994571D01*
X82629142Y-114494571D01*
X83343428Y-114494571D01*
X84272000Y-114494571D02*
X84414857Y-114494571D01*
X84557714Y-114566000D01*
X84629142Y-114637428D01*
X84700571Y-114780285D01*
X84772000Y-115066000D01*
X84772000Y-115423142D01*
X84700571Y-115708857D01*
X84629142Y-115851714D01*
X84557714Y-115923142D01*
X84414857Y-115994571D01*
X84272000Y-115994571D01*
X84129142Y-115923142D01*
X84057714Y-115851714D01*
X83986285Y-115708857D01*
X83914857Y-115423142D01*
X83914857Y-115066000D01*
X83986285Y-114780285D01*
X84057714Y-114637428D01*
X84129142Y-114566000D01*
X84272000Y-114494571D01*
X76772000Y-113383142D02*
X76986285Y-113454571D01*
X77343428Y-113454571D01*
X77486285Y-113383142D01*
X77557714Y-113311714D01*
X77629142Y-113168857D01*
X77629142Y-113026000D01*
X77557714Y-112883142D01*
X77486285Y-112811714D01*
X77343428Y-112740285D01*
X77057714Y-112668857D01*
X76914857Y-112597428D01*
X76843428Y-112526000D01*
X76772000Y-112383142D01*
X76772000Y-112240285D01*
X76843428Y-112097428D01*
X76914857Y-112026000D01*
X77057714Y-111954571D01*
X77414857Y-111954571D01*
X77629142Y-112026000D01*
X78272000Y-112668857D02*
X78772000Y-112668857D01*
X78986285Y-113454571D02*
X78272000Y-113454571D01*
X78272000Y-111954571D01*
X78986285Y-111954571D01*
X79629142Y-113454571D02*
X79629142Y-111954571D01*
X80486285Y-113454571D01*
X80486285Y-111954571D01*
X81129142Y-113383142D02*
X81343428Y-113454571D01*
X81700571Y-113454571D01*
X81843428Y-113383142D01*
X81914857Y-113311714D01*
X81986285Y-113168857D01*
X81986285Y-113026000D01*
X81914857Y-112883142D01*
X81843428Y-112811714D01*
X81700571Y-112740285D01*
X81414857Y-112668857D01*
X81272000Y-112597428D01*
X81200571Y-112526000D01*
X81129142Y-112383142D01*
X81129142Y-112240285D01*
X81200571Y-112097428D01*
X81272000Y-112026000D01*
X81414857Y-111954571D01*
X81772000Y-111954571D01*
X81986285Y-112026000D01*
X82629142Y-112668857D02*
X83129142Y-112668857D01*
X83343428Y-113454571D02*
X82629142Y-113454571D01*
X82629142Y-111954571D01*
X83343428Y-111954571D01*
X83843428Y-111954571D02*
X84772000Y-111954571D01*
X84272000Y-112526000D01*
X84486285Y-112526000D01*
X84629142Y-112597428D01*
X84700571Y-112668857D01*
X84772000Y-112811714D01*
X84772000Y-113168857D01*
X84700571Y-113311714D01*
X84629142Y-113383142D01*
X84486285Y-113454571D01*
X84057714Y-113454571D01*
X83914857Y-113383142D01*
X83843428Y-113311714D01*
X76772000Y-110843142D02*
X76986285Y-110914571D01*
X77343428Y-110914571D01*
X77486285Y-110843142D01*
X77557714Y-110771714D01*
X77629142Y-110628857D01*
X77629142Y-110486000D01*
X77557714Y-110343142D01*
X77486285Y-110271714D01*
X77343428Y-110200285D01*
X77057714Y-110128857D01*
X76914857Y-110057428D01*
X76843428Y-109986000D01*
X76772000Y-109843142D01*
X76772000Y-109700285D01*
X76843428Y-109557428D01*
X76914857Y-109486000D01*
X77057714Y-109414571D01*
X77414857Y-109414571D01*
X77629142Y-109486000D01*
X78272000Y-110128857D02*
X78772000Y-110128857D01*
X78986285Y-110914571D02*
X78272000Y-110914571D01*
X78272000Y-109414571D01*
X78986285Y-109414571D01*
X79629142Y-110914571D02*
X79629142Y-109414571D01*
X80486285Y-110914571D01*
X80486285Y-109414571D01*
X81129142Y-110843142D02*
X81343428Y-110914571D01*
X81700571Y-110914571D01*
X81843428Y-110843142D01*
X81914857Y-110771714D01*
X81986285Y-110628857D01*
X81986285Y-110486000D01*
X81914857Y-110343142D01*
X81843428Y-110271714D01*
X81700571Y-110200285D01*
X81414857Y-110128857D01*
X81272000Y-110057428D01*
X81200571Y-109986000D01*
X81129142Y-109843142D01*
X81129142Y-109700285D01*
X81200571Y-109557428D01*
X81272000Y-109486000D01*
X81414857Y-109414571D01*
X81772000Y-109414571D01*
X81986285Y-109486000D01*
X82629142Y-110128857D02*
X83129142Y-110128857D01*
X83343428Y-110914571D02*
X82629142Y-110914571D01*
X82629142Y-109414571D01*
X83343428Y-109414571D01*
X83914857Y-109557428D02*
X83986285Y-109486000D01*
X84129142Y-109414571D01*
X84486285Y-109414571D01*
X84629142Y-109486000D01*
X84700571Y-109557428D01*
X84772000Y-109700285D01*
X84772000Y-109843142D01*
X84700571Y-110057428D01*
X83843428Y-110914571D01*
X84772000Y-110914571D01*
X76772000Y-108303142D02*
X76986285Y-108374571D01*
X77343428Y-108374571D01*
X77486285Y-108303142D01*
X77557714Y-108231714D01*
X77629142Y-108088857D01*
X77629142Y-107946000D01*
X77557714Y-107803142D01*
X77486285Y-107731714D01*
X77343428Y-107660285D01*
X77057714Y-107588857D01*
X76914857Y-107517428D01*
X76843428Y-107446000D01*
X76772000Y-107303142D01*
X76772000Y-107160285D01*
X76843428Y-107017428D01*
X76914857Y-106946000D01*
X77057714Y-106874571D01*
X77414857Y-106874571D01*
X77629142Y-106946000D01*
X78272000Y-107588857D02*
X78772000Y-107588857D01*
X78986285Y-108374571D02*
X78272000Y-108374571D01*
X78272000Y-106874571D01*
X78986285Y-106874571D01*
X79629142Y-108374571D02*
X79629142Y-106874571D01*
X80486285Y-108374571D01*
X80486285Y-106874571D01*
X81129142Y-108303142D02*
X81343428Y-108374571D01*
X81700571Y-108374571D01*
X81843428Y-108303142D01*
X81914857Y-108231714D01*
X81986285Y-108088857D01*
X81986285Y-107946000D01*
X81914857Y-107803142D01*
X81843428Y-107731714D01*
X81700571Y-107660285D01*
X81414857Y-107588857D01*
X81272000Y-107517428D01*
X81200571Y-107446000D01*
X81129142Y-107303142D01*
X81129142Y-107160285D01*
X81200571Y-107017428D01*
X81272000Y-106946000D01*
X81414857Y-106874571D01*
X81772000Y-106874571D01*
X81986285Y-106946000D01*
X82629142Y-107588857D02*
X83129142Y-107588857D01*
X83343428Y-108374571D02*
X82629142Y-108374571D01*
X82629142Y-106874571D01*
X83343428Y-106874571D01*
X84629142Y-107374571D02*
X84629142Y-108374571D01*
X84272000Y-106803142D02*
X83914857Y-107874571D01*
X84843428Y-107874571D01*
X76772000Y-105763142D02*
X76986285Y-105834571D01*
X77343428Y-105834571D01*
X77486285Y-105763142D01*
X77557714Y-105691714D01*
X77629142Y-105548857D01*
X77629142Y-105406000D01*
X77557714Y-105263142D01*
X77486285Y-105191714D01*
X77343428Y-105120285D01*
X77057714Y-105048857D01*
X76914857Y-104977428D01*
X76843428Y-104906000D01*
X76772000Y-104763142D01*
X76772000Y-104620285D01*
X76843428Y-104477428D01*
X76914857Y-104406000D01*
X77057714Y-104334571D01*
X77414857Y-104334571D01*
X77629142Y-104406000D01*
X78272000Y-105048857D02*
X78772000Y-105048857D01*
X78986285Y-105834571D02*
X78272000Y-105834571D01*
X78272000Y-104334571D01*
X78986285Y-104334571D01*
X79629142Y-105834571D02*
X79629142Y-104334571D01*
X80486285Y-105834571D01*
X80486285Y-104334571D01*
X81129142Y-105763142D02*
X81343428Y-105834571D01*
X81700571Y-105834571D01*
X81843428Y-105763142D01*
X81914857Y-105691714D01*
X81986285Y-105548857D01*
X81986285Y-105406000D01*
X81914857Y-105263142D01*
X81843428Y-105191714D01*
X81700571Y-105120285D01*
X81414857Y-105048857D01*
X81272000Y-104977428D01*
X81200571Y-104906000D01*
X81129142Y-104763142D01*
X81129142Y-104620285D01*
X81200571Y-104477428D01*
X81272000Y-104406000D01*
X81414857Y-104334571D01*
X81772000Y-104334571D01*
X81986285Y-104406000D01*
X82629142Y-105048857D02*
X83129142Y-105048857D01*
X83343428Y-105834571D02*
X82629142Y-105834571D01*
X82629142Y-104334571D01*
X83343428Y-104334571D01*
X84772000Y-105834571D02*
X83914857Y-105834571D01*
X84343428Y-105834571D02*
X84343428Y-104334571D01*
X84200571Y-104548857D01*
X84057714Y-104691714D01*
X83914857Y-104763142D01*
X76772000Y-103223142D02*
X76986285Y-103294571D01*
X77343428Y-103294571D01*
X77486285Y-103223142D01*
X77557714Y-103151714D01*
X77629142Y-103008857D01*
X77629142Y-102866000D01*
X77557714Y-102723142D01*
X77486285Y-102651714D01*
X77343428Y-102580285D01*
X77057714Y-102508857D01*
X76914857Y-102437428D01*
X76843428Y-102366000D01*
X76772000Y-102223142D01*
X76772000Y-102080285D01*
X76843428Y-101937428D01*
X76914857Y-101866000D01*
X77057714Y-101794571D01*
X77414857Y-101794571D01*
X77629142Y-101866000D01*
X78272000Y-102508857D02*
X78772000Y-102508857D01*
X78986285Y-103294571D02*
X78272000Y-103294571D01*
X78272000Y-101794571D01*
X78986285Y-101794571D01*
X79629142Y-103294571D02*
X79629142Y-101794571D01*
X80486285Y-103294571D01*
X80486285Y-101794571D01*
X81129142Y-103223142D02*
X81343428Y-103294571D01*
X81700571Y-103294571D01*
X81843428Y-103223142D01*
X81914857Y-103151714D01*
X81986285Y-103008857D01*
X81986285Y-102866000D01*
X81914857Y-102723142D01*
X81843428Y-102651714D01*
X81700571Y-102580285D01*
X81414857Y-102508857D01*
X81272000Y-102437428D01*
X81200571Y-102366000D01*
X81129142Y-102223142D01*
X81129142Y-102080285D01*
X81200571Y-101937428D01*
X81272000Y-101866000D01*
X81414857Y-101794571D01*
X81772000Y-101794571D01*
X81986285Y-101866000D01*
X82629142Y-102508857D02*
X83129142Y-102508857D01*
X83343428Y-103294571D02*
X82629142Y-103294571D01*
X82629142Y-101794571D01*
X83343428Y-101794571D01*
X84629142Y-101794571D02*
X84343428Y-101794571D01*
X84200571Y-101866000D01*
X84129142Y-101937428D01*
X83986285Y-102151714D01*
X83914857Y-102437428D01*
X83914857Y-103008857D01*
X83986285Y-103151714D01*
X84057714Y-103223142D01*
X84200571Y-103294571D01*
X84486285Y-103294571D01*
X84629142Y-103223142D01*
X84700571Y-103151714D01*
X84772000Y-103008857D01*
X84772000Y-102651714D01*
X84700571Y-102508857D01*
X84629142Y-102437428D01*
X84486285Y-102366000D01*
X84200571Y-102366000D01*
X84057714Y-102437428D01*
X83986285Y-102508857D01*
X83914857Y-102651714D01*
X76772000Y-100683142D02*
X76986285Y-100754571D01*
X77343428Y-100754571D01*
X77486285Y-100683142D01*
X77557714Y-100611714D01*
X77629142Y-100468857D01*
X77629142Y-100326000D01*
X77557714Y-100183142D01*
X77486285Y-100111714D01*
X77343428Y-100040285D01*
X77057714Y-99968857D01*
X76914857Y-99897428D01*
X76843428Y-99826000D01*
X76772000Y-99683142D01*
X76772000Y-99540285D01*
X76843428Y-99397428D01*
X76914857Y-99326000D01*
X77057714Y-99254571D01*
X77414857Y-99254571D01*
X77629142Y-99326000D01*
X78272000Y-99968857D02*
X78772000Y-99968857D01*
X78986285Y-100754571D02*
X78272000Y-100754571D01*
X78272000Y-99254571D01*
X78986285Y-99254571D01*
X79629142Y-100754571D02*
X79629142Y-99254571D01*
X80486285Y-100754571D01*
X80486285Y-99254571D01*
X81129142Y-100683142D02*
X81343428Y-100754571D01*
X81700571Y-100754571D01*
X81843428Y-100683142D01*
X81914857Y-100611714D01*
X81986285Y-100468857D01*
X81986285Y-100326000D01*
X81914857Y-100183142D01*
X81843428Y-100111714D01*
X81700571Y-100040285D01*
X81414857Y-99968857D01*
X81272000Y-99897428D01*
X81200571Y-99826000D01*
X81129142Y-99683142D01*
X81129142Y-99540285D01*
X81200571Y-99397428D01*
X81272000Y-99326000D01*
X81414857Y-99254571D01*
X81772000Y-99254571D01*
X81986285Y-99326000D01*
X82629142Y-99968857D02*
X83129142Y-99968857D01*
X83343428Y-100754571D02*
X82629142Y-100754571D01*
X82629142Y-99254571D01*
X83343428Y-99254571D01*
X83843428Y-99254571D02*
X84843428Y-99254571D01*
X84200571Y-100754571D01*
X76768285Y-98214571D02*
X76768285Y-96714571D01*
X77339714Y-96714571D01*
X77482571Y-96786000D01*
X77554000Y-96857428D01*
X77625428Y-97000285D01*
X77625428Y-97214571D01*
X77554000Y-97357428D01*
X77482571Y-97428857D01*
X77339714Y-97500285D01*
X76768285Y-97500285D01*
X78125428Y-96714571D02*
X78482571Y-98214571D01*
X78768285Y-97143142D01*
X79054000Y-98214571D01*
X79411142Y-96714571D01*
X80839714Y-98214571D02*
X80339714Y-97500285D01*
X79982571Y-98214571D02*
X79982571Y-96714571D01*
X80554000Y-96714571D01*
X80696857Y-96786000D01*
X80768285Y-96857428D01*
X80839714Y-97000285D01*
X80839714Y-97214571D01*
X80768285Y-97357428D01*
X80696857Y-97428857D01*
X80554000Y-97500285D01*
X79982571Y-97500285D01*
X81411142Y-98143142D02*
X81625428Y-98214571D01*
X81982571Y-98214571D01*
X82125428Y-98143142D01*
X82196857Y-98071714D01*
X82268285Y-97928857D01*
X82268285Y-97786000D01*
X82196857Y-97643142D01*
X82125428Y-97571714D01*
X81982571Y-97500285D01*
X81696857Y-97428857D01*
X81554000Y-97357428D01*
X81482571Y-97286000D01*
X81411142Y-97143142D01*
X81411142Y-97000285D01*
X81482571Y-96857428D01*
X81554000Y-96786000D01*
X81696857Y-96714571D01*
X82054000Y-96714571D01*
X82268285Y-96786000D01*
X82768285Y-96714571D02*
X83125428Y-98214571D01*
X83411142Y-97143142D01*
X83696857Y-98214571D01*
X84054000Y-96714571D01*
X84625428Y-98214571D02*
X84625428Y-96714571D01*
X85125428Y-96714571D02*
X85982571Y-96714571D01*
X85554000Y-98214571D02*
X85554000Y-96714571D01*
X87339714Y-98071714D02*
X87268285Y-98143142D01*
X87054000Y-98214571D01*
X86911142Y-98214571D01*
X86696857Y-98143142D01*
X86554000Y-98000285D01*
X86482571Y-97857428D01*
X86411142Y-97571714D01*
X86411142Y-97357428D01*
X86482571Y-97071714D01*
X86554000Y-96928857D01*
X86696857Y-96786000D01*
X86911142Y-96714571D01*
X87054000Y-96714571D01*
X87268285Y-96786000D01*
X87339714Y-96857428D01*
X87982571Y-98214571D02*
X87982571Y-96714571D01*
X87982571Y-97428857D02*
X88839714Y-97428857D01*
X88839714Y-98214571D02*
X88839714Y-96714571D01*
X77494571Y-95674571D02*
X76780285Y-95674571D01*
X76780285Y-94174571D01*
X77994571Y-94888857D02*
X78494571Y-94888857D01*
X78708857Y-95674571D02*
X77994571Y-95674571D01*
X77994571Y-94174571D01*
X78708857Y-94174571D01*
X79351714Y-95674571D02*
X79351714Y-94174571D01*
X79708857Y-94174571D01*
X79923142Y-94246000D01*
X80066000Y-94388857D01*
X80137428Y-94531714D01*
X80208857Y-94817428D01*
X80208857Y-95031714D01*
X80137428Y-95317428D01*
X80066000Y-95460285D01*
X79923142Y-95603142D01*
X79708857Y-95674571D01*
X79351714Y-95674571D01*
X81708857Y-95531714D02*
X81637428Y-95603142D01*
X81423142Y-95674571D01*
X81280285Y-95674571D01*
X81066000Y-95603142D01*
X80923142Y-95460285D01*
X80851714Y-95317428D01*
X80780285Y-95031714D01*
X80780285Y-94817428D01*
X80851714Y-94531714D01*
X80923142Y-94388857D01*
X81066000Y-94246000D01*
X81280285Y-94174571D01*
X81423142Y-94174571D01*
X81637428Y-94246000D01*
X81708857Y-94317428D01*
X82351714Y-95674571D02*
X82351714Y-94174571D01*
X82923142Y-94174571D01*
X83066000Y-94246000D01*
X83137428Y-94317428D01*
X83208857Y-94460285D01*
X83208857Y-94674571D01*
X83137428Y-94817428D01*
X83066000Y-94888857D01*
X82923142Y-94960285D01*
X82351714Y-94960285D01*
X83780285Y-95603142D02*
X83994571Y-95674571D01*
X84351714Y-95674571D01*
X84494571Y-95603142D01*
X84566000Y-95531714D01*
X84637428Y-95388857D01*
X84637428Y-95246000D01*
X84566000Y-95103142D01*
X84494571Y-95031714D01*
X84351714Y-94960285D01*
X84066000Y-94888857D01*
X83923142Y-94817428D01*
X83851714Y-94746000D01*
X83780285Y-94603142D01*
X83780285Y-94460285D01*
X83851714Y-94317428D01*
X83923142Y-94246000D01*
X84066000Y-94174571D01*
X84423142Y-94174571D01*
X84637428Y-94246000D01*
X85994571Y-95674571D02*
X85280285Y-95674571D01*
X85280285Y-94174571D01*
X86780285Y-94174571D02*
X87066000Y-94174571D01*
X87208857Y-94246000D01*
X87351714Y-94388857D01*
X87423142Y-94674571D01*
X87423142Y-95174571D01*
X87351714Y-95460285D01*
X87208857Y-95603142D01*
X87066000Y-95674571D01*
X86780285Y-95674571D01*
X86637428Y-95603142D01*
X86494571Y-95460285D01*
X86423142Y-95174571D01*
X86423142Y-94674571D01*
X86494571Y-94388857D01*
X86637428Y-94246000D01*
X86780285Y-94174571D01*
X88923142Y-95531714D02*
X88851714Y-95603142D01*
X88637428Y-95674571D01*
X88494571Y-95674571D01*
X88280285Y-95603142D01*
X88137428Y-95460285D01*
X88066000Y-95317428D01*
X87994571Y-95031714D01*
X87994571Y-94817428D01*
X88066000Y-94531714D01*
X88137428Y-94388857D01*
X88280285Y-94246000D01*
X88494571Y-94174571D01*
X88637428Y-94174571D01*
X88851714Y-94246000D01*
X88923142Y-94317428D01*
X89566000Y-95674571D02*
X89566000Y-94174571D01*
X90423142Y-95674571D02*
X89780285Y-94817428D01*
X90423142Y-94174571D02*
X89566000Y-95031714D01*
X77450571Y-93134571D02*
X76736285Y-93134571D01*
X76736285Y-91634571D01*
X77950571Y-92348857D02*
X78450571Y-92348857D01*
X78664857Y-93134571D02*
X77950571Y-93134571D01*
X77950571Y-91634571D01*
X78664857Y-91634571D01*
X79307714Y-93134571D02*
X79307714Y-91634571D01*
X79664857Y-91634571D01*
X79879142Y-91706000D01*
X80022000Y-91848857D01*
X80093428Y-91991714D01*
X80164857Y-92277428D01*
X80164857Y-92491714D01*
X80093428Y-92777428D01*
X80022000Y-92920285D01*
X79879142Y-93063142D01*
X79664857Y-93134571D01*
X79307714Y-93134571D01*
X80807714Y-93134571D02*
X80807714Y-91634571D01*
X81379142Y-91634571D01*
X81522000Y-91706000D01*
X81593428Y-91777428D01*
X81664857Y-91920285D01*
X81664857Y-92134571D01*
X81593428Y-92277428D01*
X81522000Y-92348857D01*
X81379142Y-92420285D01*
X80807714Y-92420285D01*
X82164857Y-91634571D02*
X82522000Y-93134571D01*
X82807714Y-92063142D01*
X83093428Y-93134571D01*
X83450571Y-91634571D01*
X84879142Y-93134571D02*
X84379142Y-92420285D01*
X84022000Y-93134571D02*
X84022000Y-91634571D01*
X84593428Y-91634571D01*
X84736285Y-91706000D01*
X84807714Y-91777428D01*
X84879142Y-91920285D01*
X84879142Y-92134571D01*
X84807714Y-92277428D01*
X84736285Y-92348857D01*
X84593428Y-92420285D01*
X84022000Y-92420285D01*
X76803714Y-90594571D02*
X76803714Y-89094571D01*
X77660857Y-90594571D02*
X77018000Y-89737428D01*
X77660857Y-89094571D02*
X76803714Y-89951714D01*
X78803714Y-89808857D02*
X79018000Y-89880285D01*
X79089428Y-89951714D01*
X79160857Y-90094571D01*
X79160857Y-90308857D01*
X79089428Y-90451714D01*
X79018000Y-90523142D01*
X78875142Y-90594571D01*
X78303714Y-90594571D01*
X78303714Y-89094571D01*
X78803714Y-89094571D01*
X78946571Y-89166000D01*
X79018000Y-89237428D01*
X79089428Y-89380285D01*
X79089428Y-89523142D01*
X79018000Y-89666000D01*
X78946571Y-89737428D01*
X78803714Y-89808857D01*
X78303714Y-89808857D01*
X79803714Y-90594571D02*
X79803714Y-89094571D01*
X80160857Y-89094571D01*
X80375142Y-89166000D01*
X80518000Y-89308857D01*
X80589428Y-89451714D01*
X80660857Y-89737428D01*
X80660857Y-89951714D01*
X80589428Y-90237428D01*
X80518000Y-90380285D01*
X80375142Y-90523142D01*
X80160857Y-90594571D01*
X79803714Y-90594571D01*
X81303714Y-90594571D02*
X81303714Y-89094571D01*
X82018000Y-90594571D02*
X82018000Y-89094571D01*
X82375142Y-89094571D01*
X82589428Y-89166000D01*
X82732285Y-89308857D01*
X82803714Y-89451714D01*
X82875142Y-89737428D01*
X82875142Y-89951714D01*
X82803714Y-90237428D01*
X82732285Y-90380285D01*
X82589428Y-90523142D01*
X82375142Y-90594571D01*
X82018000Y-90594571D01*
X83803714Y-89094571D02*
X83946571Y-89094571D01*
X84089428Y-89166000D01*
X84160857Y-89237428D01*
X84232285Y-89380285D01*
X84303714Y-89666000D01*
X84303714Y-90023142D01*
X84232285Y-90308857D01*
X84160857Y-90451714D01*
X84089428Y-90523142D01*
X83946571Y-90594571D01*
X83803714Y-90594571D01*
X83660857Y-90523142D01*
X83589428Y-90451714D01*
X83518000Y-90308857D01*
X83446571Y-90023142D01*
X83446571Y-89666000D01*
X83518000Y-89380285D01*
X83589428Y-89237428D01*
X83660857Y-89166000D01*
X83803714Y-89094571D01*
X76803714Y-88054571D02*
X76803714Y-86554571D01*
X77660857Y-88054571D02*
X77018000Y-87197428D01*
X77660857Y-86554571D02*
X76803714Y-87411714D01*
X78803714Y-87268857D02*
X79018000Y-87340285D01*
X79089428Y-87411714D01*
X79160857Y-87554571D01*
X79160857Y-87768857D01*
X79089428Y-87911714D01*
X79018000Y-87983142D01*
X78875142Y-88054571D01*
X78303714Y-88054571D01*
X78303714Y-86554571D01*
X78803714Y-86554571D01*
X78946571Y-86626000D01*
X79018000Y-86697428D01*
X79089428Y-86840285D01*
X79089428Y-86983142D01*
X79018000Y-87126000D01*
X78946571Y-87197428D01*
X78803714Y-87268857D01*
X78303714Y-87268857D01*
X79803714Y-88054571D02*
X79803714Y-86554571D01*
X80160857Y-86554571D01*
X80375142Y-86626000D01*
X80518000Y-86768857D01*
X80589428Y-86911714D01*
X80660857Y-87197428D01*
X80660857Y-87411714D01*
X80589428Y-87697428D01*
X80518000Y-87840285D01*
X80375142Y-87983142D01*
X80160857Y-88054571D01*
X79803714Y-88054571D01*
X81303714Y-88054571D02*
X81303714Y-86554571D01*
X82018000Y-88054571D02*
X82018000Y-86554571D01*
X82375142Y-86554571D01*
X82589428Y-86626000D01*
X82732285Y-86768857D01*
X82803714Y-86911714D01*
X82875142Y-87197428D01*
X82875142Y-87411714D01*
X82803714Y-87697428D01*
X82732285Y-87840285D01*
X82589428Y-87983142D01*
X82375142Y-88054571D01*
X82018000Y-88054571D01*
X84303714Y-88054571D02*
X83446571Y-88054571D01*
X83875142Y-88054571D02*
X83875142Y-86554571D01*
X83732285Y-86768857D01*
X83589428Y-86911714D01*
X83446571Y-86983142D01*
X76803714Y-85514571D02*
X76803714Y-84014571D01*
X77660857Y-85514571D02*
X77018000Y-84657428D01*
X77660857Y-84014571D02*
X76803714Y-84871714D01*
X78803714Y-84728857D02*
X79018000Y-84800285D01*
X79089428Y-84871714D01*
X79160857Y-85014571D01*
X79160857Y-85228857D01*
X79089428Y-85371714D01*
X79018000Y-85443142D01*
X78875142Y-85514571D01*
X78303714Y-85514571D01*
X78303714Y-84014571D01*
X78803714Y-84014571D01*
X78946571Y-84086000D01*
X79018000Y-84157428D01*
X79089428Y-84300285D01*
X79089428Y-84443142D01*
X79018000Y-84586000D01*
X78946571Y-84657428D01*
X78803714Y-84728857D01*
X78303714Y-84728857D01*
X79803714Y-85514571D02*
X79803714Y-84014571D01*
X80160857Y-84014571D01*
X80375142Y-84086000D01*
X80518000Y-84228857D01*
X80589428Y-84371714D01*
X80660857Y-84657428D01*
X80660857Y-84871714D01*
X80589428Y-85157428D01*
X80518000Y-85300285D01*
X80375142Y-85443142D01*
X80160857Y-85514571D01*
X79803714Y-85514571D01*
X81303714Y-85514571D02*
X81303714Y-84014571D01*
X82018000Y-85514571D02*
X82018000Y-84014571D01*
X82375142Y-84014571D01*
X82589428Y-84086000D01*
X82732285Y-84228857D01*
X82803714Y-84371714D01*
X82875142Y-84657428D01*
X82875142Y-84871714D01*
X82803714Y-85157428D01*
X82732285Y-85300285D01*
X82589428Y-85443142D01*
X82375142Y-85514571D01*
X82018000Y-85514571D01*
X83446571Y-84157428D02*
X83518000Y-84086000D01*
X83660857Y-84014571D01*
X84018000Y-84014571D01*
X84160857Y-84086000D01*
X84232285Y-84157428D01*
X84303714Y-84300285D01*
X84303714Y-84443142D01*
X84232285Y-84657428D01*
X83375142Y-85514571D01*
X84303714Y-85514571D01*
X77597142Y-81546000D02*
X77454285Y-81474571D01*
X77240000Y-81474571D01*
X77025714Y-81546000D01*
X76882857Y-81688857D01*
X76811428Y-81831714D01*
X76740000Y-82117428D01*
X76740000Y-82331714D01*
X76811428Y-82617428D01*
X76882857Y-82760285D01*
X77025714Y-82903142D01*
X77240000Y-82974571D01*
X77382857Y-82974571D01*
X77597142Y-82903142D01*
X77668571Y-82831714D01*
X77668571Y-82331714D01*
X77382857Y-82331714D01*
X78311428Y-82974571D02*
X78311428Y-81474571D01*
X79168571Y-82974571D01*
X79168571Y-81474571D01*
X79882857Y-82974571D02*
X79882857Y-81474571D01*
X80240000Y-81474571D01*
X80454285Y-81546000D01*
X80597142Y-81688857D01*
X80668571Y-81831714D01*
X80740000Y-82117428D01*
X80740000Y-82331714D01*
X80668571Y-82617428D01*
X80597142Y-82760285D01*
X80454285Y-82903142D01*
X80240000Y-82974571D01*
X79882857Y-82974571D01*
X77613428Y-80434571D02*
X76899142Y-80434571D01*
X76899142Y-78934571D01*
X78113428Y-79648857D02*
X78613428Y-79648857D01*
X78827714Y-80434571D02*
X78113428Y-80434571D01*
X78113428Y-78934571D01*
X78827714Y-78934571D01*
X79470571Y-80434571D02*
X79470571Y-78934571D01*
X79827714Y-78934571D01*
X80042000Y-79006000D01*
X80184857Y-79148857D01*
X80256285Y-79291714D01*
X80327714Y-79577428D01*
X80327714Y-79791714D01*
X80256285Y-80077428D01*
X80184857Y-80220285D01*
X80042000Y-80363142D01*
X79827714Y-80434571D01*
X79470571Y-80434571D01*
X80613428Y-80577428D02*
X81756285Y-80577428D01*
X82113428Y-80434571D02*
X82113428Y-78934571D01*
X82613428Y-80006000D01*
X83113428Y-78934571D01*
X83113428Y-80434571D01*
X83827714Y-78934571D02*
X83827714Y-80148857D01*
X83899142Y-80291714D01*
X83970571Y-80363142D01*
X84113428Y-80434571D01*
X84399142Y-80434571D01*
X84542000Y-80363142D01*
X84613428Y-80291714D01*
X84684857Y-80148857D01*
X84684857Y-78934571D01*
X85184857Y-78934571D02*
X86042000Y-78934571D01*
X85613428Y-80434571D02*
X85613428Y-78934571D01*
X86542000Y-79648857D02*
X87042000Y-79648857D01*
X87256285Y-80434571D02*
X86542000Y-80434571D01*
X86542000Y-78934571D01*
X87256285Y-78934571D01*
X76831714Y-76394571D02*
X77331714Y-77894571D01*
X77831714Y-76394571D01*
X79188857Y-77751714D02*
X79117428Y-77823142D01*
X78903142Y-77894571D01*
X78760285Y-77894571D01*
X78546000Y-77823142D01*
X78403142Y-77680285D01*
X78331714Y-77537428D01*
X78260285Y-77251714D01*
X78260285Y-77037428D01*
X78331714Y-76751714D01*
X78403142Y-76608857D01*
X78546000Y-76466000D01*
X78760285Y-76394571D01*
X78903142Y-76394571D01*
X79117428Y-76466000D01*
X79188857Y-76537428D01*
X80688857Y-77751714D02*
X80617428Y-77823142D01*
X80403142Y-77894571D01*
X80260285Y-77894571D01*
X80046000Y-77823142D01*
X79903142Y-77680285D01*
X79831714Y-77537428D01*
X79760285Y-77251714D01*
X79760285Y-77037428D01*
X79831714Y-76751714D01*
X79903142Y-76608857D01*
X80046000Y-76466000D01*
X80260285Y-76394571D01*
X80403142Y-76394571D01*
X80617428Y-76466000D01*
X80688857Y-76537428D01*
X81188857Y-76394571D02*
X82117428Y-76394571D01*
X81617428Y-76966000D01*
X81831714Y-76966000D01*
X81974571Y-77037428D01*
X82046000Y-77108857D01*
X82117428Y-77251714D01*
X82117428Y-77608857D01*
X82046000Y-77751714D01*
X81974571Y-77823142D01*
X81831714Y-77894571D01*
X81403142Y-77894571D01*
X81260285Y-77823142D01*
X81188857Y-77751714D01*
X82760285Y-77894571D02*
X82760285Y-76394571D01*
X83260285Y-77466000D01*
X83760285Y-76394571D01*
X83760285Y-77894571D01*
X84117428Y-78037428D02*
X85260285Y-78037428D01*
X85403142Y-76394571D02*
X86260285Y-76394571D01*
X85831714Y-77894571D02*
X85831714Y-76394571D01*
X86760285Y-77894571D02*
X86760285Y-76394571D01*
X87331714Y-76394571D01*
X87474571Y-76466000D01*
X87546000Y-76537428D01*
X87617428Y-76680285D01*
X87617428Y-76894571D01*
X87546000Y-77037428D01*
X87474571Y-77108857D01*
X87331714Y-77180285D01*
X86760285Y-77180285D01*
X76780000Y-73854571D02*
X77637142Y-73854571D01*
X77208571Y-75354571D02*
X77208571Y-73854571D01*
X78137142Y-75354571D02*
X78137142Y-73854571D01*
X78708571Y-73854571D01*
X78851428Y-73926000D01*
X78922857Y-73997428D01*
X78994285Y-74140285D01*
X78994285Y-74354571D01*
X78922857Y-74497428D01*
X78851428Y-74568857D01*
X78708571Y-74640285D01*
X78137142Y-74640285D01*
X80280000Y-74354571D02*
X80280000Y-75354571D01*
X79922857Y-73783142D02*
X79565714Y-74854571D01*
X80494285Y-74854571D01*
X81065714Y-75354571D02*
X81065714Y-73854571D01*
X81422857Y-73854571D01*
X81637142Y-73926000D01*
X81780000Y-74068857D01*
X81851428Y-74211714D01*
X81922857Y-74497428D01*
X81922857Y-74711714D01*
X81851428Y-74997428D01*
X81780000Y-75140285D01*
X81637142Y-75283142D01*
X81422857Y-75354571D01*
X81065714Y-75354571D01*
X82494285Y-74926000D02*
X83208571Y-74926000D01*
X82351428Y-75354571D02*
X82851428Y-73854571D01*
X83351428Y-75354571D01*
X83637142Y-73854571D02*
X84494285Y-73854571D01*
X84065714Y-75354571D02*
X84065714Y-73854571D01*
X84922857Y-74926000D02*
X85637142Y-74926000D01*
X84780000Y-75354571D02*
X85280000Y-73854571D01*
X85780000Y-75354571D01*
X76772000Y-71314571D02*
X77629142Y-71314571D01*
X77200571Y-72814571D02*
X77200571Y-71314571D01*
X78129142Y-72814571D02*
X78129142Y-71314571D01*
X78700571Y-71314571D01*
X78843428Y-71386000D01*
X78914857Y-71457428D01*
X78986285Y-71600285D01*
X78986285Y-71814571D01*
X78914857Y-71957428D01*
X78843428Y-72028857D01*
X78700571Y-72100285D01*
X78129142Y-72100285D01*
X80272000Y-71814571D02*
X80272000Y-72814571D01*
X79914857Y-71243142D02*
X79557714Y-72314571D01*
X80486285Y-72314571D01*
X81914857Y-72671714D02*
X81843428Y-72743142D01*
X81629142Y-72814571D01*
X81486285Y-72814571D01*
X81272000Y-72743142D01*
X81129142Y-72600285D01*
X81057714Y-72457428D01*
X80986285Y-72171714D01*
X80986285Y-71957428D01*
X81057714Y-71671714D01*
X81129142Y-71528857D01*
X81272000Y-71386000D01*
X81486285Y-71314571D01*
X81629142Y-71314571D01*
X81843428Y-71386000D01*
X81914857Y-71457428D01*
X83272000Y-72814571D02*
X82557714Y-72814571D01*
X82557714Y-71314571D01*
X83772000Y-72814571D02*
X83772000Y-71314571D01*
X84629142Y-72814571D02*
X83986285Y-71957428D01*
X84629142Y-71314571D02*
X83772000Y-72171714D01*
X114935142Y-68846000D02*
X114792285Y-68774571D01*
X114578000Y-68774571D01*
X114363714Y-68846000D01*
X114220857Y-68988857D01*
X114149428Y-69131714D01*
X114078000Y-69417428D01*
X114078000Y-69631714D01*
X114149428Y-69917428D01*
X114220857Y-70060285D01*
X114363714Y-70203142D01*
X114578000Y-70274571D01*
X114720857Y-70274571D01*
X114935142Y-70203142D01*
X115006571Y-70131714D01*
X115006571Y-69631714D01*
X114720857Y-69631714D01*
X115649428Y-70274571D02*
X115649428Y-68774571D01*
X116506571Y-70274571D01*
X116506571Y-68774571D01*
X117220857Y-70274571D02*
X117220857Y-68774571D01*
X117578000Y-68774571D01*
X117792285Y-68846000D01*
X117935142Y-68988857D01*
X118006571Y-69131714D01*
X118078000Y-69417428D01*
X118078000Y-69631714D01*
X118006571Y-69917428D01*
X117935142Y-70060285D01*
X117792285Y-70203142D01*
X117578000Y-70274571D01*
X117220857Y-70274571D01*
X114935142Y-66306000D02*
X114792285Y-66234571D01*
X114578000Y-66234571D01*
X114363714Y-66306000D01*
X114220857Y-66448857D01*
X114149428Y-66591714D01*
X114078000Y-66877428D01*
X114078000Y-67091714D01*
X114149428Y-67377428D01*
X114220857Y-67520285D01*
X114363714Y-67663142D01*
X114578000Y-67734571D01*
X114720857Y-67734571D01*
X114935142Y-67663142D01*
X115006571Y-67591714D01*
X115006571Y-67091714D01*
X114720857Y-67091714D01*
X115649428Y-67734571D02*
X115649428Y-66234571D01*
X116506571Y-67734571D01*
X116506571Y-66234571D01*
X117220857Y-67734571D02*
X117220857Y-66234571D01*
X117578000Y-66234571D01*
X117792285Y-66306000D01*
X117935142Y-66448857D01*
X118006571Y-66591714D01*
X118078000Y-66877428D01*
X118078000Y-67091714D01*
X118006571Y-67377428D01*
X117935142Y-67520285D01*
X117792285Y-67663142D01*
X117578000Y-67734571D01*
X117220857Y-67734571D01*
X77597142Y-68846000D02*
X77454285Y-68774571D01*
X77240000Y-68774571D01*
X77025714Y-68846000D01*
X76882857Y-68988857D01*
X76811428Y-69131714D01*
X76740000Y-69417428D01*
X76740000Y-69631714D01*
X76811428Y-69917428D01*
X76882857Y-70060285D01*
X77025714Y-70203142D01*
X77240000Y-70274571D01*
X77382857Y-70274571D01*
X77597142Y-70203142D01*
X77668571Y-70131714D01*
X77668571Y-69631714D01*
X77382857Y-69631714D01*
X78311428Y-70274571D02*
X78311428Y-68774571D01*
X79168571Y-70274571D01*
X79168571Y-68774571D01*
X79882857Y-70274571D02*
X79882857Y-68774571D01*
X80240000Y-68774571D01*
X80454285Y-68846000D01*
X80597142Y-68988857D01*
X80668571Y-69131714D01*
X80740000Y-69417428D01*
X80740000Y-69631714D01*
X80668571Y-69917428D01*
X80597142Y-70060285D01*
X80454285Y-70203142D01*
X80240000Y-70274571D01*
X79882857Y-70274571D01*
X77597142Y-66306000D02*
X77454285Y-66234571D01*
X77240000Y-66234571D01*
X77025714Y-66306000D01*
X76882857Y-66448857D01*
X76811428Y-66591714D01*
X76740000Y-66877428D01*
X76740000Y-67091714D01*
X76811428Y-67377428D01*
X76882857Y-67520285D01*
X77025714Y-67663142D01*
X77240000Y-67734571D01*
X77382857Y-67734571D01*
X77597142Y-67663142D01*
X77668571Y-67591714D01*
X77668571Y-67091714D01*
X77382857Y-67091714D01*
X78311428Y-67734571D02*
X78311428Y-66234571D01*
X79168571Y-67734571D01*
X79168571Y-66234571D01*
X79882857Y-67734571D02*
X79882857Y-66234571D01*
X80240000Y-66234571D01*
X80454285Y-66306000D01*
X80597142Y-66448857D01*
X80668571Y-66591714D01*
X80740000Y-66877428D01*
X80740000Y-67091714D01*
X80668571Y-67377428D01*
X80597142Y-67520285D01*
X80454285Y-67663142D01*
X80240000Y-67734571D01*
X79882857Y-67734571D01*
D11*
%TO.C,J2*%
X118990000Y-65650000D02*
X120320000Y-65650000D01*
X118990000Y-66980000D02*
X118990000Y-65650000D01*
X118990000Y-68250000D02*
X121650000Y-68250000D01*
X121650000Y-68250000D02*
X121650000Y-121650000D01*
X118990000Y-68250000D02*
X118990000Y-121650000D01*
X118990000Y-121650000D02*
X121650000Y-121650000D01*
D12*
%TO.C,U1*%
X98849180Y-90124280D02*
X98849180Y-100223320D01*
X96349820Y-90124280D02*
X96349820Y-100223320D01*
X96349820Y-90124280D02*
X98849180Y-90124280D01*
X96349820Y-100223320D02*
X98849180Y-100223320D01*
D11*
%TO.C,J1*%
X73269800Y-121649800D02*
X75929800Y-121649800D01*
X73269800Y-68249800D02*
X73269800Y-121649800D01*
X75929800Y-68249800D02*
X75929800Y-121649800D01*
X73269800Y-68249800D02*
X75929800Y-68249800D01*
X73269800Y-66979800D02*
X73269800Y-65649800D01*
X73269800Y-65649800D02*
X74599800Y-65649800D01*
%TO.C,U1*%
D13*
X97189169Y-95693895D02*
X97795745Y-95693895D01*
X97867107Y-95658214D01*
X97902788Y-95622533D01*
X97938469Y-95551171D01*
X97938469Y-95408447D01*
X97902788Y-95337085D01*
X97867107Y-95301404D01*
X97795745Y-95265723D01*
X97189169Y-95265723D01*
X97938469Y-94516423D02*
X97938469Y-94944595D01*
X97938469Y-94730509D02*
X97189169Y-94730509D01*
X97296211Y-94801871D01*
X97367573Y-94873233D01*
X97403254Y-94944595D01*
X101501968Y-104123248D02*
X101537649Y-104194610D01*
X101537649Y-104337333D01*
X101501968Y-104408695D01*
X101466287Y-104444376D01*
X101394925Y-104480057D01*
X101180839Y-104480057D01*
X101109477Y-104444376D01*
X101073796Y-104408695D01*
X101038115Y-104337333D01*
X101038115Y-104194610D01*
X101073796Y-104123248D01*
X101537649Y-103695076D02*
X101501968Y-103766438D01*
X101466287Y-103802119D01*
X101394925Y-103837800D01*
X101180839Y-103837800D01*
X101109477Y-103802119D01*
X101073796Y-103766438D01*
X101038115Y-103695076D01*
X101038115Y-103588033D01*
X101073796Y-103516671D01*
X101109477Y-103480990D01*
X101180839Y-103445310D01*
X101394925Y-103445310D01*
X101466287Y-103480990D01*
X101501968Y-103516671D01*
X101537649Y-103588033D01*
X101537649Y-103695076D01*
X101038115Y-103124181D02*
X101537649Y-103124181D01*
X101109477Y-103124181D02*
X101073796Y-103088500D01*
X101038115Y-103017138D01*
X101038115Y-102910095D01*
X101073796Y-102838733D01*
X101145158Y-102803052D01*
X101537649Y-102803052D01*
X101038115Y-102446243D02*
X101537649Y-102446243D01*
X101109477Y-102446243D02*
X101073796Y-102410562D01*
X101038115Y-102339200D01*
X101038115Y-102232157D01*
X101073796Y-102160795D01*
X101145158Y-102125114D01*
X101537649Y-102125114D01*
X101252201Y-101768305D02*
X101252201Y-101197410D01*
X101038115Y-100947643D02*
X101038115Y-100662195D01*
X100788349Y-100840600D02*
X101430606Y-100840600D01*
X101501968Y-100804919D01*
X101537649Y-100733557D01*
X101537649Y-100662195D01*
X101038115Y-100412429D02*
X101787415Y-100412429D01*
X101073796Y-100412429D02*
X101038115Y-100341067D01*
X101038115Y-100198343D01*
X101073796Y-100126981D01*
X101109477Y-100091300D01*
X101180839Y-100055619D01*
X101394925Y-100055619D01*
X101466287Y-100091300D01*
X101501968Y-100126981D01*
X101537649Y-100198343D01*
X101537649Y-100341067D01*
X101501968Y-100412429D01*
X101252201Y-99734490D02*
X101252201Y-99163595D01*
X101537649Y-98806786D02*
X100788349Y-98806786D01*
X101252201Y-98735424D02*
X101537649Y-98521338D01*
X101038115Y-98521338D02*
X101323563Y-98806786D01*
X101537649Y-98200210D02*
X100788349Y-98200210D01*
X101073796Y-98200210D02*
X101038115Y-98128848D01*
X101038115Y-97986124D01*
X101073796Y-97914762D01*
X101109477Y-97879081D01*
X101180839Y-97843400D01*
X101394925Y-97843400D01*
X101466287Y-97879081D01*
X101501968Y-97914762D01*
X101537649Y-97986124D01*
X101537649Y-98128848D01*
X101501968Y-98200210D01*
X101537649Y-97201143D02*
X100788349Y-97201143D01*
X101501968Y-97201143D02*
X101537649Y-97272505D01*
X101537649Y-97415229D01*
X101501968Y-97486590D01*
X101466287Y-97522271D01*
X101394925Y-97557952D01*
X101180839Y-97557952D01*
X101109477Y-97522271D01*
X101073796Y-97486590D01*
X101038115Y-97415229D01*
X101038115Y-97272505D01*
X101073796Y-97201143D01*
%TD*%
M02*
