%TF.GenerationSoftware,KiCad,Pcbnew,5.1.8*%
%TF.CreationDate,2020-11-27T17:06:48+01:00*%
%TF.ProjectId,AA01B-S040VA1-breakout,41413031-422d-4533-9034-305641312d62,rev?*%
%TF.SameCoordinates,Original*%
%TF.FileFunction,Copper,L1,Top*%
%TF.FilePolarity,Positive*%
%FSLAX46Y46*%
G04 Gerber Fmt 4.6, Leading zero omitted, Abs format (unit mm)*
G04 Created by KiCad (PCBNEW 5.1.8) date 2020-11-27 17:06:48*
%MOMM*%
%LPD*%
G01*
G04 APERTURE LIST*
%TA.AperFunction,NonConductor*%
%ADD10C,0.300000*%
%TD*%
%TA.AperFunction,ComponentPad*%
%ADD11O,1.700000X1.700000*%
%TD*%
%TA.AperFunction,ComponentPad*%
%ADD12R,1.700000X1.700000*%
%TD*%
%TA.AperFunction,SMDPad,CuDef*%
%ADD13R,1.150620X1.549400*%
%TD*%
%TA.AperFunction,SMDPad,CuDef*%
%ADD14R,1.000760X0.203200*%
%TD*%
%TA.AperFunction,Conductor*%
%ADD15C,0.250000*%
%TD*%
%TA.AperFunction,Conductor*%
%ADD16C,0.254000*%
%TD*%
%TA.AperFunction,Conductor*%
%ADD17C,0.150000*%
%TD*%
G04 APERTURE END LIST*
D10*
X95500285Y-115984571D02*
X95500285Y-114984571D01*
X95500285Y-115270285D02*
X95571714Y-115127428D01*
X95643142Y-115056000D01*
X95786000Y-114984571D01*
X95928857Y-114984571D01*
X97000285Y-115913142D02*
X96857428Y-115984571D01*
X96571714Y-115984571D01*
X96428857Y-115913142D01*
X96357428Y-115770285D01*
X96357428Y-115198857D01*
X96428857Y-115056000D01*
X96571714Y-114984571D01*
X96857428Y-114984571D01*
X97000285Y-115056000D01*
X97071714Y-115198857D01*
X97071714Y-115341714D01*
X96357428Y-115484571D01*
X97571714Y-114984571D02*
X97928857Y-115984571D01*
X98286000Y-114984571D01*
X99643142Y-115984571D02*
X98786000Y-115984571D01*
X99214571Y-115984571D02*
X99214571Y-114484571D01*
X99071714Y-114698857D01*
X98928857Y-114841714D01*
X98786000Y-114913142D01*
X94607428Y-117034571D02*
X95607428Y-118534571D01*
X95607428Y-117034571D02*
X94607428Y-118534571D01*
X96750285Y-118463142D02*
X96607428Y-118534571D01*
X96321714Y-118534571D01*
X96178857Y-118463142D01*
X96107428Y-118320285D01*
X96107428Y-117748857D01*
X96178857Y-117606000D01*
X96321714Y-117534571D01*
X96607428Y-117534571D01*
X96750285Y-117606000D01*
X96821714Y-117748857D01*
X96821714Y-117891714D01*
X96107428Y-118034571D01*
X97464571Y-117534571D02*
X97464571Y-118534571D01*
X97464571Y-117677428D02*
X97536000Y-117606000D01*
X97678857Y-117534571D01*
X97893142Y-117534571D01*
X98036000Y-117606000D01*
X98107428Y-117748857D01*
X98107428Y-118534571D01*
X99607428Y-117106000D02*
X99464571Y-117034571D01*
X99250285Y-117034571D01*
X99036000Y-117106000D01*
X98893142Y-117248857D01*
X98821714Y-117391714D01*
X98750285Y-117677428D01*
X98750285Y-117891714D01*
X98821714Y-118177428D01*
X98893142Y-118320285D01*
X99036000Y-118463142D01*
X99250285Y-118534571D01*
X99393142Y-118534571D01*
X99607428Y-118463142D01*
X99678857Y-118391714D01*
X99678857Y-117891714D01*
X99393142Y-117891714D01*
X100321714Y-118534571D02*
X100321714Y-117534571D01*
X100321714Y-117034571D02*
X100250285Y-117106000D01*
X100321714Y-117177428D01*
X100393142Y-117106000D01*
X100321714Y-117034571D01*
X100321714Y-117177428D01*
X94964571Y-119727428D02*
X95036000Y-119656000D01*
X95178857Y-119584571D01*
X95536000Y-119584571D01*
X95678857Y-119656000D01*
X95750285Y-119727428D01*
X95821714Y-119870285D01*
X95821714Y-120013142D01*
X95750285Y-120227428D01*
X94893142Y-121084571D01*
X95821714Y-121084571D01*
X96750285Y-119584571D02*
X96893142Y-119584571D01*
X97036000Y-119656000D01*
X97107428Y-119727428D01*
X97178857Y-119870285D01*
X97250285Y-120156000D01*
X97250285Y-120513142D01*
X97178857Y-120798857D01*
X97107428Y-120941714D01*
X97036000Y-121013142D01*
X96893142Y-121084571D01*
X96750285Y-121084571D01*
X96607428Y-121013142D01*
X96536000Y-120941714D01*
X96464571Y-120798857D01*
X96393142Y-120513142D01*
X96393142Y-120156000D01*
X96464571Y-119870285D01*
X96536000Y-119727428D01*
X96607428Y-119656000D01*
X96750285Y-119584571D01*
X97821714Y-119727428D02*
X97893142Y-119656000D01*
X98036000Y-119584571D01*
X98393142Y-119584571D01*
X98536000Y-119656000D01*
X98607428Y-119727428D01*
X98678857Y-119870285D01*
X98678857Y-120013142D01*
X98607428Y-120227428D01*
X97750285Y-121084571D01*
X98678857Y-121084571D01*
X99607428Y-119584571D02*
X99750285Y-119584571D01*
X99893142Y-119656000D01*
X99964571Y-119727428D01*
X100036000Y-119870285D01*
X100107428Y-120156000D01*
X100107428Y-120513142D01*
X100036000Y-120798857D01*
X99964571Y-120941714D01*
X99893142Y-121013142D01*
X99750285Y-121084571D01*
X99607428Y-121084571D01*
X99464571Y-121013142D01*
X99393142Y-120941714D01*
X99321714Y-120798857D01*
X99250285Y-120513142D01*
X99250285Y-120156000D01*
X99321714Y-119870285D01*
X99393142Y-119727428D01*
X99464571Y-119656000D01*
X99607428Y-119584571D01*
X84036000Y-66793000D02*
X84750285Y-66793000D01*
X83893142Y-67221571D02*
X84393142Y-65721571D01*
X84893142Y-67221571D01*
X85321714Y-66793000D02*
X86036000Y-66793000D01*
X85178857Y-67221571D02*
X85678857Y-65721571D01*
X86178857Y-67221571D01*
X86964571Y-65721571D02*
X87107428Y-65721571D01*
X87250285Y-65793000D01*
X87321714Y-65864428D01*
X87393142Y-66007285D01*
X87464571Y-66293000D01*
X87464571Y-66650142D01*
X87393142Y-66935857D01*
X87321714Y-67078714D01*
X87250285Y-67150142D01*
X87107428Y-67221571D01*
X86964571Y-67221571D01*
X86821714Y-67150142D01*
X86750285Y-67078714D01*
X86678857Y-66935857D01*
X86607428Y-66650142D01*
X86607428Y-66293000D01*
X86678857Y-66007285D01*
X86750285Y-65864428D01*
X86821714Y-65793000D01*
X86964571Y-65721571D01*
X88893142Y-67221571D02*
X88036000Y-67221571D01*
X88464571Y-67221571D02*
X88464571Y-65721571D01*
X88321714Y-65935857D01*
X88178857Y-66078714D01*
X88036000Y-66150142D01*
X90036000Y-66435857D02*
X90250285Y-66507285D01*
X90321714Y-66578714D01*
X90393142Y-66721571D01*
X90393142Y-66935857D01*
X90321714Y-67078714D01*
X90250285Y-67150142D01*
X90107428Y-67221571D01*
X89536000Y-67221571D01*
X89536000Y-65721571D01*
X90036000Y-65721571D01*
X90178857Y-65793000D01*
X90250285Y-65864428D01*
X90321714Y-66007285D01*
X90321714Y-66150142D01*
X90250285Y-66293000D01*
X90178857Y-66364428D01*
X90036000Y-66435857D01*
X89536000Y-66435857D01*
X91036000Y-66650142D02*
X92178857Y-66650142D01*
X92821714Y-67150142D02*
X93036000Y-67221571D01*
X93393142Y-67221571D01*
X93536000Y-67150142D01*
X93607428Y-67078714D01*
X93678857Y-66935857D01*
X93678857Y-66793000D01*
X93607428Y-66650142D01*
X93536000Y-66578714D01*
X93393142Y-66507285D01*
X93107428Y-66435857D01*
X92964571Y-66364428D01*
X92893142Y-66293000D01*
X92821714Y-66150142D01*
X92821714Y-66007285D01*
X92893142Y-65864428D01*
X92964571Y-65793000D01*
X93107428Y-65721571D01*
X93464571Y-65721571D01*
X93678857Y-65793000D01*
X94607428Y-65721571D02*
X94750285Y-65721571D01*
X94893142Y-65793000D01*
X94964571Y-65864428D01*
X95036000Y-66007285D01*
X95107428Y-66293000D01*
X95107428Y-66650142D01*
X95036000Y-66935857D01*
X94964571Y-67078714D01*
X94893142Y-67150142D01*
X94750285Y-67221571D01*
X94607428Y-67221571D01*
X94464571Y-67150142D01*
X94393142Y-67078714D01*
X94321714Y-66935857D01*
X94250285Y-66650142D01*
X94250285Y-66293000D01*
X94321714Y-66007285D01*
X94393142Y-65864428D01*
X94464571Y-65793000D01*
X94607428Y-65721571D01*
X96393142Y-66221571D02*
X96393142Y-67221571D01*
X96036000Y-65650142D02*
X95678857Y-66721571D01*
X96607428Y-66721571D01*
X97464571Y-65721571D02*
X97607428Y-65721571D01*
X97750285Y-65793000D01*
X97821714Y-65864428D01*
X97893142Y-66007285D01*
X97964571Y-66293000D01*
X97964571Y-66650142D01*
X97893142Y-66935857D01*
X97821714Y-67078714D01*
X97750285Y-67150142D01*
X97607428Y-67221571D01*
X97464571Y-67221571D01*
X97321714Y-67150142D01*
X97250285Y-67078714D01*
X97178857Y-66935857D01*
X97107428Y-66650142D01*
X97107428Y-66293000D01*
X97178857Y-66007285D01*
X97250285Y-65864428D01*
X97321714Y-65793000D01*
X97464571Y-65721571D01*
X98393142Y-65721571D02*
X98893142Y-67221571D01*
X99393142Y-65721571D01*
X99821714Y-66793000D02*
X100536000Y-66793000D01*
X99678857Y-67221571D02*
X100178857Y-65721571D01*
X100678857Y-67221571D01*
X101964571Y-67221571D02*
X101107428Y-67221571D01*
X101536000Y-67221571D02*
X101536000Y-65721571D01*
X101393142Y-65935857D01*
X101250285Y-66078714D01*
X101107428Y-66150142D01*
X102607428Y-66650142D02*
X103750285Y-66650142D01*
X105321714Y-67221571D02*
X104821714Y-66507285D01*
X104464571Y-67221571D02*
X104464571Y-65721571D01*
X105036000Y-65721571D01*
X105178857Y-65793000D01*
X105250285Y-65864428D01*
X105321714Y-66007285D01*
X105321714Y-66221571D01*
X105250285Y-66364428D01*
X105178857Y-66435857D01*
X105036000Y-66507285D01*
X104464571Y-66507285D01*
X105821714Y-65721571D02*
X106750285Y-65721571D01*
X106250285Y-66293000D01*
X106464571Y-66293000D01*
X106607428Y-66364428D01*
X106678857Y-66435857D01*
X106750285Y-66578714D01*
X106750285Y-66935857D01*
X106678857Y-67078714D01*
X106607428Y-67150142D01*
X106464571Y-67221571D01*
X106036000Y-67221571D01*
X105893142Y-67150142D01*
X105821714Y-67078714D01*
X107678857Y-65721571D02*
X107821714Y-65721571D01*
X107964571Y-65793000D01*
X108036000Y-65864428D01*
X108107428Y-66007285D01*
X108178857Y-66293000D01*
X108178857Y-66650142D01*
X108107428Y-66935857D01*
X108036000Y-67078714D01*
X107964571Y-67150142D01*
X107821714Y-67221571D01*
X107678857Y-67221571D01*
X107536000Y-67150142D01*
X107464571Y-67078714D01*
X107393142Y-66935857D01*
X107321714Y-66650142D01*
X107321714Y-66293000D01*
X107393142Y-66007285D01*
X107464571Y-65864428D01*
X107536000Y-65793000D01*
X107678857Y-65721571D01*
X109107428Y-65721571D02*
X109250285Y-65721571D01*
X109393142Y-65793000D01*
X109464571Y-65864428D01*
X109536000Y-66007285D01*
X109607428Y-66293000D01*
X109607428Y-66650142D01*
X109536000Y-66935857D01*
X109464571Y-67078714D01*
X109393142Y-67150142D01*
X109250285Y-67221571D01*
X109107428Y-67221571D01*
X108964571Y-67150142D01*
X108893142Y-67078714D01*
X108821714Y-66935857D01*
X108750285Y-66650142D01*
X108750285Y-66293000D01*
X108821714Y-66007285D01*
X108893142Y-65864428D01*
X108964571Y-65793000D01*
X109107428Y-65721571D01*
X110536000Y-65721571D02*
X110678857Y-65721571D01*
X110821714Y-65793000D01*
X110893142Y-65864428D01*
X110964571Y-66007285D01*
X111036000Y-66293000D01*
X111036000Y-66650142D01*
X110964571Y-66935857D01*
X110893142Y-67078714D01*
X110821714Y-67150142D01*
X110678857Y-67221571D01*
X110536000Y-67221571D01*
X110393142Y-67150142D01*
X110321714Y-67078714D01*
X110250285Y-66935857D01*
X110178857Y-66650142D01*
X110178857Y-66293000D01*
X110250285Y-66007285D01*
X110321714Y-65864428D01*
X110393142Y-65793000D01*
X110536000Y-65721571D01*
X93464571Y-68985857D02*
X93678857Y-69057285D01*
X93750285Y-69128714D01*
X93821714Y-69271571D01*
X93821714Y-69485857D01*
X93750285Y-69628714D01*
X93678857Y-69700142D01*
X93536000Y-69771571D01*
X92964571Y-69771571D01*
X92964571Y-68271571D01*
X93464571Y-68271571D01*
X93607428Y-68343000D01*
X93678857Y-68414428D01*
X93750285Y-68557285D01*
X93750285Y-68700142D01*
X93678857Y-68843000D01*
X93607428Y-68914428D01*
X93464571Y-68985857D01*
X92964571Y-68985857D01*
X94464571Y-69771571D02*
X94464571Y-68771571D01*
X94464571Y-69057285D02*
X94536000Y-68914428D01*
X94607428Y-68843000D01*
X94750285Y-68771571D01*
X94893142Y-68771571D01*
X95964571Y-69700142D02*
X95821714Y-69771571D01*
X95536000Y-69771571D01*
X95393142Y-69700142D01*
X95321714Y-69557285D01*
X95321714Y-68985857D01*
X95393142Y-68843000D01*
X95536000Y-68771571D01*
X95821714Y-68771571D01*
X95964571Y-68843000D01*
X96036000Y-68985857D01*
X96036000Y-69128714D01*
X95321714Y-69271571D01*
X97321714Y-69771571D02*
X97321714Y-68985857D01*
X97250285Y-68843000D01*
X97107428Y-68771571D01*
X96821714Y-68771571D01*
X96678857Y-68843000D01*
X97321714Y-69700142D02*
X97178857Y-69771571D01*
X96821714Y-69771571D01*
X96678857Y-69700142D01*
X96607428Y-69557285D01*
X96607428Y-69414428D01*
X96678857Y-69271571D01*
X96821714Y-69200142D01*
X97178857Y-69200142D01*
X97321714Y-69128714D01*
X98036000Y-69771571D02*
X98036000Y-68271571D01*
X98178857Y-69200142D02*
X98607428Y-69771571D01*
X98607428Y-68771571D02*
X98036000Y-69343000D01*
X99464571Y-69771571D02*
X99321714Y-69700142D01*
X99250285Y-69628714D01*
X99178857Y-69485857D01*
X99178857Y-69057285D01*
X99250285Y-68914428D01*
X99321714Y-68843000D01*
X99464571Y-68771571D01*
X99678857Y-68771571D01*
X99821714Y-68843000D01*
X99893142Y-68914428D01*
X99964571Y-69057285D01*
X99964571Y-69485857D01*
X99893142Y-69628714D01*
X99821714Y-69700142D01*
X99678857Y-69771571D01*
X99464571Y-69771571D01*
X101250285Y-68771571D02*
X101250285Y-69771571D01*
X100607428Y-68771571D02*
X100607428Y-69557285D01*
X100678857Y-69700142D01*
X100821714Y-69771571D01*
X101036000Y-69771571D01*
X101178857Y-69700142D01*
X101250285Y-69628714D01*
X101750285Y-68771571D02*
X102321714Y-68771571D01*
X101964571Y-68271571D02*
X101964571Y-69557285D01*
X102036000Y-69700142D01*
X102178857Y-69771571D01*
X102321714Y-69771571D01*
D11*
%TO.P,J2,22*%
%TO.N,Net-(J2-Pad22)*%
X120320000Y-120320000D03*
%TO.P,J2,21*%
%TO.N,Net-(J2-Pad21)*%
X120320000Y-117780000D03*
%TO.P,J2,20*%
%TO.N,Net-(J2-Pad20)*%
X120320000Y-115240000D03*
%TO.P,J2,19*%
%TO.N,Net-(J2-Pad19)*%
X120320000Y-112700000D03*
%TO.P,J2,18*%
%TO.N,Net-(J2-Pad18)*%
X120320000Y-110160000D03*
%TO.P,J2,17*%
%TO.N,Net-(J2-Pad17)*%
X120320000Y-107620000D03*
%TO.P,J2,16*%
%TO.N,Net-(J2-Pad16)*%
X120320000Y-105080000D03*
%TO.P,J2,15*%
%TO.N,Net-(J2-Pad15)*%
X120320000Y-102540000D03*
%TO.P,J2,14*%
%TO.N,Net-(J2-Pad14)*%
X120320000Y-100000000D03*
%TO.P,J2,13*%
%TO.N,Net-(J2-Pad13)*%
X120320000Y-97460000D03*
%TO.P,J2,12*%
%TO.N,Net-(J2-Pad12)*%
X120320000Y-94920000D03*
%TO.P,J2,11*%
%TO.N,Net-(J2-Pad11)*%
X120320000Y-92380000D03*
%TO.P,J2,10*%
%TO.N,Net-(J2-Pad10)*%
X120320000Y-89840000D03*
%TO.P,J2,9*%
%TO.N,Net-(J2-Pad9)*%
X120320000Y-87300000D03*
%TO.P,J2,8*%
%TO.N,Net-(J2-Pad8)*%
X120320000Y-84760000D03*
%TO.P,J2,7*%
%TO.N,Net-(J2-Pad7)*%
X120320000Y-82220000D03*
%TO.P,J2,6*%
%TO.N,GND*%
X120320000Y-79680000D03*
%TO.P,J2,5*%
%TO.N,Net-(J2-Pad5)*%
X120320000Y-77140000D03*
%TO.P,J2,4*%
%TO.N,Net-(J2-Pad4)*%
X120320000Y-74600000D03*
%TO.P,J2,3*%
%TO.N,Net-(J2-Pad3)*%
X120320000Y-72060000D03*
%TO.P,J2,2*%
%TO.N,GND*%
X120320000Y-69520000D03*
D12*
%TO.P,J2,1*%
X120320000Y-66980000D03*
%TD*%
D13*
%TO.P,U1,43*%
%TO.N,GND*%
X95524320Y-89148920D03*
%TO.P,U1,44*%
X99674680Y-89148920D03*
D14*
%TO.P,U1,3*%
%TO.N,Net-(J1-Pad21)*%
X95450660Y-99423220D03*
%TO.P,U1,1*%
%TO.N,Net-(J1-Pad22)*%
X95450660Y-99923600D03*
%TO.P,U1,5*%
%TO.N,Net-(J1-Pad20)*%
X95450660Y-98922840D03*
%TO.P,U1,7*%
%TO.N,Net-(J1-Pad19)*%
X95450660Y-98422460D03*
%TO.P,U1,15*%
%TO.N,Net-(J1-Pad15)*%
X95450660Y-96423480D03*
%TO.P,U1,13*%
%TO.N,Net-(J1-Pad16)*%
X95450660Y-96923860D03*
%TO.P,U1,9*%
%TO.N,Net-(J1-Pad18)*%
X95450660Y-97924620D03*
%TO.P,U1,11*%
%TO.N,Net-(J1-Pad17)*%
X95450660Y-97424240D03*
%TO.P,U1,17*%
%TO.N,Net-(J1-Pad14)*%
X95450660Y-95923100D03*
%TO.P,U1,19*%
%TO.N,Net-(J1-Pad13)*%
X95450660Y-95422720D03*
%TO.P,U1,39*%
%TO.N,Net-(J1-Pad3)*%
X95450660Y-90424000D03*
%TO.P,U1,37*%
%TO.N,Net-(J1-Pad4)*%
X95450660Y-90924380D03*
%TO.P,U1,31*%
%TO.N,GND*%
X95450660Y-92422980D03*
%TO.P,U1,29*%
%TO.N,Net-(J1-Pad8)*%
X95450660Y-92923360D03*
%TO.P,U1,33*%
%TO.N,Net-(J1-Pad6)*%
X95450660Y-91922600D03*
%TO.P,U1,35*%
%TO.N,Net-(J1-Pad5)*%
X95450660Y-91424760D03*
%TO.P,U1,27*%
%TO.N,Net-(J1-Pad9)*%
X95450660Y-93423740D03*
%TO.P,U1,25*%
%TO.N,Net-(J1-Pad10)*%
X95450660Y-93924120D03*
%TO.P,U1,21*%
%TO.N,Net-(J1-Pad12)*%
X95450660Y-94922340D03*
%TO.P,U1,23*%
%TO.N,Net-(J1-Pad11)*%
X95450660Y-94424500D03*
D13*
%TO.P,U1,41*%
%TO.N,GND*%
X95524320Y-101198680D03*
D14*
%TO.P,U1,24*%
%TO.N,Net-(J2-Pad11)*%
X99750880Y-94424500D03*
%TO.P,U1,22*%
%TO.N,Net-(J2-Pad12)*%
X99750880Y-94922340D03*
%TO.P,U1,26*%
%TO.N,Net-(J2-Pad10)*%
X99750880Y-93924120D03*
%TO.P,U1,28*%
%TO.N,Net-(J2-Pad9)*%
X99750880Y-93423740D03*
%TO.P,U1,36*%
%TO.N,Net-(J2-Pad5)*%
X99750880Y-91424760D03*
%TO.P,U1,34*%
%TO.N,GND*%
X99750880Y-91922600D03*
%TO.P,U1,30*%
%TO.N,Net-(J2-Pad8)*%
X99750880Y-92923360D03*
%TO.P,U1,32*%
%TO.N,Net-(J2-Pad7)*%
X99750880Y-92422980D03*
%TO.P,U1,38*%
%TO.N,Net-(J2-Pad4)*%
X99750880Y-90924380D03*
%TO.P,U1,40*%
%TO.N,Net-(J2-Pad3)*%
X99750880Y-90424000D03*
%TO.P,U1,20*%
%TO.N,Net-(J2-Pad13)*%
X99750880Y-95422720D03*
%TO.P,U1,18*%
%TO.N,Net-(J2-Pad14)*%
X99750880Y-95923100D03*
%TO.P,U1,12*%
%TO.N,Net-(J2-Pad17)*%
X99750880Y-97424240D03*
%TO.P,U1,10*%
%TO.N,Net-(J2-Pad18)*%
X99750880Y-97924620D03*
%TO.P,U1,14*%
%TO.N,Net-(J2-Pad16)*%
X99750880Y-96923860D03*
%TO.P,U1,16*%
%TO.N,Net-(J2-Pad15)*%
X99750880Y-96423480D03*
%TO.P,U1,8*%
%TO.N,Net-(J2-Pad19)*%
X99750880Y-98422460D03*
%TO.P,U1,6*%
%TO.N,Net-(J2-Pad20)*%
X99750880Y-98922840D03*
%TO.P,U1,2*%
%TO.N,Net-(J2-Pad22)*%
X99750880Y-99923600D03*
%TO.P,U1,4*%
%TO.N,Net-(J2-Pad21)*%
X99750880Y-99423220D03*
D13*
%TO.P,U1,42*%
%TO.N,GND*%
X99674680Y-101198680D03*
%TD*%
D12*
%TO.P,J1,1*%
%TO.N,GND*%
X74599800Y-66979800D03*
D11*
%TO.P,J1,2*%
X74599800Y-69519800D03*
%TO.P,J1,3*%
%TO.N,Net-(J1-Pad3)*%
X74599800Y-72059800D03*
%TO.P,J1,4*%
%TO.N,Net-(J1-Pad4)*%
X74599800Y-74599800D03*
%TO.P,J1,5*%
%TO.N,Net-(J1-Pad5)*%
X74599800Y-77139800D03*
%TO.P,J1,6*%
%TO.N,Net-(J1-Pad6)*%
X74599800Y-79679800D03*
%TO.P,J1,7*%
%TO.N,GND*%
X74599800Y-82219800D03*
%TO.P,J1,8*%
%TO.N,Net-(J1-Pad8)*%
X74599800Y-84759800D03*
%TO.P,J1,9*%
%TO.N,Net-(J1-Pad9)*%
X74599800Y-87299800D03*
%TO.P,J1,10*%
%TO.N,Net-(J1-Pad10)*%
X74599800Y-89839800D03*
%TO.P,J1,11*%
%TO.N,Net-(J1-Pad11)*%
X74599800Y-92379800D03*
%TO.P,J1,12*%
%TO.N,Net-(J1-Pad12)*%
X74599800Y-94919800D03*
%TO.P,J1,13*%
%TO.N,Net-(J1-Pad13)*%
X74599800Y-97459800D03*
%TO.P,J1,14*%
%TO.N,Net-(J1-Pad14)*%
X74599800Y-99999800D03*
%TO.P,J1,15*%
%TO.N,Net-(J1-Pad15)*%
X74599800Y-102539800D03*
%TO.P,J1,16*%
%TO.N,Net-(J1-Pad16)*%
X74599800Y-105079800D03*
%TO.P,J1,17*%
%TO.N,Net-(J1-Pad17)*%
X74599800Y-107619800D03*
%TO.P,J1,18*%
%TO.N,Net-(J1-Pad18)*%
X74599800Y-110159800D03*
%TO.P,J1,19*%
%TO.N,Net-(J1-Pad19)*%
X74599800Y-112699800D03*
%TO.P,J1,20*%
%TO.N,Net-(J1-Pad20)*%
X74599800Y-115239800D03*
%TO.P,J1,21*%
%TO.N,Net-(J1-Pad21)*%
X74599800Y-117779800D03*
%TO.P,J1,22*%
%TO.N,Net-(J1-Pad22)*%
X74599800Y-120319800D03*
%TD*%
D15*
%TO.N,Net-(J1-Pad3)*%
X92964000Y-90424000D02*
X74600000Y-72060000D01*
X95450660Y-90424000D02*
X92964000Y-90424000D01*
%TO.N,Net-(J1-Pad4)*%
X90924380Y-90924380D02*
X74600000Y-74600000D01*
X95450660Y-90924380D02*
X90924380Y-90924380D01*
%TO.N,Net-(J1-Pad5)*%
X88884760Y-91424760D02*
X74600000Y-77140000D01*
X95450660Y-91424760D02*
X88884760Y-91424760D01*
%TO.N,Net-(J1-Pad6)*%
X86842600Y-91922600D02*
X74600000Y-79680000D01*
X95450660Y-91922600D02*
X86842600Y-91922600D01*
%TO.N,Net-(J1-Pad8)*%
X82763360Y-92923360D02*
X74600000Y-84760000D01*
X95450660Y-92923360D02*
X82763360Y-92923360D01*
%TO.N,Net-(J1-Pad9)*%
X80723740Y-93423740D02*
X74600000Y-87300000D01*
X95450660Y-93423740D02*
X80723740Y-93423740D01*
%TO.N,Net-(J1-Pad10)*%
X78684120Y-93924120D02*
X74600000Y-89840000D01*
X95450660Y-93924120D02*
X78684120Y-93924120D01*
%TO.N,Net-(J1-Pad11)*%
X76644500Y-94424500D02*
X74600000Y-92380000D01*
X95450660Y-94424500D02*
X76644500Y-94424500D01*
%TO.N,Net-(J1-Pad12)*%
X74602340Y-94922340D02*
X74600000Y-94920000D01*
X95450660Y-94922340D02*
X74602340Y-94922340D01*
%TO.N,Net-(J1-Pad13)*%
X76637280Y-95422720D02*
X74600000Y-97460000D01*
X95450660Y-95422720D02*
X76637280Y-95422720D01*
%TO.N,Net-(J1-Pad14)*%
X78676900Y-95923100D02*
X74600000Y-100000000D01*
X95450660Y-95923100D02*
X78676900Y-95923100D01*
%TO.N,Net-(J1-Pad15)*%
X80716520Y-96423480D02*
X74600000Y-102540000D01*
X95450660Y-96423480D02*
X80716520Y-96423480D01*
%TO.N,Net-(J1-Pad16)*%
X82756140Y-96923860D02*
X74600000Y-105080000D01*
X95450660Y-96923860D02*
X82756140Y-96923860D01*
%TO.N,Net-(J1-Pad17)*%
X84795760Y-97424240D02*
X74600000Y-107620000D01*
X95450660Y-97424240D02*
X84795760Y-97424240D01*
%TO.N,Net-(J1-Pad18)*%
X86835380Y-97924620D02*
X74600000Y-110160000D01*
X95450660Y-97924620D02*
X86835380Y-97924620D01*
%TO.N,Net-(J1-Pad19)*%
X88877540Y-98422460D02*
X74600000Y-112700000D01*
X95450660Y-98422460D02*
X88877540Y-98422460D01*
%TO.N,Net-(J1-Pad20)*%
X90917160Y-98922840D02*
X74600000Y-115240000D01*
X95450660Y-98922840D02*
X90917160Y-98922840D01*
%TO.N,Net-(J1-Pad21)*%
X92956780Y-99423220D02*
X74600000Y-117780000D01*
X95450660Y-99423220D02*
X92956780Y-99423220D01*
%TO.N,Net-(J1-Pad22)*%
X74600000Y-120023880D02*
X74600000Y-120320000D01*
X94700280Y-99923600D02*
X74600000Y-120023880D01*
X95450660Y-99923600D02*
X94700280Y-99923600D01*
%TO.N,Net-(J2-Pad22)*%
X120320000Y-119742340D02*
X120320000Y-120320000D01*
X100501260Y-99923600D02*
X120320000Y-119742340D01*
X99750880Y-99923600D02*
X100501260Y-99923600D01*
%TO.N,Net-(J2-Pad21)*%
X101963220Y-99423220D02*
X120320000Y-117780000D01*
X99750880Y-99423220D02*
X101963220Y-99423220D01*
%TO.N,Net-(J2-Pad20)*%
X104002840Y-98922840D02*
X120320000Y-115240000D01*
X99750880Y-98922840D02*
X104002840Y-98922840D01*
%TO.N,Net-(J2-Pad19)*%
X106042460Y-98422460D02*
X120320000Y-112700000D01*
X99750880Y-98422460D02*
X106042460Y-98422460D01*
%TO.N,Net-(J2-Pad18)*%
X108084620Y-97924620D02*
X120320000Y-110160000D01*
X99750880Y-97924620D02*
X108084620Y-97924620D01*
%TO.N,Net-(J2-Pad17)*%
X110124240Y-97424240D02*
X120320000Y-107620000D01*
X99750880Y-97424240D02*
X110124240Y-97424240D01*
%TO.N,Net-(J2-Pad16)*%
X112163860Y-96923860D02*
X120320000Y-105080000D01*
X99750880Y-96923860D02*
X112163860Y-96923860D01*
%TO.N,Net-(J2-Pad15)*%
X114203480Y-96423480D02*
X120320000Y-102540000D01*
X99750880Y-96423480D02*
X114203480Y-96423480D01*
%TO.N,Net-(J2-Pad14)*%
X116243100Y-95923100D02*
X120320000Y-100000000D01*
X99750880Y-95923100D02*
X116243100Y-95923100D01*
%TO.N,Net-(J2-Pad13)*%
X118282720Y-95422720D02*
X120320000Y-97460000D01*
X99750880Y-95422720D02*
X118282720Y-95422720D01*
%TO.N,Net-(J2-Pad12)*%
X120317660Y-94922340D02*
X120320000Y-94920000D01*
X99750880Y-94922340D02*
X120317660Y-94922340D01*
%TO.N,Net-(J2-Pad11)*%
X118275500Y-94424500D02*
X120320000Y-92380000D01*
X99750880Y-94424500D02*
X118275500Y-94424500D01*
%TO.N,Net-(J2-Pad10)*%
X116235880Y-93924120D02*
X120320000Y-89840000D01*
X99750880Y-93924120D02*
X116235880Y-93924120D01*
%TO.N,Net-(J2-Pad9)*%
X114196260Y-93423740D02*
X120320000Y-87300000D01*
X99750880Y-93423740D02*
X114196260Y-93423740D01*
%TO.N,Net-(J2-Pad8)*%
X112156640Y-92923360D02*
X120320000Y-84760000D01*
X99750880Y-92923360D02*
X112156640Y-92923360D01*
%TO.N,Net-(J2-Pad7)*%
X110117020Y-92422980D02*
X120320000Y-82220000D01*
X99750880Y-92422980D02*
X110117020Y-92422980D01*
%TO.N,Net-(J2-Pad5)*%
X106035240Y-91424760D02*
X120320000Y-77140000D01*
X99750880Y-91424760D02*
X106035240Y-91424760D01*
%TO.N,Net-(J2-Pad4)*%
X103995620Y-90924380D02*
X120320000Y-74600000D01*
X99750880Y-90924380D02*
X103995620Y-90924380D01*
%TO.N,Net-(J2-Pad3)*%
X101956000Y-90424000D02*
X120320000Y-72060000D01*
X99750880Y-90424000D02*
X101956000Y-90424000D01*
%TO.N,GND*%
X84802980Y-92422980D02*
X74600000Y-82220000D01*
X95450660Y-92422980D02*
X84802980Y-92422980D01*
X74600000Y-67199900D02*
X74600000Y-66980000D01*
X95524320Y-88124220D02*
X74600000Y-67199900D01*
X95524320Y-89148920D02*
X95524320Y-88124220D01*
X96260920Y-89148920D02*
X95524320Y-89148920D01*
X96413320Y-101198680D02*
X97282000Y-100330000D01*
X97282000Y-90170000D02*
X96260920Y-89148920D01*
X95524320Y-101198680D02*
X96413320Y-101198680D01*
X74599800Y-66979800D02*
X74599800Y-69519800D01*
X108077400Y-91922600D02*
X120320000Y-79680000D01*
X99750880Y-91922600D02*
X108077400Y-91922600D01*
X120320000Y-67478900D02*
X120320000Y-66980000D01*
X99674680Y-88124220D02*
X120320000Y-67478900D01*
X99674680Y-89148920D02*
X99674680Y-88124220D01*
X120320000Y-69520000D02*
X120320000Y-66980000D01*
X98811080Y-89148920D02*
X99674680Y-89148920D01*
X97790000Y-90170000D02*
X98811080Y-89148920D01*
X98658680Y-101198680D02*
X97790000Y-100330000D01*
X99674680Y-101198680D02*
X98658680Y-101198680D01*
X97248980Y-92422980D02*
X97282000Y-92456000D01*
X95450660Y-92422980D02*
X97248980Y-92422980D01*
X97282000Y-92456000D02*
X97282000Y-90170000D01*
X97282000Y-100330000D02*
X97282000Y-92456000D01*
X97815400Y-91922600D02*
X97790000Y-91948000D01*
X99750880Y-91922600D02*
X97815400Y-91922600D01*
X97790000Y-91948000D02*
X97790000Y-90170000D01*
X97790000Y-100330000D02*
X97790000Y-91948000D01*
X97282000Y-90170000D02*
X97790000Y-90170000D01*
%TD*%
D16*
%TO.N,GND*%
X82965286Y-71123000D02*
X112106715Y-71123000D01*
X112106715Y-67830000D01*
X118831928Y-67830000D01*
X118844188Y-67954482D01*
X118880498Y-68074180D01*
X118939463Y-68184494D01*
X119018815Y-68281185D01*
X119115506Y-68360537D01*
X119225820Y-68419502D01*
X119306466Y-68443966D01*
X119222412Y-68519731D01*
X119048359Y-68753080D01*
X118923175Y-69015901D01*
X118878524Y-69163110D01*
X118999845Y-69393000D01*
X120193000Y-69393000D01*
X120193000Y-67107000D01*
X120447000Y-67107000D01*
X120447000Y-69393000D01*
X121640155Y-69393000D01*
X121761476Y-69163110D01*
X121716825Y-69015901D01*
X121591641Y-68753080D01*
X121417588Y-68519731D01*
X121333534Y-68443966D01*
X121414180Y-68419502D01*
X121524494Y-68360537D01*
X121621185Y-68281185D01*
X121700537Y-68184494D01*
X121759502Y-68074180D01*
X121795812Y-67954482D01*
X121808072Y-67830000D01*
X121805000Y-67265750D01*
X121646250Y-67107000D01*
X120447000Y-67107000D01*
X120193000Y-67107000D01*
X118993750Y-67107000D01*
X118835000Y-67265750D01*
X118831928Y-67830000D01*
X112106715Y-67830000D01*
X112106715Y-66130000D01*
X118831928Y-66130000D01*
X118835000Y-66694250D01*
X118993750Y-66853000D01*
X120193000Y-66853000D01*
X120193000Y-65653750D01*
X120447000Y-65653750D01*
X120447000Y-66853000D01*
X121646250Y-66853000D01*
X121805000Y-66694250D01*
X121808072Y-66130000D01*
X121795812Y-66005518D01*
X121759502Y-65885820D01*
X121700537Y-65775506D01*
X121621185Y-65678815D01*
X121524494Y-65599463D01*
X121414180Y-65540498D01*
X121294482Y-65504188D01*
X121170000Y-65491928D01*
X120605750Y-65495000D01*
X120447000Y-65653750D01*
X120193000Y-65653750D01*
X120034250Y-65495000D01*
X119470000Y-65491928D01*
X119345518Y-65504188D01*
X119225820Y-65540498D01*
X119115506Y-65599463D01*
X119018815Y-65678815D01*
X118939463Y-65775506D01*
X118880498Y-65885820D01*
X118844188Y-66005518D01*
X118831928Y-66130000D01*
X112106715Y-66130000D01*
X112106715Y-64922000D01*
X121633723Y-64922000D01*
X121833200Y-64941559D01*
X121994041Y-64990120D01*
X122142378Y-65068992D01*
X122272574Y-65175176D01*
X122379664Y-65304626D01*
X122459572Y-65452414D01*
X122509252Y-65612902D01*
X122530001Y-65810316D01*
X122530000Y-121379723D01*
X122510441Y-121579204D01*
X122461881Y-121740040D01*
X122383008Y-121888378D01*
X122276822Y-122018575D01*
X122147372Y-122125665D01*
X121999586Y-122205572D01*
X121839094Y-122255253D01*
X121641695Y-122276000D01*
X101463857Y-122276000D01*
X101463857Y-113516000D01*
X93608143Y-113516000D01*
X93608143Y-122276000D01*
X73438277Y-122276000D01*
X73238796Y-122256441D01*
X73077960Y-122207881D01*
X72929622Y-122129008D01*
X72799425Y-122022822D01*
X72692335Y-121893372D01*
X72612428Y-121745586D01*
X72562747Y-121585094D01*
X72542000Y-121387695D01*
X72542000Y-71913540D01*
X73114800Y-71913540D01*
X73114800Y-72206060D01*
X73171868Y-72492958D01*
X73283810Y-72763211D01*
X73446325Y-73006432D01*
X73653168Y-73213275D01*
X73827560Y-73329800D01*
X73653168Y-73446325D01*
X73446325Y-73653168D01*
X73283810Y-73896389D01*
X73171868Y-74166642D01*
X73114800Y-74453540D01*
X73114800Y-74746060D01*
X73171868Y-75032958D01*
X73283810Y-75303211D01*
X73446325Y-75546432D01*
X73653168Y-75753275D01*
X73827560Y-75869800D01*
X73653168Y-75986325D01*
X73446325Y-76193168D01*
X73283810Y-76436389D01*
X73171868Y-76706642D01*
X73114800Y-76993540D01*
X73114800Y-77286060D01*
X73171868Y-77572958D01*
X73283810Y-77843211D01*
X73446325Y-78086432D01*
X73653168Y-78293275D01*
X73827560Y-78409800D01*
X73653168Y-78526325D01*
X73446325Y-78733168D01*
X73283810Y-78976389D01*
X73171868Y-79246642D01*
X73114800Y-79533540D01*
X73114800Y-79826060D01*
X73171868Y-80112958D01*
X73283810Y-80383211D01*
X73446325Y-80626432D01*
X73653168Y-80833275D01*
X73835334Y-80954995D01*
X73718445Y-81024622D01*
X73502212Y-81219531D01*
X73328159Y-81452880D01*
X73202975Y-81715701D01*
X73158324Y-81862910D01*
X73279645Y-82092800D01*
X74472800Y-82092800D01*
X74472800Y-82072800D01*
X74726800Y-82072800D01*
X74726800Y-82092800D01*
X74746800Y-82092800D01*
X74746800Y-82346800D01*
X74726800Y-82346800D01*
X74726800Y-82366800D01*
X74472800Y-82366800D01*
X74472800Y-82346800D01*
X73279645Y-82346800D01*
X73158324Y-82576690D01*
X73202975Y-82723899D01*
X73328159Y-82986720D01*
X73502212Y-83220069D01*
X73718445Y-83414978D01*
X73835334Y-83484605D01*
X73653168Y-83606325D01*
X73446325Y-83813168D01*
X73283810Y-84056389D01*
X73171868Y-84326642D01*
X73114800Y-84613540D01*
X73114800Y-84906060D01*
X73171868Y-85192958D01*
X73283810Y-85463211D01*
X73446325Y-85706432D01*
X73653168Y-85913275D01*
X73827560Y-86029800D01*
X73653168Y-86146325D01*
X73446325Y-86353168D01*
X73283810Y-86596389D01*
X73171868Y-86866642D01*
X73114800Y-87153540D01*
X73114800Y-87446060D01*
X73171868Y-87732958D01*
X73283810Y-88003211D01*
X73446325Y-88246432D01*
X73653168Y-88453275D01*
X73827560Y-88569800D01*
X73653168Y-88686325D01*
X73446325Y-88893168D01*
X73283810Y-89136389D01*
X73171868Y-89406642D01*
X73114800Y-89693540D01*
X73114800Y-89986060D01*
X73171868Y-90272958D01*
X73283810Y-90543211D01*
X73446325Y-90786432D01*
X73653168Y-90993275D01*
X73827560Y-91109800D01*
X73653168Y-91226325D01*
X73446325Y-91433168D01*
X73283810Y-91676389D01*
X73171868Y-91946642D01*
X73114800Y-92233540D01*
X73114800Y-92526060D01*
X73171868Y-92812958D01*
X73283810Y-93083211D01*
X73446325Y-93326432D01*
X73653168Y-93533275D01*
X73827560Y-93649800D01*
X73653168Y-93766325D01*
X73446325Y-93973168D01*
X73283810Y-94216389D01*
X73171868Y-94486642D01*
X73114800Y-94773540D01*
X73114800Y-95066060D01*
X73171868Y-95352958D01*
X73283810Y-95623211D01*
X73446325Y-95866432D01*
X73653168Y-96073275D01*
X73827560Y-96189800D01*
X73653168Y-96306325D01*
X73446325Y-96513168D01*
X73283810Y-96756389D01*
X73171868Y-97026642D01*
X73114800Y-97313540D01*
X73114800Y-97606060D01*
X73171868Y-97892958D01*
X73283810Y-98163211D01*
X73446325Y-98406432D01*
X73653168Y-98613275D01*
X73827560Y-98729800D01*
X73653168Y-98846325D01*
X73446325Y-99053168D01*
X73283810Y-99296389D01*
X73171868Y-99566642D01*
X73114800Y-99853540D01*
X73114800Y-100146060D01*
X73171868Y-100432958D01*
X73283810Y-100703211D01*
X73446325Y-100946432D01*
X73653168Y-101153275D01*
X73827560Y-101269800D01*
X73653168Y-101386325D01*
X73446325Y-101593168D01*
X73283810Y-101836389D01*
X73171868Y-102106642D01*
X73114800Y-102393540D01*
X73114800Y-102686060D01*
X73171868Y-102972958D01*
X73283810Y-103243211D01*
X73446325Y-103486432D01*
X73653168Y-103693275D01*
X73827560Y-103809800D01*
X73653168Y-103926325D01*
X73446325Y-104133168D01*
X73283810Y-104376389D01*
X73171868Y-104646642D01*
X73114800Y-104933540D01*
X73114800Y-105226060D01*
X73171868Y-105512958D01*
X73283810Y-105783211D01*
X73446325Y-106026432D01*
X73653168Y-106233275D01*
X73827560Y-106349800D01*
X73653168Y-106466325D01*
X73446325Y-106673168D01*
X73283810Y-106916389D01*
X73171868Y-107186642D01*
X73114800Y-107473540D01*
X73114800Y-107766060D01*
X73171868Y-108052958D01*
X73283810Y-108323211D01*
X73446325Y-108566432D01*
X73653168Y-108773275D01*
X73827560Y-108889800D01*
X73653168Y-109006325D01*
X73446325Y-109213168D01*
X73283810Y-109456389D01*
X73171868Y-109726642D01*
X73114800Y-110013540D01*
X73114800Y-110306060D01*
X73171868Y-110592958D01*
X73283810Y-110863211D01*
X73446325Y-111106432D01*
X73653168Y-111313275D01*
X73827560Y-111429800D01*
X73653168Y-111546325D01*
X73446325Y-111753168D01*
X73283810Y-111996389D01*
X73171868Y-112266642D01*
X73114800Y-112553540D01*
X73114800Y-112846060D01*
X73171868Y-113132958D01*
X73283810Y-113403211D01*
X73446325Y-113646432D01*
X73653168Y-113853275D01*
X73827560Y-113969800D01*
X73653168Y-114086325D01*
X73446325Y-114293168D01*
X73283810Y-114536389D01*
X73171868Y-114806642D01*
X73114800Y-115093540D01*
X73114800Y-115386060D01*
X73171868Y-115672958D01*
X73283810Y-115943211D01*
X73446325Y-116186432D01*
X73653168Y-116393275D01*
X73827560Y-116509800D01*
X73653168Y-116626325D01*
X73446325Y-116833168D01*
X73283810Y-117076389D01*
X73171868Y-117346642D01*
X73114800Y-117633540D01*
X73114800Y-117926060D01*
X73171868Y-118212958D01*
X73283810Y-118483211D01*
X73446325Y-118726432D01*
X73653168Y-118933275D01*
X73827560Y-119049800D01*
X73653168Y-119166325D01*
X73446325Y-119373168D01*
X73283810Y-119616389D01*
X73171868Y-119886642D01*
X73114800Y-120173540D01*
X73114800Y-120466060D01*
X73171868Y-120752958D01*
X73283810Y-121023211D01*
X73446325Y-121266432D01*
X73653168Y-121473275D01*
X73896389Y-121635790D01*
X74166642Y-121747732D01*
X74453540Y-121804800D01*
X74746060Y-121804800D01*
X75032958Y-121747732D01*
X75303211Y-121635790D01*
X75546432Y-121473275D01*
X75753275Y-121266432D01*
X75915790Y-121023211D01*
X76027732Y-120752958D01*
X76084800Y-120466060D01*
X76084800Y-120173540D01*
X76027732Y-119886642D01*
X75964557Y-119734124D01*
X94373000Y-101325682D01*
X94472758Y-101325682D01*
X94314010Y-101484430D01*
X94310938Y-101973380D01*
X94323198Y-102097862D01*
X94359508Y-102217560D01*
X94418473Y-102327874D01*
X94497825Y-102424565D01*
X94594516Y-102503917D01*
X94704830Y-102562882D01*
X94824528Y-102599192D01*
X94949010Y-102611452D01*
X95238570Y-102608380D01*
X95397320Y-102449630D01*
X95397320Y-101325680D01*
X95651320Y-101325680D01*
X95651320Y-102449630D01*
X95810070Y-102608380D01*
X96099630Y-102611452D01*
X96224112Y-102599192D01*
X96343810Y-102562882D01*
X96454124Y-102503917D01*
X96550815Y-102424565D01*
X96630167Y-102327874D01*
X96689132Y-102217560D01*
X96725442Y-102097862D01*
X96737702Y-101973380D01*
X98461298Y-101973380D01*
X98473558Y-102097862D01*
X98509868Y-102217560D01*
X98568833Y-102327874D01*
X98648185Y-102424565D01*
X98744876Y-102503917D01*
X98855190Y-102562882D01*
X98974888Y-102599192D01*
X99099370Y-102611452D01*
X99388930Y-102608380D01*
X99547680Y-102449630D01*
X99547680Y-101325680D01*
X98623120Y-101325680D01*
X98464370Y-101484430D01*
X98461298Y-101973380D01*
X96737702Y-101973380D01*
X96734630Y-101484430D01*
X96575880Y-101325680D01*
X95651320Y-101325680D01*
X95397320Y-101325680D01*
X95377320Y-101325680D01*
X95377320Y-101071680D01*
X95397320Y-101071680D01*
X95397320Y-101051680D01*
X95651320Y-101051680D01*
X95651320Y-101071680D01*
X96575880Y-101071680D01*
X96734630Y-100912930D01*
X96737702Y-100423980D01*
X96725442Y-100299498D01*
X96689132Y-100179800D01*
X96630167Y-100069486D01*
X96589112Y-100019460D01*
X96589112Y-99822000D01*
X96576852Y-99697518D01*
X96569539Y-99673410D01*
X96576852Y-99649302D01*
X96589112Y-99524820D01*
X96589112Y-99321620D01*
X96576852Y-99197138D01*
X96569539Y-99173030D01*
X96576852Y-99148922D01*
X96589112Y-99024440D01*
X96589112Y-98821240D01*
X96576852Y-98696758D01*
X96569539Y-98672650D01*
X96576852Y-98648542D01*
X96589112Y-98524060D01*
X96589112Y-98320860D01*
X96576852Y-98196378D01*
X96569924Y-98173540D01*
X96576852Y-98150702D01*
X96589112Y-98026220D01*
X96589112Y-97823020D01*
X96576852Y-97698538D01*
X96569539Y-97674430D01*
X96576852Y-97650322D01*
X96589112Y-97525840D01*
X96589112Y-97322640D01*
X96576852Y-97198158D01*
X96569539Y-97174050D01*
X96576852Y-97149942D01*
X96589112Y-97025460D01*
X96589112Y-96822260D01*
X96576852Y-96697778D01*
X96569539Y-96673670D01*
X96576852Y-96649562D01*
X96589112Y-96525080D01*
X96589112Y-96321880D01*
X96576852Y-96197398D01*
X96569539Y-96173290D01*
X96576852Y-96149182D01*
X96589112Y-96024700D01*
X96589112Y-95821500D01*
X96576852Y-95697018D01*
X96569539Y-95672910D01*
X96576852Y-95648802D01*
X96589112Y-95524320D01*
X96589112Y-95321120D01*
X96576852Y-95196638D01*
X96569539Y-95172530D01*
X96576852Y-95148422D01*
X96589112Y-95023940D01*
X96589112Y-94820740D01*
X96576852Y-94696258D01*
X96569924Y-94673420D01*
X96576852Y-94650582D01*
X96589112Y-94526100D01*
X96589112Y-94322900D01*
X96576852Y-94198418D01*
X96569539Y-94174310D01*
X96576852Y-94150202D01*
X96589112Y-94025720D01*
X96589112Y-93822520D01*
X96576852Y-93698038D01*
X96569539Y-93673930D01*
X96576852Y-93649822D01*
X96589112Y-93525340D01*
X96589112Y-93322140D01*
X96576852Y-93197658D01*
X96569539Y-93173550D01*
X96576852Y-93149442D01*
X96589112Y-93024960D01*
X96589112Y-92821760D01*
X96576852Y-92697278D01*
X96570379Y-92675940D01*
X96572124Y-92670837D01*
X96586040Y-92581730D01*
X96493061Y-92488751D01*
X96481577Y-92467266D01*
X96445233Y-92422980D01*
X96481577Y-92378694D01*
X96493061Y-92357209D01*
X96586040Y-92264230D01*
X96572124Y-92175123D01*
X96570379Y-92170020D01*
X96576852Y-92148682D01*
X96589112Y-92024200D01*
X96589112Y-91821000D01*
X96576852Y-91696518D01*
X96569924Y-91673680D01*
X96576852Y-91650842D01*
X96589112Y-91526360D01*
X96589112Y-91323160D01*
X96576852Y-91198678D01*
X96569539Y-91174570D01*
X96576852Y-91150462D01*
X96589112Y-91025980D01*
X96589112Y-90822780D01*
X96576852Y-90698298D01*
X96569539Y-90674190D01*
X96576852Y-90650082D01*
X96589112Y-90525600D01*
X96589112Y-90328140D01*
X96630167Y-90278114D01*
X96689132Y-90167800D01*
X96725442Y-90048102D01*
X96737702Y-89923620D01*
X98461298Y-89923620D01*
X98473558Y-90048102D01*
X98509868Y-90167800D01*
X98568833Y-90278114D01*
X98612428Y-90331235D01*
X98612428Y-90525600D01*
X98624688Y-90650082D01*
X98632001Y-90674190D01*
X98624688Y-90698298D01*
X98612428Y-90822780D01*
X98612428Y-91025980D01*
X98624688Y-91150462D01*
X98632001Y-91174570D01*
X98624688Y-91198678D01*
X98612428Y-91323160D01*
X98612428Y-91526360D01*
X98624688Y-91650842D01*
X98630753Y-91670834D01*
X98629416Y-91674743D01*
X98615500Y-91763850D01*
X98705562Y-91853912D01*
X98719963Y-91880854D01*
X98755265Y-91923870D01*
X98719963Y-91966886D01*
X98708479Y-91988371D01*
X98615500Y-92081350D01*
X98629416Y-92170457D01*
X98631161Y-92175560D01*
X98624688Y-92196898D01*
X98612428Y-92321380D01*
X98612428Y-92524580D01*
X98624688Y-92649062D01*
X98632001Y-92673170D01*
X98624688Y-92697278D01*
X98612428Y-92821760D01*
X98612428Y-93024960D01*
X98624688Y-93149442D01*
X98632001Y-93173550D01*
X98624688Y-93197658D01*
X98612428Y-93322140D01*
X98612428Y-93525340D01*
X98624688Y-93649822D01*
X98632001Y-93673930D01*
X98624688Y-93698038D01*
X98612428Y-93822520D01*
X98612428Y-94025720D01*
X98624688Y-94150202D01*
X98632001Y-94174310D01*
X98624688Y-94198418D01*
X98612428Y-94322900D01*
X98612428Y-94526100D01*
X98624688Y-94650582D01*
X98631616Y-94673420D01*
X98624688Y-94696258D01*
X98612428Y-94820740D01*
X98612428Y-95023940D01*
X98624688Y-95148422D01*
X98632001Y-95172530D01*
X98624688Y-95196638D01*
X98612428Y-95321120D01*
X98612428Y-95524320D01*
X98624688Y-95648802D01*
X98632001Y-95672910D01*
X98624688Y-95697018D01*
X98612428Y-95821500D01*
X98612428Y-96024700D01*
X98624688Y-96149182D01*
X98632001Y-96173290D01*
X98624688Y-96197398D01*
X98612428Y-96321880D01*
X98612428Y-96525080D01*
X98624688Y-96649562D01*
X98632001Y-96673670D01*
X98624688Y-96697778D01*
X98612428Y-96822260D01*
X98612428Y-97025460D01*
X98624688Y-97149942D01*
X98632001Y-97174050D01*
X98624688Y-97198158D01*
X98612428Y-97322640D01*
X98612428Y-97525840D01*
X98624688Y-97650322D01*
X98632001Y-97674430D01*
X98624688Y-97698538D01*
X98612428Y-97823020D01*
X98612428Y-98026220D01*
X98624688Y-98150702D01*
X98631616Y-98173540D01*
X98624688Y-98196378D01*
X98612428Y-98320860D01*
X98612428Y-98524060D01*
X98624688Y-98648542D01*
X98632001Y-98672650D01*
X98624688Y-98696758D01*
X98612428Y-98821240D01*
X98612428Y-99024440D01*
X98624688Y-99148922D01*
X98632001Y-99173030D01*
X98624688Y-99197138D01*
X98612428Y-99321620D01*
X98612428Y-99524820D01*
X98624688Y-99649302D01*
X98632001Y-99673410D01*
X98624688Y-99697518D01*
X98612428Y-99822000D01*
X98612428Y-100016365D01*
X98568833Y-100069486D01*
X98509868Y-100179800D01*
X98473558Y-100299498D01*
X98461298Y-100423980D01*
X98464370Y-100912930D01*
X98623120Y-101071680D01*
X99547680Y-101071680D01*
X99547680Y-101051680D01*
X99801680Y-101051680D01*
X99801680Y-101071680D01*
X99821680Y-101071680D01*
X99821680Y-101325680D01*
X99801680Y-101325680D01*
X99801680Y-102449630D01*
X99960430Y-102608380D01*
X100249990Y-102611452D01*
X100374472Y-102599192D01*
X100494170Y-102562882D01*
X100604484Y-102503917D01*
X100701175Y-102424565D01*
X100780527Y-102327874D01*
X100839492Y-102217560D01*
X100875802Y-102097862D01*
X100888062Y-101973380D01*
X100884990Y-101484430D01*
X100726242Y-101325682D01*
X100828541Y-101325682D01*
X119050248Y-119547390D01*
X119004010Y-119616589D01*
X118892068Y-119886842D01*
X118835000Y-120173740D01*
X118835000Y-120466260D01*
X118892068Y-120753158D01*
X119004010Y-121023411D01*
X119166525Y-121266632D01*
X119373368Y-121473475D01*
X119616589Y-121635990D01*
X119886842Y-121747932D01*
X120173740Y-121805000D01*
X120466260Y-121805000D01*
X120753158Y-121747932D01*
X121023411Y-121635990D01*
X121266632Y-121473475D01*
X121473475Y-121266632D01*
X121635990Y-121023411D01*
X121747932Y-120753158D01*
X121805000Y-120466260D01*
X121805000Y-120173740D01*
X121747932Y-119886842D01*
X121635990Y-119616589D01*
X121473475Y-119373368D01*
X121266632Y-119166525D01*
X121092240Y-119050000D01*
X121266632Y-118933475D01*
X121473475Y-118726632D01*
X121635990Y-118483411D01*
X121747932Y-118213158D01*
X121805000Y-117926260D01*
X121805000Y-117633740D01*
X121747932Y-117346842D01*
X121635990Y-117076589D01*
X121473475Y-116833368D01*
X121266632Y-116626525D01*
X121092240Y-116510000D01*
X121266632Y-116393475D01*
X121473475Y-116186632D01*
X121635990Y-115943411D01*
X121747932Y-115673158D01*
X121805000Y-115386260D01*
X121805000Y-115093740D01*
X121747932Y-114806842D01*
X121635990Y-114536589D01*
X121473475Y-114293368D01*
X121266632Y-114086525D01*
X121092240Y-113970000D01*
X121266632Y-113853475D01*
X121473475Y-113646632D01*
X121635990Y-113403411D01*
X121747932Y-113133158D01*
X121805000Y-112846260D01*
X121805000Y-112553740D01*
X121747932Y-112266842D01*
X121635990Y-111996589D01*
X121473475Y-111753368D01*
X121266632Y-111546525D01*
X121092240Y-111430000D01*
X121266632Y-111313475D01*
X121473475Y-111106632D01*
X121635990Y-110863411D01*
X121747932Y-110593158D01*
X121805000Y-110306260D01*
X121805000Y-110013740D01*
X121747932Y-109726842D01*
X121635990Y-109456589D01*
X121473475Y-109213368D01*
X121266632Y-109006525D01*
X121092240Y-108890000D01*
X121266632Y-108773475D01*
X121473475Y-108566632D01*
X121635990Y-108323411D01*
X121747932Y-108053158D01*
X121805000Y-107766260D01*
X121805000Y-107473740D01*
X121747932Y-107186842D01*
X121635990Y-106916589D01*
X121473475Y-106673368D01*
X121266632Y-106466525D01*
X121092240Y-106350000D01*
X121266632Y-106233475D01*
X121473475Y-106026632D01*
X121635990Y-105783411D01*
X121747932Y-105513158D01*
X121805000Y-105226260D01*
X121805000Y-104933740D01*
X121747932Y-104646842D01*
X121635990Y-104376589D01*
X121473475Y-104133368D01*
X121266632Y-103926525D01*
X121092240Y-103810000D01*
X121266632Y-103693475D01*
X121473475Y-103486632D01*
X121635990Y-103243411D01*
X121747932Y-102973158D01*
X121805000Y-102686260D01*
X121805000Y-102393740D01*
X121747932Y-102106842D01*
X121635990Y-101836589D01*
X121473475Y-101593368D01*
X121266632Y-101386525D01*
X121092240Y-101270000D01*
X121266632Y-101153475D01*
X121473475Y-100946632D01*
X121635990Y-100703411D01*
X121747932Y-100433158D01*
X121805000Y-100146260D01*
X121805000Y-99853740D01*
X121747932Y-99566842D01*
X121635990Y-99296589D01*
X121473475Y-99053368D01*
X121266632Y-98846525D01*
X121092240Y-98730000D01*
X121266632Y-98613475D01*
X121473475Y-98406632D01*
X121635990Y-98163411D01*
X121747932Y-97893158D01*
X121805000Y-97606260D01*
X121805000Y-97313740D01*
X121747932Y-97026842D01*
X121635990Y-96756589D01*
X121473475Y-96513368D01*
X121266632Y-96306525D01*
X121092240Y-96190000D01*
X121266632Y-96073475D01*
X121473475Y-95866632D01*
X121635990Y-95623411D01*
X121747932Y-95353158D01*
X121805000Y-95066260D01*
X121805000Y-94773740D01*
X121747932Y-94486842D01*
X121635990Y-94216589D01*
X121473475Y-93973368D01*
X121266632Y-93766525D01*
X121092240Y-93650000D01*
X121266632Y-93533475D01*
X121473475Y-93326632D01*
X121635990Y-93083411D01*
X121747932Y-92813158D01*
X121805000Y-92526260D01*
X121805000Y-92233740D01*
X121747932Y-91946842D01*
X121635990Y-91676589D01*
X121473475Y-91433368D01*
X121266632Y-91226525D01*
X121092240Y-91110000D01*
X121266632Y-90993475D01*
X121473475Y-90786632D01*
X121635990Y-90543411D01*
X121747932Y-90273158D01*
X121805000Y-89986260D01*
X121805000Y-89693740D01*
X121747932Y-89406842D01*
X121635990Y-89136589D01*
X121473475Y-88893368D01*
X121266632Y-88686525D01*
X121092240Y-88570000D01*
X121266632Y-88453475D01*
X121473475Y-88246632D01*
X121635990Y-88003411D01*
X121747932Y-87733158D01*
X121805000Y-87446260D01*
X121805000Y-87153740D01*
X121747932Y-86866842D01*
X121635990Y-86596589D01*
X121473475Y-86353368D01*
X121266632Y-86146525D01*
X121092240Y-86030000D01*
X121266632Y-85913475D01*
X121473475Y-85706632D01*
X121635990Y-85463411D01*
X121747932Y-85193158D01*
X121805000Y-84906260D01*
X121805000Y-84613740D01*
X121747932Y-84326842D01*
X121635990Y-84056589D01*
X121473475Y-83813368D01*
X121266632Y-83606525D01*
X121092240Y-83490000D01*
X121266632Y-83373475D01*
X121473475Y-83166632D01*
X121635990Y-82923411D01*
X121747932Y-82653158D01*
X121805000Y-82366260D01*
X121805000Y-82073740D01*
X121747932Y-81786842D01*
X121635990Y-81516589D01*
X121473475Y-81273368D01*
X121266632Y-81066525D01*
X121084466Y-80944805D01*
X121201355Y-80875178D01*
X121417588Y-80680269D01*
X121591641Y-80446920D01*
X121716825Y-80184099D01*
X121761476Y-80036890D01*
X121640155Y-79807000D01*
X120447000Y-79807000D01*
X120447000Y-79827000D01*
X120193000Y-79827000D01*
X120193000Y-79807000D01*
X120173000Y-79807000D01*
X120173000Y-79553000D01*
X120193000Y-79553000D01*
X120193000Y-79533000D01*
X120447000Y-79533000D01*
X120447000Y-79553000D01*
X121640155Y-79553000D01*
X121761476Y-79323110D01*
X121716825Y-79175901D01*
X121591641Y-78913080D01*
X121417588Y-78679731D01*
X121201355Y-78484822D01*
X121084466Y-78415195D01*
X121266632Y-78293475D01*
X121473475Y-78086632D01*
X121635990Y-77843411D01*
X121747932Y-77573158D01*
X121805000Y-77286260D01*
X121805000Y-76993740D01*
X121747932Y-76706842D01*
X121635990Y-76436589D01*
X121473475Y-76193368D01*
X121266632Y-75986525D01*
X121092240Y-75870000D01*
X121266632Y-75753475D01*
X121473475Y-75546632D01*
X121635990Y-75303411D01*
X121747932Y-75033158D01*
X121805000Y-74746260D01*
X121805000Y-74453740D01*
X121747932Y-74166842D01*
X121635990Y-73896589D01*
X121473475Y-73653368D01*
X121266632Y-73446525D01*
X121092240Y-73330000D01*
X121266632Y-73213475D01*
X121473475Y-73006632D01*
X121635990Y-72763411D01*
X121747932Y-72493158D01*
X121805000Y-72206260D01*
X121805000Y-71913740D01*
X121747932Y-71626842D01*
X121635990Y-71356589D01*
X121473475Y-71113368D01*
X121266632Y-70906525D01*
X121084466Y-70784805D01*
X121201355Y-70715178D01*
X121417588Y-70520269D01*
X121591641Y-70286920D01*
X121716825Y-70024099D01*
X121761476Y-69876890D01*
X121640155Y-69647000D01*
X120447000Y-69647000D01*
X120447000Y-69667000D01*
X120193000Y-69667000D01*
X120193000Y-69647000D01*
X118999845Y-69647000D01*
X118878524Y-69876890D01*
X118923175Y-70024099D01*
X119048359Y-70286920D01*
X119222412Y-70520269D01*
X119438645Y-70715178D01*
X119555534Y-70784805D01*
X119373368Y-70906525D01*
X119166525Y-71113368D01*
X119004010Y-71356589D01*
X118892068Y-71626842D01*
X118835000Y-71913740D01*
X118835000Y-72206260D01*
X118878790Y-72426408D01*
X101641199Y-89664000D01*
X100886431Y-89664000D01*
X100884990Y-89434670D01*
X100726240Y-89275920D01*
X99801680Y-89275920D01*
X99801680Y-89295920D01*
X99547680Y-89295920D01*
X99547680Y-89275920D01*
X98623120Y-89275920D01*
X98464370Y-89434670D01*
X98461298Y-89923620D01*
X96737702Y-89923620D01*
X96734630Y-89434670D01*
X96575880Y-89275920D01*
X95651320Y-89275920D01*
X95651320Y-89295920D01*
X95397320Y-89295920D01*
X95397320Y-89275920D01*
X94472760Y-89275920D01*
X94314010Y-89434670D01*
X94312569Y-89664000D01*
X93278802Y-89664000D01*
X91989022Y-88374220D01*
X94310938Y-88374220D01*
X94314010Y-88863170D01*
X94472760Y-89021920D01*
X95397320Y-89021920D01*
X95397320Y-87897970D01*
X95651320Y-87897970D01*
X95651320Y-89021920D01*
X96575880Y-89021920D01*
X96734630Y-88863170D01*
X96737702Y-88374220D01*
X98461298Y-88374220D01*
X98464370Y-88863170D01*
X98623120Y-89021920D01*
X99547680Y-89021920D01*
X99547680Y-87897970D01*
X99801680Y-87897970D01*
X99801680Y-89021920D01*
X100726240Y-89021920D01*
X100884990Y-88863170D01*
X100888062Y-88374220D01*
X100875802Y-88249738D01*
X100839492Y-88130040D01*
X100780527Y-88019726D01*
X100701175Y-87923035D01*
X100604484Y-87843683D01*
X100494170Y-87784718D01*
X100374472Y-87748408D01*
X100249990Y-87736148D01*
X99960430Y-87739220D01*
X99801680Y-87897970D01*
X99547680Y-87897970D01*
X99388930Y-87739220D01*
X99099370Y-87736148D01*
X98974888Y-87748408D01*
X98855190Y-87784718D01*
X98744876Y-87843683D01*
X98648185Y-87923035D01*
X98568833Y-88019726D01*
X98509868Y-88130040D01*
X98473558Y-88249738D01*
X98461298Y-88374220D01*
X96737702Y-88374220D01*
X96725442Y-88249738D01*
X96689132Y-88130040D01*
X96630167Y-88019726D01*
X96550815Y-87923035D01*
X96454124Y-87843683D01*
X96343810Y-87784718D01*
X96224112Y-87748408D01*
X96099630Y-87736148D01*
X95810070Y-87739220D01*
X95651320Y-87897970D01*
X95397320Y-87897970D01*
X95238570Y-87739220D01*
X94949010Y-87736148D01*
X94824528Y-87748408D01*
X94704830Y-87784718D01*
X94594516Y-87843683D01*
X94497825Y-87923035D01*
X94418473Y-88019726D01*
X94359508Y-88130040D01*
X94323198Y-88249738D01*
X94310938Y-88374220D01*
X91989022Y-88374220D01*
X76041009Y-72426208D01*
X76084800Y-72206060D01*
X76084800Y-71913540D01*
X76027732Y-71626642D01*
X75915790Y-71356389D01*
X75753275Y-71113168D01*
X75546432Y-70906325D01*
X75364266Y-70784605D01*
X75481155Y-70714978D01*
X75697388Y-70520069D01*
X75871441Y-70286720D01*
X75996625Y-70023899D01*
X76041276Y-69876690D01*
X75919955Y-69646800D01*
X74726800Y-69646800D01*
X74726800Y-69666800D01*
X74472800Y-69666800D01*
X74472800Y-69646800D01*
X73279645Y-69646800D01*
X73158324Y-69876690D01*
X73202975Y-70023899D01*
X73328159Y-70286720D01*
X73502212Y-70520069D01*
X73718445Y-70714978D01*
X73835334Y-70784605D01*
X73653168Y-70906325D01*
X73446325Y-71113168D01*
X73283810Y-71356389D01*
X73171868Y-71626642D01*
X73114800Y-71913540D01*
X72542000Y-71913540D01*
X72542000Y-67829800D01*
X73111728Y-67829800D01*
X73123988Y-67954282D01*
X73160298Y-68073980D01*
X73219263Y-68184294D01*
X73298615Y-68280985D01*
X73395306Y-68360337D01*
X73505620Y-68419302D01*
X73586266Y-68443766D01*
X73502212Y-68519531D01*
X73328159Y-68752880D01*
X73202975Y-69015701D01*
X73158324Y-69162910D01*
X73279645Y-69392800D01*
X74472800Y-69392800D01*
X74472800Y-67106800D01*
X74726800Y-67106800D01*
X74726800Y-69392800D01*
X75919955Y-69392800D01*
X76041276Y-69162910D01*
X75996625Y-69015701D01*
X75871441Y-68752880D01*
X75697388Y-68519531D01*
X75613334Y-68443766D01*
X75693980Y-68419302D01*
X75804294Y-68360337D01*
X75900985Y-68280985D01*
X75980337Y-68184294D01*
X76039302Y-68073980D01*
X76075612Y-67954282D01*
X76087872Y-67829800D01*
X76084800Y-67265550D01*
X75926050Y-67106800D01*
X74726800Y-67106800D01*
X74472800Y-67106800D01*
X73273550Y-67106800D01*
X73114800Y-67265550D01*
X73111728Y-67829800D01*
X72542000Y-67829800D01*
X72542000Y-66129800D01*
X73111728Y-66129800D01*
X73114800Y-66694050D01*
X73273550Y-66852800D01*
X74472800Y-66852800D01*
X74472800Y-65653550D01*
X74726800Y-65653550D01*
X74726800Y-66852800D01*
X75926050Y-66852800D01*
X76084800Y-66694050D01*
X76087872Y-66129800D01*
X76075612Y-66005318D01*
X76039302Y-65885620D01*
X75980337Y-65775306D01*
X75900985Y-65678615D01*
X75804294Y-65599263D01*
X75693980Y-65540298D01*
X75574282Y-65503988D01*
X75449800Y-65491728D01*
X74885550Y-65494800D01*
X74726800Y-65653550D01*
X74472800Y-65653550D01*
X74314050Y-65494800D01*
X73749800Y-65491728D01*
X73625318Y-65503988D01*
X73505620Y-65540298D01*
X73395306Y-65599263D01*
X73298615Y-65678615D01*
X73219263Y-65775306D01*
X73160298Y-65885620D01*
X73123988Y-66005318D01*
X73111728Y-66129800D01*
X72542000Y-66129800D01*
X72542000Y-65818277D01*
X72561559Y-65618800D01*
X72610120Y-65457959D01*
X72688992Y-65309622D01*
X72795176Y-65179426D01*
X72924626Y-65072336D01*
X73072414Y-64992428D01*
X73232902Y-64942748D01*
X73430306Y-64922000D01*
X82965286Y-64922000D01*
X82965286Y-71123000D01*
%TA.AperFunction,Conductor*%
D17*
G36*
X82965286Y-71123000D02*
G01*
X112106715Y-71123000D01*
X112106715Y-67830000D01*
X118831928Y-67830000D01*
X118844188Y-67954482D01*
X118880498Y-68074180D01*
X118939463Y-68184494D01*
X119018815Y-68281185D01*
X119115506Y-68360537D01*
X119225820Y-68419502D01*
X119306466Y-68443966D01*
X119222412Y-68519731D01*
X119048359Y-68753080D01*
X118923175Y-69015901D01*
X118878524Y-69163110D01*
X118999845Y-69393000D01*
X120193000Y-69393000D01*
X120193000Y-67107000D01*
X120447000Y-67107000D01*
X120447000Y-69393000D01*
X121640155Y-69393000D01*
X121761476Y-69163110D01*
X121716825Y-69015901D01*
X121591641Y-68753080D01*
X121417588Y-68519731D01*
X121333534Y-68443966D01*
X121414180Y-68419502D01*
X121524494Y-68360537D01*
X121621185Y-68281185D01*
X121700537Y-68184494D01*
X121759502Y-68074180D01*
X121795812Y-67954482D01*
X121808072Y-67830000D01*
X121805000Y-67265750D01*
X121646250Y-67107000D01*
X120447000Y-67107000D01*
X120193000Y-67107000D01*
X118993750Y-67107000D01*
X118835000Y-67265750D01*
X118831928Y-67830000D01*
X112106715Y-67830000D01*
X112106715Y-66130000D01*
X118831928Y-66130000D01*
X118835000Y-66694250D01*
X118993750Y-66853000D01*
X120193000Y-66853000D01*
X120193000Y-65653750D01*
X120447000Y-65653750D01*
X120447000Y-66853000D01*
X121646250Y-66853000D01*
X121805000Y-66694250D01*
X121808072Y-66130000D01*
X121795812Y-66005518D01*
X121759502Y-65885820D01*
X121700537Y-65775506D01*
X121621185Y-65678815D01*
X121524494Y-65599463D01*
X121414180Y-65540498D01*
X121294482Y-65504188D01*
X121170000Y-65491928D01*
X120605750Y-65495000D01*
X120447000Y-65653750D01*
X120193000Y-65653750D01*
X120034250Y-65495000D01*
X119470000Y-65491928D01*
X119345518Y-65504188D01*
X119225820Y-65540498D01*
X119115506Y-65599463D01*
X119018815Y-65678815D01*
X118939463Y-65775506D01*
X118880498Y-65885820D01*
X118844188Y-66005518D01*
X118831928Y-66130000D01*
X112106715Y-66130000D01*
X112106715Y-64922000D01*
X121633723Y-64922000D01*
X121833200Y-64941559D01*
X121994041Y-64990120D01*
X122142378Y-65068992D01*
X122272574Y-65175176D01*
X122379664Y-65304626D01*
X122459572Y-65452414D01*
X122509252Y-65612902D01*
X122530001Y-65810316D01*
X122530000Y-121379723D01*
X122510441Y-121579204D01*
X122461881Y-121740040D01*
X122383008Y-121888378D01*
X122276822Y-122018575D01*
X122147372Y-122125665D01*
X121999586Y-122205572D01*
X121839094Y-122255253D01*
X121641695Y-122276000D01*
X101463857Y-122276000D01*
X101463857Y-113516000D01*
X93608143Y-113516000D01*
X93608143Y-122276000D01*
X73438277Y-122276000D01*
X73238796Y-122256441D01*
X73077960Y-122207881D01*
X72929622Y-122129008D01*
X72799425Y-122022822D01*
X72692335Y-121893372D01*
X72612428Y-121745586D01*
X72562747Y-121585094D01*
X72542000Y-121387695D01*
X72542000Y-71913540D01*
X73114800Y-71913540D01*
X73114800Y-72206060D01*
X73171868Y-72492958D01*
X73283810Y-72763211D01*
X73446325Y-73006432D01*
X73653168Y-73213275D01*
X73827560Y-73329800D01*
X73653168Y-73446325D01*
X73446325Y-73653168D01*
X73283810Y-73896389D01*
X73171868Y-74166642D01*
X73114800Y-74453540D01*
X73114800Y-74746060D01*
X73171868Y-75032958D01*
X73283810Y-75303211D01*
X73446325Y-75546432D01*
X73653168Y-75753275D01*
X73827560Y-75869800D01*
X73653168Y-75986325D01*
X73446325Y-76193168D01*
X73283810Y-76436389D01*
X73171868Y-76706642D01*
X73114800Y-76993540D01*
X73114800Y-77286060D01*
X73171868Y-77572958D01*
X73283810Y-77843211D01*
X73446325Y-78086432D01*
X73653168Y-78293275D01*
X73827560Y-78409800D01*
X73653168Y-78526325D01*
X73446325Y-78733168D01*
X73283810Y-78976389D01*
X73171868Y-79246642D01*
X73114800Y-79533540D01*
X73114800Y-79826060D01*
X73171868Y-80112958D01*
X73283810Y-80383211D01*
X73446325Y-80626432D01*
X73653168Y-80833275D01*
X73835334Y-80954995D01*
X73718445Y-81024622D01*
X73502212Y-81219531D01*
X73328159Y-81452880D01*
X73202975Y-81715701D01*
X73158324Y-81862910D01*
X73279645Y-82092800D01*
X74472800Y-82092800D01*
X74472800Y-82072800D01*
X74726800Y-82072800D01*
X74726800Y-82092800D01*
X74746800Y-82092800D01*
X74746800Y-82346800D01*
X74726800Y-82346800D01*
X74726800Y-82366800D01*
X74472800Y-82366800D01*
X74472800Y-82346800D01*
X73279645Y-82346800D01*
X73158324Y-82576690D01*
X73202975Y-82723899D01*
X73328159Y-82986720D01*
X73502212Y-83220069D01*
X73718445Y-83414978D01*
X73835334Y-83484605D01*
X73653168Y-83606325D01*
X73446325Y-83813168D01*
X73283810Y-84056389D01*
X73171868Y-84326642D01*
X73114800Y-84613540D01*
X73114800Y-84906060D01*
X73171868Y-85192958D01*
X73283810Y-85463211D01*
X73446325Y-85706432D01*
X73653168Y-85913275D01*
X73827560Y-86029800D01*
X73653168Y-86146325D01*
X73446325Y-86353168D01*
X73283810Y-86596389D01*
X73171868Y-86866642D01*
X73114800Y-87153540D01*
X73114800Y-87446060D01*
X73171868Y-87732958D01*
X73283810Y-88003211D01*
X73446325Y-88246432D01*
X73653168Y-88453275D01*
X73827560Y-88569800D01*
X73653168Y-88686325D01*
X73446325Y-88893168D01*
X73283810Y-89136389D01*
X73171868Y-89406642D01*
X73114800Y-89693540D01*
X73114800Y-89986060D01*
X73171868Y-90272958D01*
X73283810Y-90543211D01*
X73446325Y-90786432D01*
X73653168Y-90993275D01*
X73827560Y-91109800D01*
X73653168Y-91226325D01*
X73446325Y-91433168D01*
X73283810Y-91676389D01*
X73171868Y-91946642D01*
X73114800Y-92233540D01*
X73114800Y-92526060D01*
X73171868Y-92812958D01*
X73283810Y-93083211D01*
X73446325Y-93326432D01*
X73653168Y-93533275D01*
X73827560Y-93649800D01*
X73653168Y-93766325D01*
X73446325Y-93973168D01*
X73283810Y-94216389D01*
X73171868Y-94486642D01*
X73114800Y-94773540D01*
X73114800Y-95066060D01*
X73171868Y-95352958D01*
X73283810Y-95623211D01*
X73446325Y-95866432D01*
X73653168Y-96073275D01*
X73827560Y-96189800D01*
X73653168Y-96306325D01*
X73446325Y-96513168D01*
X73283810Y-96756389D01*
X73171868Y-97026642D01*
X73114800Y-97313540D01*
X73114800Y-97606060D01*
X73171868Y-97892958D01*
X73283810Y-98163211D01*
X73446325Y-98406432D01*
X73653168Y-98613275D01*
X73827560Y-98729800D01*
X73653168Y-98846325D01*
X73446325Y-99053168D01*
X73283810Y-99296389D01*
X73171868Y-99566642D01*
X73114800Y-99853540D01*
X73114800Y-100146060D01*
X73171868Y-100432958D01*
X73283810Y-100703211D01*
X73446325Y-100946432D01*
X73653168Y-101153275D01*
X73827560Y-101269800D01*
X73653168Y-101386325D01*
X73446325Y-101593168D01*
X73283810Y-101836389D01*
X73171868Y-102106642D01*
X73114800Y-102393540D01*
X73114800Y-102686060D01*
X73171868Y-102972958D01*
X73283810Y-103243211D01*
X73446325Y-103486432D01*
X73653168Y-103693275D01*
X73827560Y-103809800D01*
X73653168Y-103926325D01*
X73446325Y-104133168D01*
X73283810Y-104376389D01*
X73171868Y-104646642D01*
X73114800Y-104933540D01*
X73114800Y-105226060D01*
X73171868Y-105512958D01*
X73283810Y-105783211D01*
X73446325Y-106026432D01*
X73653168Y-106233275D01*
X73827560Y-106349800D01*
X73653168Y-106466325D01*
X73446325Y-106673168D01*
X73283810Y-106916389D01*
X73171868Y-107186642D01*
X73114800Y-107473540D01*
X73114800Y-107766060D01*
X73171868Y-108052958D01*
X73283810Y-108323211D01*
X73446325Y-108566432D01*
X73653168Y-108773275D01*
X73827560Y-108889800D01*
X73653168Y-109006325D01*
X73446325Y-109213168D01*
X73283810Y-109456389D01*
X73171868Y-109726642D01*
X73114800Y-110013540D01*
X73114800Y-110306060D01*
X73171868Y-110592958D01*
X73283810Y-110863211D01*
X73446325Y-111106432D01*
X73653168Y-111313275D01*
X73827560Y-111429800D01*
X73653168Y-111546325D01*
X73446325Y-111753168D01*
X73283810Y-111996389D01*
X73171868Y-112266642D01*
X73114800Y-112553540D01*
X73114800Y-112846060D01*
X73171868Y-113132958D01*
X73283810Y-113403211D01*
X73446325Y-113646432D01*
X73653168Y-113853275D01*
X73827560Y-113969800D01*
X73653168Y-114086325D01*
X73446325Y-114293168D01*
X73283810Y-114536389D01*
X73171868Y-114806642D01*
X73114800Y-115093540D01*
X73114800Y-115386060D01*
X73171868Y-115672958D01*
X73283810Y-115943211D01*
X73446325Y-116186432D01*
X73653168Y-116393275D01*
X73827560Y-116509800D01*
X73653168Y-116626325D01*
X73446325Y-116833168D01*
X73283810Y-117076389D01*
X73171868Y-117346642D01*
X73114800Y-117633540D01*
X73114800Y-117926060D01*
X73171868Y-118212958D01*
X73283810Y-118483211D01*
X73446325Y-118726432D01*
X73653168Y-118933275D01*
X73827560Y-119049800D01*
X73653168Y-119166325D01*
X73446325Y-119373168D01*
X73283810Y-119616389D01*
X73171868Y-119886642D01*
X73114800Y-120173540D01*
X73114800Y-120466060D01*
X73171868Y-120752958D01*
X73283810Y-121023211D01*
X73446325Y-121266432D01*
X73653168Y-121473275D01*
X73896389Y-121635790D01*
X74166642Y-121747732D01*
X74453540Y-121804800D01*
X74746060Y-121804800D01*
X75032958Y-121747732D01*
X75303211Y-121635790D01*
X75546432Y-121473275D01*
X75753275Y-121266432D01*
X75915790Y-121023211D01*
X76027732Y-120752958D01*
X76084800Y-120466060D01*
X76084800Y-120173540D01*
X76027732Y-119886642D01*
X75964557Y-119734124D01*
X94373000Y-101325682D01*
X94472758Y-101325682D01*
X94314010Y-101484430D01*
X94310938Y-101973380D01*
X94323198Y-102097862D01*
X94359508Y-102217560D01*
X94418473Y-102327874D01*
X94497825Y-102424565D01*
X94594516Y-102503917D01*
X94704830Y-102562882D01*
X94824528Y-102599192D01*
X94949010Y-102611452D01*
X95238570Y-102608380D01*
X95397320Y-102449630D01*
X95397320Y-101325680D01*
X95651320Y-101325680D01*
X95651320Y-102449630D01*
X95810070Y-102608380D01*
X96099630Y-102611452D01*
X96224112Y-102599192D01*
X96343810Y-102562882D01*
X96454124Y-102503917D01*
X96550815Y-102424565D01*
X96630167Y-102327874D01*
X96689132Y-102217560D01*
X96725442Y-102097862D01*
X96737702Y-101973380D01*
X98461298Y-101973380D01*
X98473558Y-102097862D01*
X98509868Y-102217560D01*
X98568833Y-102327874D01*
X98648185Y-102424565D01*
X98744876Y-102503917D01*
X98855190Y-102562882D01*
X98974888Y-102599192D01*
X99099370Y-102611452D01*
X99388930Y-102608380D01*
X99547680Y-102449630D01*
X99547680Y-101325680D01*
X98623120Y-101325680D01*
X98464370Y-101484430D01*
X98461298Y-101973380D01*
X96737702Y-101973380D01*
X96734630Y-101484430D01*
X96575880Y-101325680D01*
X95651320Y-101325680D01*
X95397320Y-101325680D01*
X95377320Y-101325680D01*
X95377320Y-101071680D01*
X95397320Y-101071680D01*
X95397320Y-101051680D01*
X95651320Y-101051680D01*
X95651320Y-101071680D01*
X96575880Y-101071680D01*
X96734630Y-100912930D01*
X96737702Y-100423980D01*
X96725442Y-100299498D01*
X96689132Y-100179800D01*
X96630167Y-100069486D01*
X96589112Y-100019460D01*
X96589112Y-99822000D01*
X96576852Y-99697518D01*
X96569539Y-99673410D01*
X96576852Y-99649302D01*
X96589112Y-99524820D01*
X96589112Y-99321620D01*
X96576852Y-99197138D01*
X96569539Y-99173030D01*
X96576852Y-99148922D01*
X96589112Y-99024440D01*
X96589112Y-98821240D01*
X96576852Y-98696758D01*
X96569539Y-98672650D01*
X96576852Y-98648542D01*
X96589112Y-98524060D01*
X96589112Y-98320860D01*
X96576852Y-98196378D01*
X96569924Y-98173540D01*
X96576852Y-98150702D01*
X96589112Y-98026220D01*
X96589112Y-97823020D01*
X96576852Y-97698538D01*
X96569539Y-97674430D01*
X96576852Y-97650322D01*
X96589112Y-97525840D01*
X96589112Y-97322640D01*
X96576852Y-97198158D01*
X96569539Y-97174050D01*
X96576852Y-97149942D01*
X96589112Y-97025460D01*
X96589112Y-96822260D01*
X96576852Y-96697778D01*
X96569539Y-96673670D01*
X96576852Y-96649562D01*
X96589112Y-96525080D01*
X96589112Y-96321880D01*
X96576852Y-96197398D01*
X96569539Y-96173290D01*
X96576852Y-96149182D01*
X96589112Y-96024700D01*
X96589112Y-95821500D01*
X96576852Y-95697018D01*
X96569539Y-95672910D01*
X96576852Y-95648802D01*
X96589112Y-95524320D01*
X96589112Y-95321120D01*
X96576852Y-95196638D01*
X96569539Y-95172530D01*
X96576852Y-95148422D01*
X96589112Y-95023940D01*
X96589112Y-94820740D01*
X96576852Y-94696258D01*
X96569924Y-94673420D01*
X96576852Y-94650582D01*
X96589112Y-94526100D01*
X96589112Y-94322900D01*
X96576852Y-94198418D01*
X96569539Y-94174310D01*
X96576852Y-94150202D01*
X96589112Y-94025720D01*
X96589112Y-93822520D01*
X96576852Y-93698038D01*
X96569539Y-93673930D01*
X96576852Y-93649822D01*
X96589112Y-93525340D01*
X96589112Y-93322140D01*
X96576852Y-93197658D01*
X96569539Y-93173550D01*
X96576852Y-93149442D01*
X96589112Y-93024960D01*
X96589112Y-92821760D01*
X96576852Y-92697278D01*
X96570379Y-92675940D01*
X96572124Y-92670837D01*
X96586040Y-92581730D01*
X96493061Y-92488751D01*
X96481577Y-92467266D01*
X96445233Y-92422980D01*
X96481577Y-92378694D01*
X96493061Y-92357209D01*
X96586040Y-92264230D01*
X96572124Y-92175123D01*
X96570379Y-92170020D01*
X96576852Y-92148682D01*
X96589112Y-92024200D01*
X96589112Y-91821000D01*
X96576852Y-91696518D01*
X96569924Y-91673680D01*
X96576852Y-91650842D01*
X96589112Y-91526360D01*
X96589112Y-91323160D01*
X96576852Y-91198678D01*
X96569539Y-91174570D01*
X96576852Y-91150462D01*
X96589112Y-91025980D01*
X96589112Y-90822780D01*
X96576852Y-90698298D01*
X96569539Y-90674190D01*
X96576852Y-90650082D01*
X96589112Y-90525600D01*
X96589112Y-90328140D01*
X96630167Y-90278114D01*
X96689132Y-90167800D01*
X96725442Y-90048102D01*
X96737702Y-89923620D01*
X98461298Y-89923620D01*
X98473558Y-90048102D01*
X98509868Y-90167800D01*
X98568833Y-90278114D01*
X98612428Y-90331235D01*
X98612428Y-90525600D01*
X98624688Y-90650082D01*
X98632001Y-90674190D01*
X98624688Y-90698298D01*
X98612428Y-90822780D01*
X98612428Y-91025980D01*
X98624688Y-91150462D01*
X98632001Y-91174570D01*
X98624688Y-91198678D01*
X98612428Y-91323160D01*
X98612428Y-91526360D01*
X98624688Y-91650842D01*
X98630753Y-91670834D01*
X98629416Y-91674743D01*
X98615500Y-91763850D01*
X98705562Y-91853912D01*
X98719963Y-91880854D01*
X98755265Y-91923870D01*
X98719963Y-91966886D01*
X98708479Y-91988371D01*
X98615500Y-92081350D01*
X98629416Y-92170457D01*
X98631161Y-92175560D01*
X98624688Y-92196898D01*
X98612428Y-92321380D01*
X98612428Y-92524580D01*
X98624688Y-92649062D01*
X98632001Y-92673170D01*
X98624688Y-92697278D01*
X98612428Y-92821760D01*
X98612428Y-93024960D01*
X98624688Y-93149442D01*
X98632001Y-93173550D01*
X98624688Y-93197658D01*
X98612428Y-93322140D01*
X98612428Y-93525340D01*
X98624688Y-93649822D01*
X98632001Y-93673930D01*
X98624688Y-93698038D01*
X98612428Y-93822520D01*
X98612428Y-94025720D01*
X98624688Y-94150202D01*
X98632001Y-94174310D01*
X98624688Y-94198418D01*
X98612428Y-94322900D01*
X98612428Y-94526100D01*
X98624688Y-94650582D01*
X98631616Y-94673420D01*
X98624688Y-94696258D01*
X98612428Y-94820740D01*
X98612428Y-95023940D01*
X98624688Y-95148422D01*
X98632001Y-95172530D01*
X98624688Y-95196638D01*
X98612428Y-95321120D01*
X98612428Y-95524320D01*
X98624688Y-95648802D01*
X98632001Y-95672910D01*
X98624688Y-95697018D01*
X98612428Y-95821500D01*
X98612428Y-96024700D01*
X98624688Y-96149182D01*
X98632001Y-96173290D01*
X98624688Y-96197398D01*
X98612428Y-96321880D01*
X98612428Y-96525080D01*
X98624688Y-96649562D01*
X98632001Y-96673670D01*
X98624688Y-96697778D01*
X98612428Y-96822260D01*
X98612428Y-97025460D01*
X98624688Y-97149942D01*
X98632001Y-97174050D01*
X98624688Y-97198158D01*
X98612428Y-97322640D01*
X98612428Y-97525840D01*
X98624688Y-97650322D01*
X98632001Y-97674430D01*
X98624688Y-97698538D01*
X98612428Y-97823020D01*
X98612428Y-98026220D01*
X98624688Y-98150702D01*
X98631616Y-98173540D01*
X98624688Y-98196378D01*
X98612428Y-98320860D01*
X98612428Y-98524060D01*
X98624688Y-98648542D01*
X98632001Y-98672650D01*
X98624688Y-98696758D01*
X98612428Y-98821240D01*
X98612428Y-99024440D01*
X98624688Y-99148922D01*
X98632001Y-99173030D01*
X98624688Y-99197138D01*
X98612428Y-99321620D01*
X98612428Y-99524820D01*
X98624688Y-99649302D01*
X98632001Y-99673410D01*
X98624688Y-99697518D01*
X98612428Y-99822000D01*
X98612428Y-100016365D01*
X98568833Y-100069486D01*
X98509868Y-100179800D01*
X98473558Y-100299498D01*
X98461298Y-100423980D01*
X98464370Y-100912930D01*
X98623120Y-101071680D01*
X99547680Y-101071680D01*
X99547680Y-101051680D01*
X99801680Y-101051680D01*
X99801680Y-101071680D01*
X99821680Y-101071680D01*
X99821680Y-101325680D01*
X99801680Y-101325680D01*
X99801680Y-102449630D01*
X99960430Y-102608380D01*
X100249990Y-102611452D01*
X100374472Y-102599192D01*
X100494170Y-102562882D01*
X100604484Y-102503917D01*
X100701175Y-102424565D01*
X100780527Y-102327874D01*
X100839492Y-102217560D01*
X100875802Y-102097862D01*
X100888062Y-101973380D01*
X100884990Y-101484430D01*
X100726242Y-101325682D01*
X100828541Y-101325682D01*
X119050248Y-119547390D01*
X119004010Y-119616589D01*
X118892068Y-119886842D01*
X118835000Y-120173740D01*
X118835000Y-120466260D01*
X118892068Y-120753158D01*
X119004010Y-121023411D01*
X119166525Y-121266632D01*
X119373368Y-121473475D01*
X119616589Y-121635990D01*
X119886842Y-121747932D01*
X120173740Y-121805000D01*
X120466260Y-121805000D01*
X120753158Y-121747932D01*
X121023411Y-121635990D01*
X121266632Y-121473475D01*
X121473475Y-121266632D01*
X121635990Y-121023411D01*
X121747932Y-120753158D01*
X121805000Y-120466260D01*
X121805000Y-120173740D01*
X121747932Y-119886842D01*
X121635990Y-119616589D01*
X121473475Y-119373368D01*
X121266632Y-119166525D01*
X121092240Y-119050000D01*
X121266632Y-118933475D01*
X121473475Y-118726632D01*
X121635990Y-118483411D01*
X121747932Y-118213158D01*
X121805000Y-117926260D01*
X121805000Y-117633740D01*
X121747932Y-117346842D01*
X121635990Y-117076589D01*
X121473475Y-116833368D01*
X121266632Y-116626525D01*
X121092240Y-116510000D01*
X121266632Y-116393475D01*
X121473475Y-116186632D01*
X121635990Y-115943411D01*
X121747932Y-115673158D01*
X121805000Y-115386260D01*
X121805000Y-115093740D01*
X121747932Y-114806842D01*
X121635990Y-114536589D01*
X121473475Y-114293368D01*
X121266632Y-114086525D01*
X121092240Y-113970000D01*
X121266632Y-113853475D01*
X121473475Y-113646632D01*
X121635990Y-113403411D01*
X121747932Y-113133158D01*
X121805000Y-112846260D01*
X121805000Y-112553740D01*
X121747932Y-112266842D01*
X121635990Y-111996589D01*
X121473475Y-111753368D01*
X121266632Y-111546525D01*
X121092240Y-111430000D01*
X121266632Y-111313475D01*
X121473475Y-111106632D01*
X121635990Y-110863411D01*
X121747932Y-110593158D01*
X121805000Y-110306260D01*
X121805000Y-110013740D01*
X121747932Y-109726842D01*
X121635990Y-109456589D01*
X121473475Y-109213368D01*
X121266632Y-109006525D01*
X121092240Y-108890000D01*
X121266632Y-108773475D01*
X121473475Y-108566632D01*
X121635990Y-108323411D01*
X121747932Y-108053158D01*
X121805000Y-107766260D01*
X121805000Y-107473740D01*
X121747932Y-107186842D01*
X121635990Y-106916589D01*
X121473475Y-106673368D01*
X121266632Y-106466525D01*
X121092240Y-106350000D01*
X121266632Y-106233475D01*
X121473475Y-106026632D01*
X121635990Y-105783411D01*
X121747932Y-105513158D01*
X121805000Y-105226260D01*
X121805000Y-104933740D01*
X121747932Y-104646842D01*
X121635990Y-104376589D01*
X121473475Y-104133368D01*
X121266632Y-103926525D01*
X121092240Y-103810000D01*
X121266632Y-103693475D01*
X121473475Y-103486632D01*
X121635990Y-103243411D01*
X121747932Y-102973158D01*
X121805000Y-102686260D01*
X121805000Y-102393740D01*
X121747932Y-102106842D01*
X121635990Y-101836589D01*
X121473475Y-101593368D01*
X121266632Y-101386525D01*
X121092240Y-101270000D01*
X121266632Y-101153475D01*
X121473475Y-100946632D01*
X121635990Y-100703411D01*
X121747932Y-100433158D01*
X121805000Y-100146260D01*
X121805000Y-99853740D01*
X121747932Y-99566842D01*
X121635990Y-99296589D01*
X121473475Y-99053368D01*
X121266632Y-98846525D01*
X121092240Y-98730000D01*
X121266632Y-98613475D01*
X121473475Y-98406632D01*
X121635990Y-98163411D01*
X121747932Y-97893158D01*
X121805000Y-97606260D01*
X121805000Y-97313740D01*
X121747932Y-97026842D01*
X121635990Y-96756589D01*
X121473475Y-96513368D01*
X121266632Y-96306525D01*
X121092240Y-96190000D01*
X121266632Y-96073475D01*
X121473475Y-95866632D01*
X121635990Y-95623411D01*
X121747932Y-95353158D01*
X121805000Y-95066260D01*
X121805000Y-94773740D01*
X121747932Y-94486842D01*
X121635990Y-94216589D01*
X121473475Y-93973368D01*
X121266632Y-93766525D01*
X121092240Y-93650000D01*
X121266632Y-93533475D01*
X121473475Y-93326632D01*
X121635990Y-93083411D01*
X121747932Y-92813158D01*
X121805000Y-92526260D01*
X121805000Y-92233740D01*
X121747932Y-91946842D01*
X121635990Y-91676589D01*
X121473475Y-91433368D01*
X121266632Y-91226525D01*
X121092240Y-91110000D01*
X121266632Y-90993475D01*
X121473475Y-90786632D01*
X121635990Y-90543411D01*
X121747932Y-90273158D01*
X121805000Y-89986260D01*
X121805000Y-89693740D01*
X121747932Y-89406842D01*
X121635990Y-89136589D01*
X121473475Y-88893368D01*
X121266632Y-88686525D01*
X121092240Y-88570000D01*
X121266632Y-88453475D01*
X121473475Y-88246632D01*
X121635990Y-88003411D01*
X121747932Y-87733158D01*
X121805000Y-87446260D01*
X121805000Y-87153740D01*
X121747932Y-86866842D01*
X121635990Y-86596589D01*
X121473475Y-86353368D01*
X121266632Y-86146525D01*
X121092240Y-86030000D01*
X121266632Y-85913475D01*
X121473475Y-85706632D01*
X121635990Y-85463411D01*
X121747932Y-85193158D01*
X121805000Y-84906260D01*
X121805000Y-84613740D01*
X121747932Y-84326842D01*
X121635990Y-84056589D01*
X121473475Y-83813368D01*
X121266632Y-83606525D01*
X121092240Y-83490000D01*
X121266632Y-83373475D01*
X121473475Y-83166632D01*
X121635990Y-82923411D01*
X121747932Y-82653158D01*
X121805000Y-82366260D01*
X121805000Y-82073740D01*
X121747932Y-81786842D01*
X121635990Y-81516589D01*
X121473475Y-81273368D01*
X121266632Y-81066525D01*
X121084466Y-80944805D01*
X121201355Y-80875178D01*
X121417588Y-80680269D01*
X121591641Y-80446920D01*
X121716825Y-80184099D01*
X121761476Y-80036890D01*
X121640155Y-79807000D01*
X120447000Y-79807000D01*
X120447000Y-79827000D01*
X120193000Y-79827000D01*
X120193000Y-79807000D01*
X120173000Y-79807000D01*
X120173000Y-79553000D01*
X120193000Y-79553000D01*
X120193000Y-79533000D01*
X120447000Y-79533000D01*
X120447000Y-79553000D01*
X121640155Y-79553000D01*
X121761476Y-79323110D01*
X121716825Y-79175901D01*
X121591641Y-78913080D01*
X121417588Y-78679731D01*
X121201355Y-78484822D01*
X121084466Y-78415195D01*
X121266632Y-78293475D01*
X121473475Y-78086632D01*
X121635990Y-77843411D01*
X121747932Y-77573158D01*
X121805000Y-77286260D01*
X121805000Y-76993740D01*
X121747932Y-76706842D01*
X121635990Y-76436589D01*
X121473475Y-76193368D01*
X121266632Y-75986525D01*
X121092240Y-75870000D01*
X121266632Y-75753475D01*
X121473475Y-75546632D01*
X121635990Y-75303411D01*
X121747932Y-75033158D01*
X121805000Y-74746260D01*
X121805000Y-74453740D01*
X121747932Y-74166842D01*
X121635990Y-73896589D01*
X121473475Y-73653368D01*
X121266632Y-73446525D01*
X121092240Y-73330000D01*
X121266632Y-73213475D01*
X121473475Y-73006632D01*
X121635990Y-72763411D01*
X121747932Y-72493158D01*
X121805000Y-72206260D01*
X121805000Y-71913740D01*
X121747932Y-71626842D01*
X121635990Y-71356589D01*
X121473475Y-71113368D01*
X121266632Y-70906525D01*
X121084466Y-70784805D01*
X121201355Y-70715178D01*
X121417588Y-70520269D01*
X121591641Y-70286920D01*
X121716825Y-70024099D01*
X121761476Y-69876890D01*
X121640155Y-69647000D01*
X120447000Y-69647000D01*
X120447000Y-69667000D01*
X120193000Y-69667000D01*
X120193000Y-69647000D01*
X118999845Y-69647000D01*
X118878524Y-69876890D01*
X118923175Y-70024099D01*
X119048359Y-70286920D01*
X119222412Y-70520269D01*
X119438645Y-70715178D01*
X119555534Y-70784805D01*
X119373368Y-70906525D01*
X119166525Y-71113368D01*
X119004010Y-71356589D01*
X118892068Y-71626842D01*
X118835000Y-71913740D01*
X118835000Y-72206260D01*
X118878790Y-72426408D01*
X101641199Y-89664000D01*
X100886431Y-89664000D01*
X100884990Y-89434670D01*
X100726240Y-89275920D01*
X99801680Y-89275920D01*
X99801680Y-89295920D01*
X99547680Y-89295920D01*
X99547680Y-89275920D01*
X98623120Y-89275920D01*
X98464370Y-89434670D01*
X98461298Y-89923620D01*
X96737702Y-89923620D01*
X96734630Y-89434670D01*
X96575880Y-89275920D01*
X95651320Y-89275920D01*
X95651320Y-89295920D01*
X95397320Y-89295920D01*
X95397320Y-89275920D01*
X94472760Y-89275920D01*
X94314010Y-89434670D01*
X94312569Y-89664000D01*
X93278802Y-89664000D01*
X91989022Y-88374220D01*
X94310938Y-88374220D01*
X94314010Y-88863170D01*
X94472760Y-89021920D01*
X95397320Y-89021920D01*
X95397320Y-87897970D01*
X95651320Y-87897970D01*
X95651320Y-89021920D01*
X96575880Y-89021920D01*
X96734630Y-88863170D01*
X96737702Y-88374220D01*
X98461298Y-88374220D01*
X98464370Y-88863170D01*
X98623120Y-89021920D01*
X99547680Y-89021920D01*
X99547680Y-87897970D01*
X99801680Y-87897970D01*
X99801680Y-89021920D01*
X100726240Y-89021920D01*
X100884990Y-88863170D01*
X100888062Y-88374220D01*
X100875802Y-88249738D01*
X100839492Y-88130040D01*
X100780527Y-88019726D01*
X100701175Y-87923035D01*
X100604484Y-87843683D01*
X100494170Y-87784718D01*
X100374472Y-87748408D01*
X100249990Y-87736148D01*
X99960430Y-87739220D01*
X99801680Y-87897970D01*
X99547680Y-87897970D01*
X99388930Y-87739220D01*
X99099370Y-87736148D01*
X98974888Y-87748408D01*
X98855190Y-87784718D01*
X98744876Y-87843683D01*
X98648185Y-87923035D01*
X98568833Y-88019726D01*
X98509868Y-88130040D01*
X98473558Y-88249738D01*
X98461298Y-88374220D01*
X96737702Y-88374220D01*
X96725442Y-88249738D01*
X96689132Y-88130040D01*
X96630167Y-88019726D01*
X96550815Y-87923035D01*
X96454124Y-87843683D01*
X96343810Y-87784718D01*
X96224112Y-87748408D01*
X96099630Y-87736148D01*
X95810070Y-87739220D01*
X95651320Y-87897970D01*
X95397320Y-87897970D01*
X95238570Y-87739220D01*
X94949010Y-87736148D01*
X94824528Y-87748408D01*
X94704830Y-87784718D01*
X94594516Y-87843683D01*
X94497825Y-87923035D01*
X94418473Y-88019726D01*
X94359508Y-88130040D01*
X94323198Y-88249738D01*
X94310938Y-88374220D01*
X91989022Y-88374220D01*
X76041009Y-72426208D01*
X76084800Y-72206060D01*
X76084800Y-71913540D01*
X76027732Y-71626642D01*
X75915790Y-71356389D01*
X75753275Y-71113168D01*
X75546432Y-70906325D01*
X75364266Y-70784605D01*
X75481155Y-70714978D01*
X75697388Y-70520069D01*
X75871441Y-70286720D01*
X75996625Y-70023899D01*
X76041276Y-69876690D01*
X75919955Y-69646800D01*
X74726800Y-69646800D01*
X74726800Y-69666800D01*
X74472800Y-69666800D01*
X74472800Y-69646800D01*
X73279645Y-69646800D01*
X73158324Y-69876690D01*
X73202975Y-70023899D01*
X73328159Y-70286720D01*
X73502212Y-70520069D01*
X73718445Y-70714978D01*
X73835334Y-70784605D01*
X73653168Y-70906325D01*
X73446325Y-71113168D01*
X73283810Y-71356389D01*
X73171868Y-71626642D01*
X73114800Y-71913540D01*
X72542000Y-71913540D01*
X72542000Y-67829800D01*
X73111728Y-67829800D01*
X73123988Y-67954282D01*
X73160298Y-68073980D01*
X73219263Y-68184294D01*
X73298615Y-68280985D01*
X73395306Y-68360337D01*
X73505620Y-68419302D01*
X73586266Y-68443766D01*
X73502212Y-68519531D01*
X73328159Y-68752880D01*
X73202975Y-69015701D01*
X73158324Y-69162910D01*
X73279645Y-69392800D01*
X74472800Y-69392800D01*
X74472800Y-67106800D01*
X74726800Y-67106800D01*
X74726800Y-69392800D01*
X75919955Y-69392800D01*
X76041276Y-69162910D01*
X75996625Y-69015701D01*
X75871441Y-68752880D01*
X75697388Y-68519531D01*
X75613334Y-68443766D01*
X75693980Y-68419302D01*
X75804294Y-68360337D01*
X75900985Y-68280985D01*
X75980337Y-68184294D01*
X76039302Y-68073980D01*
X76075612Y-67954282D01*
X76087872Y-67829800D01*
X76084800Y-67265550D01*
X75926050Y-67106800D01*
X74726800Y-67106800D01*
X74472800Y-67106800D01*
X73273550Y-67106800D01*
X73114800Y-67265550D01*
X73111728Y-67829800D01*
X72542000Y-67829800D01*
X72542000Y-66129800D01*
X73111728Y-66129800D01*
X73114800Y-66694050D01*
X73273550Y-66852800D01*
X74472800Y-66852800D01*
X74472800Y-65653550D01*
X74726800Y-65653550D01*
X74726800Y-66852800D01*
X75926050Y-66852800D01*
X76084800Y-66694050D01*
X76087872Y-66129800D01*
X76075612Y-66005318D01*
X76039302Y-65885620D01*
X75980337Y-65775306D01*
X75900985Y-65678615D01*
X75804294Y-65599263D01*
X75693980Y-65540298D01*
X75574282Y-65503988D01*
X75449800Y-65491728D01*
X74885550Y-65494800D01*
X74726800Y-65653550D01*
X74472800Y-65653550D01*
X74314050Y-65494800D01*
X73749800Y-65491728D01*
X73625318Y-65503988D01*
X73505620Y-65540298D01*
X73395306Y-65599263D01*
X73298615Y-65678615D01*
X73219263Y-65775306D01*
X73160298Y-65885620D01*
X73123988Y-66005318D01*
X73111728Y-66129800D01*
X72542000Y-66129800D01*
X72542000Y-65818277D01*
X72561559Y-65618800D01*
X72610120Y-65457959D01*
X72688992Y-65309622D01*
X72795176Y-65179426D01*
X72924626Y-65072336D01*
X73072414Y-64992428D01*
X73232902Y-64942748D01*
X73430306Y-64922000D01*
X82965286Y-64922000D01*
X82965286Y-71123000D01*
G37*
%TD.AperFunction*%
%TD*%
M02*
